RepositoryCopies Version :3435
  ClaferMooVisualizer Version :1019
    FeatureMapping.json Version :3080
      Block Version :3080
    Talk_Samples Version :1292
      Non-AFM.cfr Version :1293
        Non-AFM.cfr-block1 Version :1293
      ClaferMooVizPaperExample_Existing1.data Version :540
        ClaferMooVizPaperExample_Existing1.data-block1 Version :540
      ClaferMooVizPaperExample_Existing1.cfr Version :538
        ClaferMooVizPaperExample_Existing1.cfr-block1 Version :538
      ClaferMooVizPaperExample_Downgraded_Front.data Version :536
        ClaferMooVizPaperExample_Downgraded_Front.data-block1 Version :536
      ClaferMooVizPaperExample_Downgraded_Front.cfr Version :534
        ClaferMooVizPaperExample_Downgraded_Front.cfr-block1 Version :534
      ClaferMooVizPaperExample.data Version :532
        ClaferMooVizPaperExample.data-block1 Version :532
      ClaferMooVizPaperExample.cfr Version :530
        ClaferMooVizPaperExample.cfr-block1 Version :530
      AndroidSampleMoo_5.cfr Version :528
        AndroidSampleMoo_5.cfr-block1 Version :528
      AndroidSampleMoo_4_existing_product_spec.cfr Version :526
        AndroidSampleMoo_4_existing_product_spec.cfr-block1 Version :526
      AndroidSampleMoo_4.cfr Version :524
        AndroidSampleMoo_4.cfr-block1 Version :524
      AndroidSampleMoo_3.cfr Version :522
        AndroidSampleMoo_3.cfr-block1 Version :522
      AndroidSampleMoo_2.cfr.2.data Version :520
        AndroidSampleMoo_2.cfr.2.data-block1 Version :520
      AndroidSampleMoo_2.cfr.1.data Version :518
        AndroidSampleMoo_2.cfr.1.data-block1 Version :518
      AndroidSampleMoo_2.cfr Version :516
        AndroidSampleMoo_2.cfr-block1 Version :516
    Server Version :513
      uploads Version :513
      server.js Version :3216
        block Version :3215
        block Version :3214
        block Version :3210
        block Version :3200
        block Version :3199
        block Version :3196
        block Version :3195
        block Version :3192
        block Version :3189
        block Version :3186
        block Version :3185
        block Version :3183
        block Version :3182
        block Version :3179
        block Version :3178
        block Version :3174
        block Version :3172
        block Version :3171
        block Version :3168
        block Version :3165
        block Version :3162
        block Version :3159
        block Version :3158
        block Version :3152
        block Version :3151
        block Version :3148
        block Version :3145
        block Version :3144
        block Version :3141
        block Version :3138
        block Version :3135
        block Version :3134
        block Version :3131
        block Version :3128
        block Version :3127
        block Version :3125
        block Version :3123
        block Version :3120
        block Version :3119
        block Version :3202
        block Version :3115
        block Version :3113
        block Version :3112
        block Version :3111
        block Version :3109
        block Version :3107
        block Version :3104
        block Version :3103
        downloadFile(url, Version :3102
          Block Version :0
        finishCleanup(dir, Version :3101
          Block Version :3206
        cleanupOldFiles(path, Version :3100
          Block Version :3207
        deleteOld(path){ Version :3099
          Block Version :3208
        escapeHtml(unsafe) Version :3098
          Block Version :0
        changeFileExt(name, Version :3097
          Block Version :0
        killProcessTree(process) Version :3096
          Block Version :3213
        dependency_ok() Version :3095
          Block Version :3218
        Block Version :3203
        Block Version :3204
        Block Version :3205
        Block Version :3089
        Block Version :3209
        Block Version :3217
      package.json Version :500
        package.json-block1 Version :500
      config.json Version :1722
        block Version :1721
        block Version :1720
        block Version :1719
      Client Version :2599
        jquery.html5-placeholder-shim.js Version :2600
          jquery.html5-placeholder-shim.js-block1 Version :2600
        instance_parser.js Version :1023
          InstanceParser(instances) Version :1023
            Block Version :0
          Block Version :1022
        styles.css Version :3220
          styles.css-block1 Version :3220
        selector.js Version :2732
          Selector(host) Version :2732
            Block Version :0
          Block Version :2731
          Block Version :2730
        robots.txt Version :490
          robots.txt-block1 Version :490
        md_usecases.js Version :488
          Block Version :488
          Block Version :487
          UseCases(host) Version :486
            Block Version :0
        md_input.js Version :3434
          block Version :3433
          block Version :3432
          block Version :3429
          block Version :3428
          block Version :3425
          block Version :3424
          block Version :3421
          block Version :3420
          block Version :3417
          block Version :3416
          block Version :3435
          block Version :3412
          block Version :3409
          block Version :3408
          block Version :3406
          block Version :3405
          block Version :3402
          block Version :3401
          block Version :3396
          block Version :3395
          block Version :3394
          block Version :3391
          block Version :3390
          block Version :3387
          block Version :3384
          block Version :3383
          block Version :3379
          block Version :3376
          block Version :3375
          block Version :3372
          block Version :3371
          block Version :3368
          block Version :3367
          block Version :3364
          block Version :3361
          block Version :3360
          block Version :3357
          block Version :3354
          block Version :3353
          block Version :3350
          block Version :3347
          block Version :3346
          block Version :3343
          block Version :3340
          block Version :3339
          block Version :3336
          block Version :3335
          Input(host) Version :3334
            block Version :3333
            block Version :3332
            block Version :3331
            block Version :3327
          Block Version :3325
        md_graph.js Version :2822
          Graph(host) Version :2822
            Block Version :0
          setDim(el, Version :2821
            Block Version :0
          Block Version :2820
          Block Version :2819
          Block Version :2818
        md_goals.js Version :3304
          Goals(host) Version :3304
            Block Version :0
          Block Version :3303
          Block Version :3302
        md_console.js Version :2084
          Console(host) Version :2084
            Block Version :0
          Block Version :2083
          Block Version :2082
        md_comparison_table.js Version :2826
          ComparisonTable(host) Version :2826
            Block Version :0
          Block Version :2825
          Block Version :2824
        md_analysis.js Version :3308
          Analysis(host) Version :3308
            Block Version :0
          Block Version :3307
          Block Version :3306
        main.js Version :3316
          block Version :3315
          block Version :3314
          block Version :3313
          Host(modules) Version :3312
            Block Version :0
          Block Version :3311
        instance_filter.js Version :2842
          InstanceFilter Version :2842
            Block Version :0
          Block Version :2841
          Block Version :2840
        images Version :449
          verticalAxis.png Version :450
            verticalAxis.png-block1 Version :450
          tick.png Version :448
            tick.png-block1 Version :448
          removeMouseOver.png Version :446
            removeMouseOver.png-block1 Version :446
          remove.png Version :444
            remove.png-block1 Version :444
          preloader.gif Version :442
            preloader.gif-block1 Version :442
          no.png Version :440
            no.png-block1 Version :440
          horizontalAxis.png Version :438
            horizontalAxis.png-block1 Version :438
          help_hover.png Version :436
            help_hover.png-block1 Version :436
          help.png Version :434
            help.png-block1 Version :434
          checkbox_x.bmp Version :432
            checkbox_x.bmp-block1 Version :432
          checkbox_ticked_greyed.png Version :430
            checkbox_ticked_greyed.png-block1 Version :430
          checkbox_ticked.bmp Version :428
            checkbox_ticked.bmp-block1 Version :428
          checkbox_empty.bmp Version :426
            checkbox_empty.bmp-block1 Version :426
        help_pages Version :3083
          objectivesandqualityranges_help.html Version :3084
            objectivesandqualityranges_help.html-block1 Version :3084
          inputfileorexample_help.html Version :3082
            inputfileorexample_help.html-block1 Version :3082
          variantcomparer_help.html Version :3068
            variantcomparer_help.html-block1 Version :3068
          start_help.html Version :3318
            start_help.html-block1 Version :3318
          objectives_help.html Version :3072
            objectives_help.html-block1 Version :3072
          input_help.html Version :3074
            input_help.html-block1 Version :3074
          featureandqualitymatrix_help.html Version :3076
            featureandqualitymatrix_help.html-block1 Version :3076
          bubblefrontgraph_help.html Version :3320
            bubblefrontgraph_help.html-block1 Version :3320
        commons Version :407
          xml_helper.js Version :410
            Block Version :410
            Block Version :409
            XMLHelper() Version :408
              Block Version :0
          set Version :349
            src Version :405
              tsort.js Version :406
                Block Version :406
              test.js Version :404
                Block Version :404
              state.js Version :402
                Block Version :402
              stack_trace.js Version :400
                Block Version :400
              set.js Version :398
                Block Version :398
              range.js Version :396
                Block Version :396
              proxy.js Version :394
                Block Version :394
              package.js Version :392
                Block Version :392
              package-browser.js Version :390
                Block Version :390
              observable.js Version :388
                Block Version :388
              method_chain.js Version :386
                Block Version :386
              loader.js Version :384
                Block Version :384
              loader-browser.js Version :382
                Block Version :382
              linked_list.js Version :380
                Block Version :380
              hash.js Version :378
                Block Version :378
              forwardable.js Version :376
                Block Version :376
              enumerable.js Version :374
                Block Version :374
              dom.js Version :372
                Block Version :372
              deferrable.js Version :370
                Block Version :370
              decorator.js Version :368
                Block Version :368
              core.js Version :366
                Block Version :366
              constant_scope.js Version :364
                Block Version :364
              console.js Version :362
                Block Version :362
              comparable.js Version :360
                Block Version :360
              command.js Version :358
                Block Version :358
              benchmark.js Version :356
                Block Version :356
              assets Version :353
                testui.css Version :354
                  testui.css-block1 Version :354
                bullet_go.png Version :352
                  bullet_go.png-block1 Version :352
            README.txt Version :348
              README.txt-block1 Version :348
            package.json Version :346
              package.json-block1 Version :346
            min Version :343
              tsort.js.map Version :344
                tsort.js.map-block1 Version :344
              tsort.js Version :342
                Block Version :342
              test.js.map Version :340
                test.js.map-block1 Version :340
              test.js Version :338
                Block Version :338
              state.js.map Version :336
                state.js.map-block1 Version :336
              state.js Version :334
                Block Version :334
              stack_trace.js.map Version :332
                stack_trace.js.map-block1 Version :332
              stack_trace.js Version :330
                Block Version :330
              set.js.map Version :328
                set.js.map-block1 Version :328
              set.js Version :326
                Block Version :326
              range.js.map Version :324
                range.js.map-block1 Version :324
              range.js Version :322
                Block Version :322
              proxy.js.map Version :320
                proxy.js.map-block1 Version :320
              proxy.js Version :318
                Block Version :318
              package.js.map Version :316
                package.js.map-block1 Version :316
              package.js Version :314
                Block Version :314
              package-browser.js.map Version :312
                package-browser.js.map-block1 Version :312
              package-browser.js Version :310
                Block Version :310
              observable.js.map Version :308
                observable.js.map-block1 Version :308
              observable.js Version :306
                Block Version :306
              method_chain.js.map Version :304
                method_chain.js.map-block1 Version :304
              method_chain.js Version :302
                Block Version :302
              loader.js.map Version :300
                loader.js.map-block1 Version :300
              loader.js Version :298
                Block Version :298
              loader-browser.js.map Version :296
                loader-browser.js.map-block1 Version :296
              loader-browser.js Version :294
                Block Version :294
              linked_list.js.map Version :292
                linked_list.js.map-block1 Version :292
              linked_list.js Version :290
                Block Version :290
              hash.js.map Version :288
                hash.js.map-block1 Version :288
              hash.js Version :286
                Block Version :286
              forwardable.js.map Version :284
                forwardable.js.map-block1 Version :284
              forwardable.js Version :282
                Block Version :282
              enumerable.js.map Version :280
                enumerable.js.map-block1 Version :280
              enumerable.js Version :278
                Block Version :278
              dom.js.map Version :276
                dom.js.map-block1 Version :276
              dom.js Version :274
                Block Version :274
              deferrable.js.map Version :272
                deferrable.js.map-block1 Version :272
              deferrable.js Version :270
                Block Version :270
              decorator.js.map Version :268
                decorator.js.map-block1 Version :268
              decorator.js Version :266
                Block Version :266
              core.js.map Version :264
                core.js.map-block1 Version :264
              core.js Version :262
                Block Version :262
              constant_scope.js.map Version :260
                constant_scope.js.map-block1 Version :260
              constant_scope.js Version :258
                Block Version :258
              console.js.map Version :256
                console.js.map-block1 Version :256
              console.js Version :254
                Block Version :254
              comparable.js.map Version :252
                comparable.js.map-block1 Version :252
              comparable.js Version :250
                Block Version :250
              command.js.map Version :248
                command.js.map-block1 Version :248
              command.js Version :246
                Block Version :246
              benchmark.js.map Version :244
                benchmark.js.map-block1 Version :244
              benchmark.js Version :242
                Block Version :242
              assets Version :239
                testui.css Version :240
                  testui.css-block1 Version :240
                bullet_go.png Version :238
                  bullet_go.png-block1 Version :238
            LICENSE.txt Version :234
              LICENSE.txt-block1 Version :234
            index.js Version :232
              Block Version :232
            CHANGELOG.txt Version :230
              CHANGELOG.txt-block1 Version :230
            bin Version :227
              jsbuild Version :228
                jsbuild-block1 Version :228
          ptable.js Version :224
            Block Version :224
            Block Version :223
            TableVisualizer Version :222
              Block Version :0
          plist.js Version :220
            Block Version :220
            Block Version :219
            ListVisualizer Version :218
              Block Version :0
          pfront.js Version :2173
            ParetoFrontVisualizer Version :2173
              Block Version :0
            Block Version :2172
            Block Version :2171
          jquery.form.js Version :212
            jquery.form.js-block1 Version :212
          jquery-windows-engine Version :209
            sample.html Version :210
              sample.html-block1 Version :210
            jquery.windows-engine.js Version :208
              jquery.windows-engine.js-block1 Version :208
            jquery.windows-engine.css Version :206
              jquery.windows-engine.css-block1 Version :206
            default Version :203
              top_right.gif Version :204
                top_right.gif-block1 Version :204
              top_mid.gif Version :202
                top_mid.gif-block1 Version :202
              top_left.gif Version :200
                top_left.gif-block1 Version :200
              sizer.gif Version :198
                sizer.gif-block1 Version :198
              minimize.gif Version :196
                minimize.gif-block1 Version :196
              maximize.gif Version :194
                maximize.gif-block1 Version :194
              close.gif Version :192
                close.gif-block1 Version :192
              bottom_mid.gif Version :190
                bottom_mid.gif-block1 Version :190
            ajaxcontent.html Version :187
              ajaxcontent.html-block1 Version :187
          jquery-1.8.2.js Version :184
            jquery-1.8.2.js-block1 Version :184
          instance_processor.js Version :182
            Block Version :182
            Block Version :181
            InstanceProcessor Version :180
              Block Version :0
          instance_converter.js Version :178
            Block Version :178
            Block Version :177
            InstanceConverter(source) Version :176
              Block Version :0
          init.js Version :174
            Block Version :174
            Block Version :173
            Block Version :172
            Block Version :171
            Block Version :170
            isNumeric(input) Version :169
              Block Version :0
            getPID(input){ Version :168
              Block Version :0
            parsePID(PID){ Version :167
              Block Version :0
            setCookie(c_name,value,exdays) Version :166
              Block Version :0
            getCookie(c_name) Version :165
              Block Version :0
          help_getter.js Version :163
            Block Version :163
            helpGetter(host){ Version :162
              Block Version :0
          data.js Version :160
            Block Version :160
            Block Version :159
            DataTable Version :158
              Block Version :0
          clafer_processor.js Version :2846
            ClaferProcessor Version :2846
              Block Version :0
            Block Version :2845
            Block Version :2844
        app.html Version :2848
          app.html-block1 Version :2848
      ClaferMoo Version :148
    README.md Version :3322
      README.md-block1 Version :3322
    LICENSE Version :144
      LICENSE-block1 Version :144
    Files Version :141
      violetsplc2011_desugared_desugared.xml Version :142
        violetsplc2011_desugared_desugared.xml-block1 Version :142
      violetsplc2011_desugared_desugared.choco Version :140
        violetsplc2011_desugared_desugared.choco-block1 Version :140
      violetsplc2011_desugared_desugared.cfr Version :138
        violetsplc2011_desugared_desugared.cfr-block1 Version :138
      violetsplc2011_desugared_desugared.als Version :136
        violetsplc2011_desugared_desugared.als-block1 Version :136
      violetsplc2011_desugared.xml Version :134
        violetsplc2011_desugared.xml-block1 Version :134
      violetsplc2011_desugared.choco Version :132
        violetsplc2011_desugared.choco-block1 Version :132
      violetsplc2011_desugared.cfr Version :130
        violetsplc2011_desugared.cfr-block1 Version :130
      violetsplc2011_desugared.als Version :128
        violetsplc2011_desugared.als-block1 Version :128
      violetsplc2011.xml Version :126
        violetsplc2011.xml-block1 Version :126
      violetsplc2011.cfr Version :124
        violetsplc2011.cfr-block1 Version :124
      sqlitesplc2011_desugared.xml Version :122
        sqlitesplc2011_desugared.xml-block1 Version :122
      sqlitesplc2011_desugared.choco Version :120
        sqlitesplc2011_desugared.choco-block1 Version :120
      sqlitesplc2011_desugared.cfr Version :118
        sqlitesplc2011_desugared.cfr-block1 Version :118
      sqlitesplc2011_desugared.als Version :116
        sqlitesplc2011_desugared.als-block1 Version :116
      sqlitesplc2011.xml Version :114
        sqlitesplc2011.xml-block1 Version :114
      sqlitesplc2011.cfr Version :112
        sqlitesplc2011.cfr-block1 Version :112
      mobilephone_desugared_desugared.xml Version :110
        mobilephone_desugared_desugared.xml-block1 Version :110
      mobilephone_desugared_desugared.choco Version :108
        mobilephone_desugared_desugared.choco-block1 Version :108
      mobilephone_desugared_desugared.cfr Version :106
        mobilephone_desugared_desugared.cfr-block1 Version :106
      mobilephone_desugared_desugared.als Version :104
        mobilephone_desugared_desugared.als-block1 Version :104
      mobilephone_desugared.xml Version :102
        mobilephone_desugared.xml-block1 Version :102
      mobilephone_desugared.choco Version :100
        mobilephone_desugared.choco-block1 Version :100
      mobilephone_desugared.cfr Version :98
        mobilephone_desugared.cfr-block1 Version :98
      mobilephone_desugared.als Version :96
        mobilephone_desugared.als-block1 Version :96
      mobilephone2012models_desugared_desugared.xml Version :94
        mobilephone2012models_desugared_desugared.xml-block1 Version :94
      mobilephone2012models_desugared_desugared.choco Version :92
        mobilephone2012models_desugared_desugared.choco-block1 Version :92
      mobilephone2012models_desugared_desugared.cfr Version :90
        mobilephone2012models_desugared_desugared.cfr-block1 Version :90
      mobilephone2012models_desugared_desugared.als Version :88
        mobilephone2012models_desugared_desugared.als-block1 Version :88
      mobilephone2012models_desugared.xml Version :86
        mobilephone2012models_desugared.xml-block1 Version :86
      mobilephone2012models_desugared.choco Version :84
        mobilephone2012models_desugared.choco-block1 Version :84
      mobilephone2012models_desugared.cfr Version :82
        mobilephone2012models_desugared.cfr-block1 Version :82
      mobilephone2012models_desugared.als Version :80
        mobilephone2012models_desugared.als-block1 Version :80
      mobilephone2012models.xml Version :78
        mobilephone2012models.xml-block1 Version :78
      mobilephone2012models.cfr Version :76
        mobilephone2012models.cfr-block1 Version :76
      mobilephone.xml Version :74
        mobilephone.xml-block1 Version :74
      mobilephone.cfr Version :72
        mobilephone.cfr-block1 Version :72
      minimobilephone2012models_desugared_desugared.xml Version :70
        minimobilephone2012models_desugared_desugared.xml-block1 Version :70
      minimobilephone2012models_desugared_desugared.choco Version :68
        minimobilephone2012models_desugared_desugared.choco-block1 Version :68
      minimobilephone2012models_desugared_desugared.cfr Version :66
        minimobilephone2012models_desugared_desugared.cfr-block1 Version :66
      minimobilephone2012models_desugared_desugared.als Version :64
        minimobilephone2012models_desugared_desugared.als-block1 Version :64
      minimobilephone2012models_desugared.xml Version :62
        minimobilephone2012models_desugared.xml-block1 Version :62
      minimobilephone2012models_desugared.choco Version :60
        minimobilephone2012models_desugared.choco-block1 Version :60
      minimobilephone2012models_desugared.cfr Version :58
        minimobilephone2012models_desugared.cfr-block1 Version :58
      minimobilephone2012models_desugared.als Version :56
        minimobilephone2012models_desugared.als-block1 Version :56
      minimobilephone2012models.xml Version :54
        minimobilephone2012models.xml-block1 Version :54
      minimobilephone2012models.cfr Version :52
        minimobilephone2012models.cfr-block1 Version :52
      linkedlistsplc2011_desugared_desugared.xml Version :50
        linkedlistsplc2011_desugared_desugared.xml-block1 Version :50
      linkedlistsplc2011_desugared_desugared.choco Version :48
        linkedlistsplc2011_desugared_desugared.choco-block1 Version :48
      linkedlistsplc2011_desugared_desugared.cfr Version :46
        linkedlistsplc2011_desugared_desugared.cfr-block1 Version :46
      linkedlistsplc2011_desugared_desugared.als Version :44
        linkedlistsplc2011_desugared_desugared.als-block1 Version :44
      linkedlistsplc2011_desugared.xml Version :42
        linkedlistsplc2011_desugared.xml-block1 Version :42
      linkedlistsplc2011_desugared.choco Version :40
        linkedlistsplc2011_desugared.choco-block1 Version :40
      linkedlistsplc2011_desugared.cfr Version :38
        linkedlistsplc2011_desugared.cfr-block1 Version :38
      linkedlistsplc2011_desugared.als Version :36
        linkedlistsplc2011_desugared.als-block1 Version :36
      linkedlistsplc2011.xml Version :34
        linkedlistsplc2011.xml-block1 Version :34
      linkedlistsplc2011.cfr Version :32
        linkedlistsplc2011.cfr-block1 Version :32
      apacheicse2012_desugared_desugared.xml Version :30
        apacheicse2012_desugared_desugared.xml-block1 Version :30
      apacheicse2012_desugared_desugared.choco Version :28
        apacheicse2012_desugared_desugared.choco-block1 Version :28
      apacheicse2012_desugared_desugared.cfr Version :26
        apacheicse2012_desugared_desugared.cfr-block1 Version :26
      apacheicse2012_desugared_desugared.als Version :24
        apacheicse2012_desugared_desugared.als-block1 Version :24
      apacheicse2012_desugared.xml Version :22
        apacheicse2012_desugared.xml-block1 Version :22
      apacheicse2012_desugared.choco Version :20
        apacheicse2012_desugared.choco-block1 Version :20
      apacheicse2012_desugared.cfr Version :18
        apacheicse2012_desugared.cfr-block1 Version :18
      apacheicse2012_desugared.als Version :16
        apacheicse2012_desugared.als-block1 Version :16
      apacheicse2012.xml Version :14
        apacheicse2012.xml-block1 Version :14
      apacheicse2012.cfr Version :12
        apacheicse2012.cfr-block1 Version :12
      AndroidSampleMoo2.cfr Version :10
        AndroidSampleMoo2.cfr-block1 Version :10
      AndroidSampleMoo.cfr Version :8
        AndroidSampleMoo.cfr-block1 Version :8
      a.xml Version :6
        a.xml-block1 Version :6
      a.cfr Version :4
        a.cfr-block1 Version :4
