RepositoryCopies Version :1549
  ClaferMooVisualizer Version :1019
    FeatureMapping.json Version :1027
      Block Version :1027
    Talk_Samples Version :1292
      Non-AFM.cfr Version :1293
        Non-AFM.cfr-block1 Version :1293
      ClaferMooVizPaperExample_Existing1.data Version :540
        ClaferMooVizPaperExample_Existing1.data-block1 Version :540
      ClaferMooVizPaperExample_Existing1.cfr Version :538
        ClaferMooVizPaperExample_Existing1.cfr-block1 Version :538
      ClaferMooVizPaperExample_Downgraded_Front.data Version :536
        ClaferMooVizPaperExample_Downgraded_Front.data-block1 Version :536
      ClaferMooVizPaperExample_Downgraded_Front.cfr Version :534
        ClaferMooVizPaperExample_Downgraded_Front.cfr-block1 Version :534
      ClaferMooVizPaperExample.data Version :532
        ClaferMooVizPaperExample.data-block1 Version :532
      ClaferMooVizPaperExample.cfr Version :530
        ClaferMooVizPaperExample.cfr-block1 Version :530
      AndroidSampleMoo_5.cfr Version :528
        AndroidSampleMoo_5.cfr-block1 Version :528
      AndroidSampleMoo_4_existing_product_spec.cfr Version :526
        AndroidSampleMoo_4_existing_product_spec.cfr-block1 Version :526
      AndroidSampleMoo_4.cfr Version :524
        AndroidSampleMoo_4.cfr-block1 Version :524
      AndroidSampleMoo_3.cfr Version :522
        AndroidSampleMoo_3.cfr-block1 Version :522
      AndroidSampleMoo_2.cfr.2.data Version :520
        AndroidSampleMoo_2.cfr.2.data-block1 Version :520
      AndroidSampleMoo_2.cfr.1.data Version :518
        AndroidSampleMoo_2.cfr.1.data-block1 Version :518
      AndroidSampleMoo_2.cfr Version :516
        AndroidSampleMoo_2.cfr-block1 Version :516
    Server Version :513
      uploads Version :513
      server.js Version :1548
        block Version :1547
        block Version :1546
        block Version :1536
        block Version :1535
        block Version :1532
        block Version :1531
        block Version :1528
        block Version :1525
        block Version :1522
        block Version :1521
        block Version :1519
        block Version :1518
        block Version :1515
        block Version :1514
        block Version :1510
        block Version :1507
        block Version :1504
        block Version :1501
        block Version :1498
        block Version :1495
        block Version :1494
        block Version :1491
        block Version :1490
        block Version :1487
        block Version :1484
        block Version :1483
        block Version :1480
        block Version :1477
        block Version :1474
        block Version :1473
        block Version :1470
        block Version :1467
        block Version :1466
        block Version :1464
        block Version :1462
        block Version :1538
        block Version :1458
        block Version :1456
        block Version :1455
        block Version :1454
        block Version :1450
        finishCleanup(dir, Version :1449
          Block Version :1542
        cleanupOldFiles(path, Version :1448
          Block Version :1543
        deleteOld(path){ Version :1447
          Block Version :1544
        escapeHtml(unsafe) Version :1446
          Block Version :0
        changeFileExt(name, Version :1445
          Block Version :0
        killProcessTree(process) Version :1444
          Block Version :1549
        Block Version :1539
        Block Version :1540
        Block Version :1541
        Block Version :1439
        Block Version :1545
      package.json Version :500
        package.json-block1 Version :500
      config.json Version :498
        config.json-block1 Version :498
      Client Version :1021
        instance_parser.js Version :1023
          InstanceParser(instances) Version :1023
            Block Version :0
          Block Version :1022
        styles.css Version :1112
          styles.css-block1 Version :1112
        selector.js Version :494
          Block Version :494
          Block Version :493
          Selector(host) Version :492
            Block Version :0
        robots.txt Version :490
          robots.txt-block1 Version :490
        md_usecases.js Version :488
          Block Version :488
          Block Version :487
          UseCases(host) Version :486
            Block Version :0
        md_input.js Version :1435
          block Version :1434
          block Version :1433
          block Version :1432
          block Version :1429
          block Version :1428
          block Version :1426
          block Version :1425
          block Version :1424
          block Version :1421
          block Version :1418
          block Version :1417
          block Version :1413
          block Version :1410
          block Version :1409
          block Version :1406
          block Version :1405
          block Version :1402
          block Version :1401
          block Version :1398
          block Version :1397
          Input(host) Version :1396
            block Version :1395
            block Version :1394
            block Version :1393
            block Version :1387
            block Version :1384
            block Version :1383
          Block Version :1381
        md_graph.js Version :480
          Block Version :480
          Block Version :479
          Block Version :478
          Graph(host) Version :477
            Block Version :0
          setDim(el, Version :476
            Block Version :0
        md_goals.js Version :474
          Block Version :474
          Block Version :473
          Goals(host) Version :472
            Block Version :0
        md_console.js Version :470
          Block Version :470
          Block Version :469
          Console(host) Version :468
            Block Version :0
        md_comparison_table.js Version :466
          Block Version :466
          Block Version :465
          ComparisonTable(host) Version :464
            Block Version :0
        md_analysis.js Version :462
          Block Version :462
          Block Version :461
          Analysis(host) Version :460
            Block Version :0
        main.js Version :709
          Host(modules) Version :709
            Block Version :0
          Block Version :708
          Block Version :707
        instance_filter.js Version :454
          Block Version :454
          Block Version :453
          InstanceFilter Version :452
            Block Version :0
        images Version :449
          verticalAxis.png Version :450
            verticalAxis.png-block1 Version :450
          tick.png Version :448
            tick.png-block1 Version :448
          removeMouseOver.png Version :446
            removeMouseOver.png-block1 Version :446
          remove.png Version :444
            remove.png-block1 Version :444
          preloader.gif Version :442
            preloader.gif-block1 Version :442
          no.png Version :440
            no.png-block1 Version :440
          horizontalAxis.png Version :438
            horizontalAxis.png-block1 Version :438
          help_hover.png Version :436
            help_hover.png-block1 Version :436
          help.png Version :434
            help.png-block1 Version :434
          checkbox_x.bmp Version :432
            checkbox_x.bmp-block1 Version :432
          checkbox_ticked_greyed.png Version :430
            checkbox_ticked_greyed.png-block1 Version :430
          checkbox_ticked.bmp Version :428
            checkbox_ticked.bmp-block1 Version :428
          checkbox_empty.bmp Version :426
            checkbox_empty.bmp-block1 Version :426
        help_pages Version :422
          variantcomparer_help.html Version :423
            variantcomparer_help.html-block1 Version :423
          start_help.html Version :421
            start_help.html-block1 Version :421
          objectives_help.html Version :419
            objectives_help.html-block1 Version :419
          input_help.html Version :417
            input_help.html-block1 Version :417
          featureandqualitymatrix_help.html Version :415
            featureandqualitymatrix_help.html-block1 Version :415
          bubblefrontgraph_help.html Version :413
            bubblefrontgraph_help.html-block1 Version :413
        commons Version :407
          xml_helper.js Version :410
            Block Version :410
            Block Version :409
            XMLHelper() Version :408
              Block Version :0
          set Version :349
            src Version :405
              tsort.js Version :406
                Block Version :406
              test.js Version :404
                Block Version :404
              state.js Version :402
                Block Version :402
              stack_trace.js Version :400
                Block Version :400
              set.js Version :398
                Block Version :398
              range.js Version :396
                Block Version :396
              proxy.js Version :394
                Block Version :394
              package.js Version :392
                Block Version :392
              package-browser.js Version :390
                Block Version :390
              observable.js Version :388
                Block Version :388
              method_chain.js Version :386
                Block Version :386
              loader.js Version :384
                Block Version :384
              loader-browser.js Version :382
                Block Version :382
              linked_list.js Version :380
                Block Version :380
              hash.js Version :378
                Block Version :378
              forwardable.js Version :376
                Block Version :376
              enumerable.js Version :374
                Block Version :374
              dom.js Version :372
                Block Version :372
              deferrable.js Version :370
                Block Version :370
              decorator.js Version :368
                Block Version :368
              core.js Version :366
                Block Version :366
              constant_scope.js Version :364
                Block Version :364
              console.js Version :362
                Block Version :362
              comparable.js Version :360
                Block Version :360
              command.js Version :358
                Block Version :358
              benchmark.js Version :356
                Block Version :356
              assets Version :353
                testui.css Version :354
                  testui.css-block1 Version :354
                bullet_go.png Version :352
                  bullet_go.png-block1 Version :352
            README.txt Version :348
              README.txt-block1 Version :348
            package.json Version :346
              package.json-block1 Version :346
            min Version :343
              tsort.js.map Version :344
                tsort.js.map-block1 Version :344
              tsort.js Version :342
                Block Version :342
              test.js.map Version :340
                test.js.map-block1 Version :340
              test.js Version :338
                Block Version :338
              state.js.map Version :336
                state.js.map-block1 Version :336
              state.js Version :334
                Block Version :334
              stack_trace.js.map Version :332
                stack_trace.js.map-block1 Version :332
              stack_trace.js Version :330
                Block Version :330
              set.js.map Version :328
                set.js.map-block1 Version :328
              set.js Version :326
                Block Version :326
              range.js.map Version :324
                range.js.map-block1 Version :324
              range.js Version :322
                Block Version :322
              proxy.js.map Version :320
                proxy.js.map-block1 Version :320
              proxy.js Version :318
                Block Version :318
              package.js.map Version :316
                package.js.map-block1 Version :316
              package.js Version :314
                Block Version :314
              package-browser.js.map Version :312
                package-browser.js.map-block1 Version :312
              package-browser.js Version :310
                Block Version :310
              observable.js.map Version :308
                observable.js.map-block1 Version :308
              observable.js Version :306
                Block Version :306
              method_chain.js.map Version :304
                method_chain.js.map-block1 Version :304
              method_chain.js Version :302
                Block Version :302
              loader.js.map Version :300
                loader.js.map-block1 Version :300
              loader.js Version :298
                Block Version :298
              loader-browser.js.map Version :296
                loader-browser.js.map-block1 Version :296
              loader-browser.js Version :294
                Block Version :294
              linked_list.js.map Version :292
                linked_list.js.map-block1 Version :292
              linked_list.js Version :290
                Block Version :290
              hash.js.map Version :288
                hash.js.map-block1 Version :288
              hash.js Version :286
                Block Version :286
              forwardable.js.map Version :284
                forwardable.js.map-block1 Version :284
              forwardable.js Version :282
                Block Version :282
              enumerable.js.map Version :280
                enumerable.js.map-block1 Version :280
              enumerable.js Version :278
                Block Version :278
              dom.js.map Version :276
                dom.js.map-block1 Version :276
              dom.js Version :274
                Block Version :274
              deferrable.js.map Version :272
                deferrable.js.map-block1 Version :272
              deferrable.js Version :270
                Block Version :270
              decorator.js.map Version :268
                decorator.js.map-block1 Version :268
              decorator.js Version :266
                Block Version :266
              core.js.map Version :264
                core.js.map-block1 Version :264
              core.js Version :262
                Block Version :262
              constant_scope.js.map Version :260
                constant_scope.js.map-block1 Version :260
              constant_scope.js Version :258
                Block Version :258
              console.js.map Version :256
                console.js.map-block1 Version :256
              console.js Version :254
                Block Version :254
              comparable.js.map Version :252
                comparable.js.map-block1 Version :252
              comparable.js Version :250
                Block Version :250
              command.js.map Version :248
                command.js.map-block1 Version :248
              command.js Version :246
                Block Version :246
              benchmark.js.map Version :244
                benchmark.js.map-block1 Version :244
              benchmark.js Version :242
                Block Version :242
              assets Version :239
                testui.css Version :240
                  testui.css-block1 Version :240
                bullet_go.png Version :238
                  bullet_go.png-block1 Version :238
            LICENSE.txt Version :234
              LICENSE.txt-block1 Version :234
            index.js Version :232
              Block Version :232
            CHANGELOG.txt Version :230
              CHANGELOG.txt-block1 Version :230
            bin Version :227
              jsbuild Version :228
                jsbuild-block1 Version :228
          ptable.js Version :224
            Block Version :224
            Block Version :223
            TableVisualizer Version :222
              Block Version :0
          plist.js Version :220
            Block Version :220
            Block Version :219
            ListVisualizer Version :218
              Block Version :0
          pfront.js Version :216
            Block Version :216
            Block Version :215
            ParetoFrontVisualizer Version :214
              Block Version :0
          jquery.form.js Version :212
            jquery.form.js-block1 Version :212
          jquery-windows-engine Version :209
            sample.html Version :210
              sample.html-block1 Version :210
            jquery.windows-engine.js Version :208
              jquery.windows-engine.js-block1 Version :208
            jquery.windows-engine.css Version :206
              jquery.windows-engine.css-block1 Version :206
            default Version :203
              top_right.gif Version :204
                top_right.gif-block1 Version :204
              top_mid.gif Version :202
                top_mid.gif-block1 Version :202
              top_left.gif Version :200
                top_left.gif-block1 Version :200
              sizer.gif Version :198
                sizer.gif-block1 Version :198
              minimize.gif Version :196
                minimize.gif-block1 Version :196
              maximize.gif Version :194
                maximize.gif-block1 Version :194
              close.gif Version :192
                close.gif-block1 Version :192
              bottom_mid.gif Version :190
                bottom_mid.gif-block1 Version :190
            ajaxcontent.html Version :187
              ajaxcontent.html-block1 Version :187
          jquery-1.8.2.js Version :184
            jquery-1.8.2.js-block1 Version :184
          instance_processor.js Version :182
            Block Version :182
            Block Version :181
            InstanceProcessor Version :180
              Block Version :0
          instance_converter.js Version :178
            Block Version :178
            Block Version :177
            InstanceConverter(source) Version :176
              Block Version :0
          init.js Version :174
            Block Version :174
            Block Version :173
            Block Version :172
            Block Version :171
            Block Version :170
            isNumeric(input) Version :169
              Block Version :0
            getPID(input){ Version :168
              Block Version :0
            parsePID(PID){ Version :167
              Block Version :0
            setCookie(c_name,value,exdays) Version :166
              Block Version :0
            getCookie(c_name) Version :165
              Block Version :0
          help_getter.js Version :163
            Block Version :163
            helpGetter(host){ Version :162
              Block Version :0
          data.js Version :160
            Block Version :160
            Block Version :159
            DataTable Version :158
              Block Version :0
          clafer_processor.js Version :156
            Block Version :156
            Block Version :155
            ClaferProcessor Version :154
              Block Version :0
        app.html Version :1025
          app.html-block1 Version :1025
      ClaferMoo Version :148
    README.md Version :146
      README.md-block1 Version :146
    LICENSE Version :144
      LICENSE-block1 Version :144
    Files Version :141
      violetsplc2011_desugared_desugared.xml Version :142
        violetsplc2011_desugared_desugared.xml-block1 Version :142
      violetsplc2011_desugared_desugared.choco Version :140
        violetsplc2011_desugared_desugared.choco-block1 Version :140
      violetsplc2011_desugared_desugared.cfr Version :138
        violetsplc2011_desugared_desugared.cfr-block1 Version :138
      violetsplc2011_desugared_desugared.als Version :136
        violetsplc2011_desugared_desugared.als-block1 Version :136
      violetsplc2011_desugared.xml Version :134
        violetsplc2011_desugared.xml-block1 Version :134
      violetsplc2011_desugared.choco Version :132
        violetsplc2011_desugared.choco-block1 Version :132
      violetsplc2011_desugared.cfr Version :130
        violetsplc2011_desugared.cfr-block1 Version :130
      violetsplc2011_desugared.als Version :128
        violetsplc2011_desugared.als-block1 Version :128
      violetsplc2011.xml Version :126
        violetsplc2011.xml-block1 Version :126
      violetsplc2011.cfr Version :124
        violetsplc2011.cfr-block1 Version :124
      sqlitesplc2011_desugared.xml Version :122
        sqlitesplc2011_desugared.xml-block1 Version :122
      sqlitesplc2011_desugared.choco Version :120
        sqlitesplc2011_desugared.choco-block1 Version :120
      sqlitesplc2011_desugared.cfr Version :118
        sqlitesplc2011_desugared.cfr-block1 Version :118
      sqlitesplc2011_desugared.als Version :116
        sqlitesplc2011_desugared.als-block1 Version :116
      sqlitesplc2011.xml Version :114
        sqlitesplc2011.xml-block1 Version :114
      sqlitesplc2011.cfr Version :112
        sqlitesplc2011.cfr-block1 Version :112
      mobilephone_desugared_desugared.xml Version :110
        mobilephone_desugared_desugared.xml-block1 Version :110
      mobilephone_desugared_desugared.choco Version :108
        mobilephone_desugared_desugared.choco-block1 Version :108
      mobilephone_desugared_desugared.cfr Version :106
        mobilephone_desugared_desugared.cfr-block1 Version :106
      mobilephone_desugared_desugared.als Version :104
        mobilephone_desugared_desugared.als-block1 Version :104
      mobilephone_desugared.xml Version :102
        mobilephone_desugared.xml-block1 Version :102
      mobilephone_desugared.choco Version :100
        mobilephone_desugared.choco-block1 Version :100
      mobilephone_desugared.cfr Version :98
        mobilephone_desugared.cfr-block1 Version :98
      mobilephone_desugared.als Version :96
        mobilephone_desugared.als-block1 Version :96
      mobilephone2012models_desugared_desugared.xml Version :94
        mobilephone2012models_desugared_desugared.xml-block1 Version :94
      mobilephone2012models_desugared_desugared.choco Version :92
        mobilephone2012models_desugared_desugared.choco-block1 Version :92
      mobilephone2012models_desugared_desugared.cfr Version :90
        mobilephone2012models_desugared_desugared.cfr-block1 Version :90
      mobilephone2012models_desugared_desugared.als Version :88
        mobilephone2012models_desugared_desugared.als-block1 Version :88
      mobilephone2012models_desugared.xml Version :86
        mobilephone2012models_desugared.xml-block1 Version :86
      mobilephone2012models_desugared.choco Version :84
        mobilephone2012models_desugared.choco-block1 Version :84
      mobilephone2012models_desugared.cfr Version :82
        mobilephone2012models_desugared.cfr-block1 Version :82
      mobilephone2012models_desugared.als Version :80
        mobilephone2012models_desugared.als-block1 Version :80
      mobilephone2012models.xml Version :78
        mobilephone2012models.xml-block1 Version :78
      mobilephone2012models.cfr Version :76
        mobilephone2012models.cfr-block1 Version :76
      mobilephone.xml Version :74
        mobilephone.xml-block1 Version :74
      mobilephone.cfr Version :72
        mobilephone.cfr-block1 Version :72
      minimobilephone2012models_desugared_desugared.xml Version :70
        minimobilephone2012models_desugared_desugared.xml-block1 Version :70
      minimobilephone2012models_desugared_desugared.choco Version :68
        minimobilephone2012models_desugared_desugared.choco-block1 Version :68
      minimobilephone2012models_desugared_desugared.cfr Version :66
        minimobilephone2012models_desugared_desugared.cfr-block1 Version :66
      minimobilephone2012models_desugared_desugared.als Version :64
        minimobilephone2012models_desugared_desugared.als-block1 Version :64
      minimobilephone2012models_desugared.xml Version :62
        minimobilephone2012models_desugared.xml-block1 Version :62
      minimobilephone2012models_desugared.choco Version :60
        minimobilephone2012models_desugared.choco-block1 Version :60
      minimobilephone2012models_desugared.cfr Version :58
        minimobilephone2012models_desugared.cfr-block1 Version :58
      minimobilephone2012models_desugared.als Version :56
        minimobilephone2012models_desugared.als-block1 Version :56
      minimobilephone2012models.xml Version :54
        minimobilephone2012models.xml-block1 Version :54
      minimobilephone2012models.cfr Version :52
        minimobilephone2012models.cfr-block1 Version :52
      linkedlistsplc2011_desugared_desugared.xml Version :50
        linkedlistsplc2011_desugared_desugared.xml-block1 Version :50
      linkedlistsplc2011_desugared_desugared.choco Version :48
        linkedlistsplc2011_desugared_desugared.choco-block1 Version :48
      linkedlistsplc2011_desugared_desugared.cfr Version :46
        linkedlistsplc2011_desugared_desugared.cfr-block1 Version :46
      linkedlistsplc2011_desugared_desugared.als Version :44
        linkedlistsplc2011_desugared_desugared.als-block1 Version :44
      linkedlistsplc2011_desugared.xml Version :42
        linkedlistsplc2011_desugared.xml-block1 Version :42
      linkedlistsplc2011_desugared.choco Version :40
        linkedlistsplc2011_desugared.choco-block1 Version :40
      linkedlistsplc2011_desugared.cfr Version :38
        linkedlistsplc2011_desugared.cfr-block1 Version :38
      linkedlistsplc2011_desugared.als Version :36
        linkedlistsplc2011_desugared.als-block1 Version :36
      linkedlistsplc2011.xml Version :34
        linkedlistsplc2011.xml-block1 Version :34
      linkedlistsplc2011.cfr Version :32
        linkedlistsplc2011.cfr-block1 Version :32
      apacheicse2012_desugared_desugared.xml Version :30
        apacheicse2012_desugared_desugared.xml-block1 Version :30
      apacheicse2012_desugared_desugared.choco Version :28
        apacheicse2012_desugared_desugared.choco-block1 Version :28
      apacheicse2012_desugared_desugared.cfr Version :26
        apacheicse2012_desugared_desugared.cfr-block1 Version :26
      apacheicse2012_desugared_desugared.als Version :24
        apacheicse2012_desugared_desugared.als-block1 Version :24
      apacheicse2012_desugared.xml Version :22
        apacheicse2012_desugared.xml-block1 Version :22
      apacheicse2012_desugared.choco Version :20
        apacheicse2012_desugared.choco-block1 Version :20
      apacheicse2012_desugared.cfr Version :18
        apacheicse2012_desugared.cfr-block1 Version :18
      apacheicse2012_desugared.als Version :16
        apacheicse2012_desugared.als-block1 Version :16
      apacheicse2012.xml Version :14
        apacheicse2012.xml-block1 Version :14
      apacheicse2012.cfr Version :12
        apacheicse2012.cfr-block1 Version :12
      AndroidSampleMoo2.cfr Version :10
        AndroidSampleMoo2.cfr-block1 Version :10
      AndroidSampleMoo.cfr Version :8
        AndroidSampleMoo.cfr-block1 Version :8
      a.xml Version :6
        a.xml-block1 Version :6
      a.cfr Version :4
        a.cfr-block1 Version :4
