RepositoryCopies Version :15698
  ClaferIDE Version :15564
    Server Version :15598
      Examples Version :15681
        MOO_MobilePhone_From_Wiki.cfr Version :15682
          MOO_MobilePhone_From_Wiki.cfr-block1 Version :15682
        MOO_Android4_From_Wiki.cfr Version :15680
          MOO_Android4_From_Wiki.cfr-block1 Version :15680
        AndroidSampleMoo_2.cfr Version :15671
          AndroidSampleMoo_2.cfr-block1 Version :15671
        AndroidSampleMoo_3.cfr Version :15669
          AndroidSampleMoo_3.cfr-block1 Version :15669
        AndroidSampleMoo_4.cfr Version :15667
          AndroidSampleMoo_4.cfr-block1 Version :15667
        AndroidSampleMoo_5.cfr Version :15665
          AndroidSampleMoo_5.cfr-block1 Version :15665
        examples.json Version :15607
          examples.json-block1 Version :15607
        Car4D.cfr Version :15600
          Car4D.cfr-block1 Version :15600
      uploads Version :15597
      Client Version :15677
        compiler_html_wrapper.html Version :15678
          compiler_html_wrapper.html-block1 Version :15678
        help_pages Version :15695
          objectivesandqualityranges_help.html Version :15696
            objectivesandqualityranges_help.html-block1 Version :15696
          featureandqualitymatrix_help.html Version :15694
            featureandqualitymatrix_help.html-block1 Version :15694
          inputfileorexample_help.html Version :15692
            inputfileorexample_help.html-block1 Version :15692
          clafersourcemodel_help.html Version :15690
            clafersourcemodel_help.html-block1 Version :15690
          bubblefrontgraph_help.html Version :15688
            bubblefrontgraph_help.html-block1 Version :15688
          variantcomparer_help.html Version :15686
            variantcomparer_help.html-block1 Version :15686
          objectives_help.html Version :15684
            objectives_help.html-block1 Version :15684
          input_help.html Version :15676
            input_help.html-block1 Version :15676
          start_help.html Version :15674
            start_help.html-block1 Version :15674
        md_clafermodel.js Version :15659
          Block Version :15659
          Block Version :15658
          ClaferModel(host) Version :15657
            Block Version :0
        commons Version :15654
          jquery.form.js Version :15655
            jquery.form.js-block1 Version :15655
          jquery-windows-engine Version :15652
            sample.html Version :15653
              sample.html-block1 Version :15653
            jquery.windows-engine.js Version :15651
              jquery.windows-engine.js-block1 Version :15651
            jquery.windows-engine.css Version :15649
              jquery.windows-engine.css-block1 Version :15649
            default Version :15646
              top_right.gif Version :15647
                top_right.gif-block1 Version :15647
              top_mid.gif Version :15645
                top_mid.gif-block1 Version :15645
              top_left.gif Version :15643
                top_left.gif-block1 Version :15643
              sizer.gif Version :15641
                sizer.gif-block1 Version :15641
              minimize.gif Version :15639
                minimize.gif-block1 Version :15639
              maximize.gif Version :15637
                maximize.gif-block1 Version :15637
              close.gif Version :15635
                close.gif-block1 Version :15635
              bottom_mid.gif Version :15633
                bottom_mid.gif-block1 Version :15633
            ajaxcontent.html Version :15630
              ajaxcontent.html-block1 Version :15630
          jquery-1.8.2.js Version :15627
            jquery-1.8.2.js-block1 Version :15627
          init.js Version :15625
            Block Version :15625
            Block Version :15624
            Block Version :15623
            Block Version :15622
            Block Version :15621
            isNumeric(input) Version :15620
              Block Version :0
            getPID(input){ Version :15619
              Block Version :0
            parsePID(PID){ Version :15618
              Block Version :0
            setCookie(c_name,value,exdays) Version :15617
              Block Version :0
            getCookie(c_name) Version :15616
              Block Version :0
          help_getter.js Version :15614
            Block Version :15614
            helpGetter(host){ Version :15613
              Block Version :0
        images Version :15662
          help_hover.png Version :15663
            help_hover.png-block1 Version :15663
          preloader.gif Version :15661
            preloader.gif-block1 Version :15661
          help.png Version :15610
            help.png-block1 Version :15610
        md_input.js Version :15605
          Block Version :15605
          Block Version :15604
          Input(host) Version :15603
            Block Version :0
          unescapeJSON(escaped) Version :15602
            Block Version :0
        robots.txt Version :15596
          robots.txt-block1 Version :15596
        styles.css Version :15594
          styles.css-block1 Version :15594
        app.html Version :15592
          app.html-block1 Version :15592
        main.js Version :15590
          Block Version :15590
          Block Version :15589
          Host(modules) Version :15588
            Block Version :0
      package.json Version :15585
        package.json-block1 Version :15585
      config.json Version :15583
        config.json-block1 Version :15583
      server.js Version :15581
        Block Version :15581
        Block Version :15580
        Block Version :15579
        Block Version :15578
        Block Version :15577
        Block Version :15576
        Block Version :15575
        Block Version :15574
        finishCleanup(dir, Version :15573
          Block Version :0
        cleanupOldFiles(path, Version :15572
          Block Version :0
        deleteOld(path){ Version :15571
          Block Version :0
        escapeJSON(unsafe) Version :15570
          Block Version :0
        changeFileExt(name, Version :15569
          Block Version :0
        killProcessTree(process) Version :15568
          Block Version :0
        dependency_ok() Version :15567
          Block Version :0
        filterArgs(original_args, Version :15566
          Block Version :0
    README.md Version :15698
      README.md-block1 Version :15698
    LICENSE Version :15561
      LICENSE-block1 Version :15561
  ClaferMooVisualizer Version :13265
    Spec Version :13266
      i180.png Version :13267
        i180.png-block1 Version :13267
    mobilephone.cfr Version :10233
      mobilephone.cfr-block1 Version :10233
    OLD_php Version :11900
    Talk_Samples Version :14021
      ClaferMooVizPaperExample_Downgraded_Front.data Version :13830
        ClaferMooVizPaperExample_Downgraded_Front.data-block1 Version :13830
      ClaferMooVizPaperExample_Downgraded_Front.cfr Version :13832
        ClaferMooVizPaperExample_Downgraded_Front.cfr-block1 Version :13832
      ClaferMooVizPaperExample_Existing1.data Version :13826
        ClaferMooVizPaperExample_Existing1.data-block1 Version :13826
      ClaferMooVizPaperExample_Existing1.cfr Version :13828
        ClaferMooVizPaperExample_Existing1.cfr-block1 Version :13828
      ClaferMooVizPaperExample.data Version :13834
        ClaferMooVizPaperExample.data-block1 Version :13834
      ClaferMooVizPaperExample.cfr Version :14252
        ClaferMooVizPaperExample.cfr-block1 Version :14252
      AndroidSampleMoo_4_existing_product_spec.cfr Version :13299
        AndroidSampleMoo_4_existing_product_spec.cfr-block1 Version :13299
      AndroidSampleMoo_2.cfr.1.data Version :13271
        AndroidSampleMoo_2.cfr.1.data-block1 Version :13271
      AndroidSampleMoo_2.cfr.2.data Version :14558
        AndroidSampleMoo_2.cfr.2.data-block1 Version :14558
      AndroidSampleMoo_4.cfr Version :10925
        AndroidSampleMoo_4.cfr-block1 Version :10925
      AndroidSampleMoo_5.cfr Version :11632
        AndroidSampleMoo_5.cfr-block1 Version :11632
      AndroidSampleMoo_2.cfr Version :14400
        AndroidSampleMoo_2.cfr-block1 Version :14400
      AndroidSampleMoo_3.cfr Version :10603
        AndroidSampleMoo_3.cfr-block1 Version :10603
    Server Version :13013
      claferIG Version :13013
      config.json Version :15267
        block Version :15266
        block Version :15265
        block Version :15264
      package.json Version :11696
        Block Version :11696
      server.js Version :15251
        block Version :15250
        block Version :15249
        block Version :15236
        block Version :15223
        block Version :15210
        block Version :15197
        block Version :15184
        block Version :15171
        block Version :15168
        block Version :15167
        finishCleanup(dir, Version :15166
          Block Version :15257
        cleanupOldFiles(path, Version :15165
          Block Version :15258
        deleteOld(path){ Version :15164
          Block Version :15259
        escapeHtml(unsafe) Version :15163
          Block Version :15260
        changeFileExt(name, Version :15162
          Block Version :15261
        Block Version :15252
        Block Version :15253
        Block Version :15254
        Block Version :15255
        Block Version :15256
      multipart Version :11851
        test Version :11844
        lib Version :11850
      upload.js Version :10982
        display_page(req, Version :10982
          Block Version :0
        parse_multipart(req) Version :10981
          Block Version :0
        basename(str) Version :10980
          Block Version :0
        upload_file(req, Version :10979
          Block Version :0
        escapeHtml(unsafe) Version :10978
          Block Version :0
        changeFileExt(name, Version :10977
          Block Version :0
        upload_complete(res, Version :10976
          Block Version :0
        show_404(req, Version :10975
          Block Version :0
        getMimeByExt(filename) Version :10974
          Block Version :0
        getPath(req, Version :10973
          Block Version :0
        Block Version :10972
        Block Version :10971
        Block Version :10970
        Block Version :10969
        Block Version :10968
        Block Version :10967
        Block Version :10966
        Block Version :10965
        Block Version :10964
        Block Version :10963
      cache Version :6737
      Backends Version :9450
        ChocoSingle Version :6741
        ClaferMoo Version :6739
          spl_datagenerator Version :5455
          tools Version :5441
      Examples Version :9298
      uploads Version :11839
      Client Version :15558
        help_getter.js Version :14957
          helpGetter(host){ Version :14837
            Block Version :0
          Block Version :14836
        instance_filter.js Version :15071
          block Version :15070
          block Version :15069
          block Version :15066
          block Version :15063
          InstanceFilter Version :15062
            Block Version :0
          Block Version :15061
        robots.txt Version :12036
          robots.txt-block1 Version :12036
        plist.js Version :14966
          ListVisualizer Version :11329
            Block Version :0
          Block Version :11328
        md_analysis.js Version :14965
          block Version :14922
          block Version :14921
          block Version :14918
          block Version :14915
          block Version :14912
          Analysis(host) Version :14911
            Block Version :0
        set Version :11310
          CHANGELOG.txt Version :11161
            CHANGELOG.txt-block1 Version :11161
          package.json Version :11147
            Block Version :11147
          LICENSE.txt Version :11137
            LICENSE.txt-block1 Version :11137
          bin Version :11134
            jsbuild Version :11135
              jsbuild-block1 Version :11135
          README.txt Version :11117
            README.txt-block1 Version :11117
          min Version :11288
            package-browser.js.map Version :11289
              package-browser.js.map-block1 Version :11289
            constant_scope.js.map Version :11287
              constant_scope.js.map-block1 Version :11287
            loader-browser.js.map Version :11285
              loader-browser.js.map-block1 Version :11285
            method_chain.js.map Version :11279
              method_chain.js.map-block1 Version :11279
            forwardable.js.map Version :11277
              forwardable.js.map-block1 Version :11277
            linked_list.js.map Version :11275
              linked_list.js.map-block1 Version :11275
            package-browser.js Version :11273
              Block Version :11273
            stack_trace.js.map Version :11271
              stack_trace.js.map-block1 Version :11271
            assets Version :11282
              bullet_go.png Version :11283
                bullet_go.png-block1 Version :11283
              testui.css Version :11267
                testui.css-block1 Version :11267
            comparable.js.map Version :11264
              comparable.js.map-block1 Version :11264
            constant_scope.js Version :11262
              Block Version :11262
            deferrable.js.map Version :11260
              deferrable.js.map-block1 Version :11260
            enumerable.js.map Version :11258
              enumerable.js.map-block1 Version :11258
            loader-browser.js Version :11256
              Block Version :11256
            observable.js.map Version :11254
              observable.js.map-block1 Version :11254
            benchmark.js.map Version :11245
              benchmark.js.map-block1 Version :11245
            decorator.js.map Version :11243
              decorator.js.map-block1 Version :11243
            method_chain.js Version :11241
              Block Version :11241
            command.js.map Version :11237
              command.js.map-block1 Version :11237
            console.js.map Version :11235
              console.js.map-block1 Version :11235
            forwardable.js Version :11233
              Block Version :11233
            linked_list.js Version :11231
              Block Version :11231
            package.js.map Version :11229
              package.js.map-block1 Version :11229
            stack_trace.js Version :11227
              Block Version :11227
            comparable.js Version :11219
              Block Version :11219
            deferrable.js Version :11217
              Block Version :11217
            enumerable.js Version :11215
              Block Version :11215
            loader.js.map Version :11213
              loader.js.map-block1 Version :11213
            observable.js Version :11211
              Block Version :11211
            benchmark.js Version :11201
              Block Version :11201
            decorator.js Version :11199
              Block Version :11199
            proxy.js.map Version :11197
              proxy.js.map-block1 Version :11197
            range.js.map Version :11195
              range.js.map-block1 Version :11195
            state.js.map Version :11193
              state.js.map-block1 Version :11193
            tsort.js.map Version :11191
              tsort.js.map-block1 Version :11191
            core.js.map Version :11185
              core.js.map-block1 Version :11185
            hash.js.map Version :11183
              hash.js.map-block1 Version :11183
            test.js.map Version :11181
              test.js.map-block1 Version :11181
            command.js Version :11177
              Block Version :11177
            console.js Version :11175
              Block Version :11175
            dom.js.map Version :11173
              dom.js.map-block1 Version :11173
            package.js Version :11171
              Block Version :11171
            set.js.map Version :11169
              set.js.map-block1 Version :11169
            loader.js Version :11159
              Block Version :11159
            proxy.js Version :11155
              Block Version :11155
            range.js Version :11153
              Block Version :11153
            state.js Version :11151
              Block Version :11151
            tsort.js Version :11149
              Block Version :11149
            core.js Version :11132
              Block Version :11132
            hash.js Version :11130
              Block Version :11130
            test.js Version :11128
              Block Version :11128
            dom.js Version :11115
              Block Version :11115
            set.js Version :11113
              Block Version :11113
          src Version :11268
            package-browser.js Version :11269
              Block Version :11269
            assets Version :11280
              bullet_go.png Version :11281
                bullet_go.png-block1 Version :11281
              testui.css Version :11252
                testui.css-block1 Version :11252
            constant_scope.js Version :11249
              Block Version :11249
            loader-browser.js Version :11247
              Block Version :11247
            method_chain.js Version :11239
              Block Version :11239
            forwardable.js Version :11225
              Block Version :11225
            linked_list.js Version :11223
              Block Version :11223
            stack_trace.js Version :11221
              Block Version :11221
            comparable.js Version :11209
              Block Version :11209
            deferrable.js Version :11207
              Block Version :11207
            enumerable.js Version :11205
              Block Version :11205
            observable.js Version :11203
              Block Version :11203
            benchmark.js Version :11189
              Block Version :11189
            decorator.js Version :11187
              Block Version :11187
            command.js Version :11167
              Block Version :11167
            console.js Version :11165
              Block Version :11165
            package.js Version :11163
              Block Version :11163
            loader.js Version :11157
              Block Version :11157
            proxy.js Version :11145
              Block Version :11145
            range.js Version :11143
              Block Version :11143
            state.js Version :11141
              Block Version :11141
            tsort.js Version :11139
              Block Version :11139
            core.js Version :11126
              Block Version :11126
            hash.js Version :11124
              Block Version :11124
            test.js Version :11122
              Block Version :11122
            dom.js Version :11110
              Block Version :11110
            set.js Version :11108
              Block Version :11108
          index.js Version :11105
            Block Version :11105
        md_usecases.js Version :14964
          UseCases(host) Version :11449
            Block Version :0
          Block Version :11448
        selector.js Version :14969
          Selector(host) Version :14324
            Block Version :0
          Block Version :14323
        ptable.js Version :14967
          TableVisualizer Version :14561
            Block Version :0
          Block Version :14560
        data.js Version :14968
          block Version :14541
          block Version :14540
          block Version :14537
          block Version :14534
          DataTable Version :14532
            Block Version :0
        md_input.js Version :15553
          block Version :15552
          block Version :15551
          block Version :15548
          block Version :15545
          block Version :15544
          block Version :15541
          block Version :15538
          block Version :15537
          block Version :15534
          block Version :15533
          Input(host) Version :15532
            Block Version :0
        md_console.js Version :14962
          Console(host) Version :11462
            Block Version :0
          Block Version :11461
        md_comparison_table.js Version :15058
          block Version :15057
          block Version :15056
          block Version :15053
          block Version :15050
          block Version :15047
          block Version :15043
          block Version :15039
          block Version :15036
          ComparisonTable(host) Version :15035
            Block Version :0
        clafer_processor.js Version :15031
          ClaferProcessor Version :15031
            Block Version :0
          Block Version :15030
        xml_helper.js Version :10733
          XMLHelper() Version :10733
            Block Version :0
          Block Version :10732
          Block Version :10731
        md_goals.js Version :14960
          Goals(host) Version :14750
            Block Version :0
          Block Version :14749
        md_graph.js Version :14992
          block Version :14991
          block Version :14990
          block Version :14985
          block Version :14980
          Graph(host) Version :14979
            Block Version :0
          setDim(el, Version :14978
            Block Version :14994
          Block Version :14995
        init.js Version :14949
          isNumeric(input) Version :14949
            Block Version :0
          getPID(input){ Version :14948
            Block Version :0
          parsePID(PID){ Version :14947
            Block Version :0
          setCookie(c_name,value,exdays) Version :14946
            Block Version :0
          getCookie(c_name) Version :14945
            Block Version :0
          Block Version :14944
          Block Version :14943
          Block Version :14942
          Block Version :14941
          Block Version :14940
          Block Version :14939
        jquery-windows-engine Version :10229
          jquery.windows-engine.css Version :10130
            jquery.windows-engine.css-block1 Version :10130
          jquery.windows-engine.js Version :10108
            jquery.windows-engine.js-block1 Version :10108
          default Version :10095
            bottom_mid.gif Version :10096
              bottom_mid.gif-block1 Version :10096
            top_right.gif Version :10072
              top_right.gif-block1 Version :10072
            .svn Version :11898
              prop-base Version :11896
              text-base Version :11888
            maximize.gif Version :10055
              maximize.gif-block1 Version :10055
            minimize.gif Version :10053
              minimize.gif-block1 Version :10053
            top_left.gif Version :10051
              top_left.gif-block1 Version :10051
            top_mid.gif Version :10017
              top_mid.gif-block1 Version :10017
            close.gif Version :9965
              close.gif-block1 Version :9965
            sizer.gif Version :9963
              sizer.gif-block1 Version :9963
          ajaxcontent.html Version :9935
            ajaxcontent.html-block1 Version :9935
          sample.html Version :9864
            sample.html-block1 Version :9864
        instance_processor.js Version :14954
          InstanceProcessor Version :14793
            Block Version :0
          Block Version :14792
          Block Version :14791
        jquery-1.8.2.js Version :14971
          jquery-1.8.2.js-block1 Version :9646
        jquery.form.js Version :14972
          jquery.form.js-block1 Version :9611
        styles.css Version :14974
          styles.css-block1 Version :14974
        pfront.js Version :14958
          block Version :14863
          block Version :14862
          block Version :14859
          ParetoFrontVisualizer Version :14858
            Block Version :0
        app.html Version :15555
          app.html-block1 Version :15555
        main.js Version :15154
          Host(modules) Version :15154
            Block Version :0
          Block Version :15153
          Block Version :15152
        images Version :14840
          help_hover.png Version :14841
            help_hover.png-block1 Version :14841
          help.png Version :14839
            help.png-block1 Version :14839
          checkbox_ticked_greyed.png Version :14398
            checkbox_ticked_greyed.png-block1 Version :14398
          horizontalAxis.png Version :12752
            horizontalAxis.png-block1 Version :12752
          verticalAxis.png Version :12750
            verticalAxis.png-block1 Version :12750
          removeMouseOver.png Version :12540
            removeMouseOver.png-block1 Version :12540
          remove.png Version :12538
            remove.png-block1 Version :12538
          checkbox_ticked.bmp Version :12464
            checkbox_ticked.bmp-block1 Version :12464
          checkbox_empty.bmp Version :12462
            checkbox_empty.bmp-block1 Version :12462
          checkbox_x.bmp Version :12460
            checkbox_x.bmp-block1 Version :12460
          no.png Version :11471
            no.png-block1 Version :11471
          preloader.gif Version :9683
            preloader.gif-block1 Version :9683
          tick.png Version :9648
            tick.png-block1 Version :9648
        help_pages Version :14953
          featureandqualitymatrix_help.html Version :14853
            featureandqualitymatrix_help.html-block1 Version :14853
          bubblefrontgraph_help.html Version :14851
            bubblefrontgraph_help.html-block1 Version :14851
          TEMPLATE_help (copy).html Version :14849
            TEMPLATE_help (copy).html-block1 Version :14849
          variantcomparer_help.html Version :14847
            variantcomparer_help.html-block1 Version :14847
          objectives_help.html Version :14845
            objectives_help.html-block1 Version :14845
          input_help.html Version :14843
            input_help.html-block1 Version :14843
        commons Version :15517
          ptable.js Version :15519
            TableVisualizer Version :15519
              Block Version :0
            Block Version :15518
          data.js Version :15492
            block Version :15491
            block Version :15490
            block Version :15487
            block Version :15484
            DataTable Version :15482
              Block Version :0
          jquery-1.8.2.js Version :15445
            jquery-1.8.2.js-block1 Version :15445
          xml_helper.js Version :15399
            XMLHelper() Version :15399
              Block Version :0
            Block Version :15398
            Block Version :15397
          pfront.js Version :15391
            block Version :15390
            block Version :15389
            block Version :15386
            ParetoFrontVisualizer Version :15385
              Block Version :0
          plist.js Version :15376
            ListVisualizer Version :15376
              Block Version :0
            Block Version :15375
          jquery.form.js Version :15373
            jquery.form.js-block1 Version :15373
          instance_processor.js Version :15333
            InstanceProcessor Version :15333
              Block Version :0
            Block Version :15332
            Block Version :15331
          clafer_processor.js Version :15327
            ClaferProcessor Version :15327
              Block Version :0
            Block Version :15326
          init.js Version :15324
            isNumeric(input) Version :15324
              Block Version :0
            getPID(input){ Version :15323
              Block Version :0
            parsePID(PID){ Version :15322
              Block Version :0
            setCookie(c_name,value,exdays) Version :15321
              Block Version :0
            getCookie(c_name) Version :15320
              Block Version :0
            Block Version :15319
            Block Version :15318
            Block Version :15317
            Block Version :15316
            Block Version :15315
            Block Version :15314
          help_getter.js Version :15292
            helpGetter(host){ Version :15292
              Block Version :0
            Block Version :15291
          instance_converter.js Version :15271
            InstanceConverter(source) Version :15271
              Block Version :0
            Block Version :15270
            Block Version :15269
          set Version :15526
            README.txt Version :15527
              README.txt-block1 Version :15527
            package.json Version :15508
              Block Version :15508
            index.js Version :15494
              Block Version :15494
            CHANGELOG.txt Version :15425
              CHANGELOG.txt-block1 Version :15425
            LICENSE.txt Version :15339
              LICENSE.txt-block1 Version :15339
            src Version :15528
              decorator.js Version :15529
                Block Version :15529
              core.js Version :15523
                Block Version :15523
              state.js Version :15516
                Block Version :15516
              observable.js Version :15510
                Block Version :15510
              linked_list.js Version :15506
                Block Version :15506
              comparable.js Version :15479
                Block Version :15479
              package.js Version :15461
                Block Version :15461
              deferrable.js Version :15459
                Block Version :15459
              stack_trace.js Version :15451
                Block Version :15451
              method_chain.js Version :15447
                Block Version :15447
              range.js Version :15443
                Block Version :15443
              test.js Version :15429
                Block Version :15429
              console.js Version :15423
                Block Version :15423
              proxy.js Version :15417
                Block Version :15417
              set.js Version :15415
                Block Version :15415
              package-browser.js Version :15401
                Block Version :15401
              tsort.js Version :15382
                Block Version :15382
              hash.js Version :15378
                Block Version :15378
              loader.js Version :15371
                Block Version :15371
              enumerable.js Version :15351
                Block Version :15351
              loader-browser.js Version :15341
                Block Version :15341
              command.js Version :15287
                Block Version :15287
              benchmark.js Version :15283
                Block Version :15283
              forwardable.js Version :15281
                Block Version :15281
              constant_scope.js Version :15275
                Block Version :15275
              dom.js Version :15273
                Block Version :15273
              assets Version :15406
                bullet_go.png Version :15407
                  bullet_go.png-block1 Version :15407
                testui.css Version :15361
                  testui.css-block1 Version :15361
            min Version :15520
              observable.js Version :15521
                Block Version :15521
              loader.js Version :15514
                Block Version :15514
              constant_scope.js.map Version :15512
                constant_scope.js.map-block1 Version :15512
              hash.js Version :15502
                Block Version :15502
              state.js Version :15500
                Block Version :15500
              deferrable.js Version :15477
                Block Version :15477
              linked_list.js.map Version :15475
                linked_list.js.map-block1 Version :15475
              range.js Version :15473
                Block Version :15473
              package.js Version :15471
                Block Version :15471
              hash.js.map Version :15467
                hash.js.map-block1 Version :15467
              core.js.map Version :15465
                core.js.map-block1 Version :15465
              decorator.js.map Version :15463
                decorator.js.map-block1 Version :15463
              package-browser.js Version :15457
                Block Version :15457
              loader-browser.js Version :15455
                Block Version :15455
              set.js.map Version :15453
                set.js.map-block1 Version :15453
              comparable.js Version :15449
                Block Version :15449
              state.js.map Version :15441
                state.js.map-block1 Version :15441
              proxy.js Version :15437
                Block Version :15437
              console.js Version :15431
                Block Version :15431
              stack_trace.js.map Version :15421
                stack_trace.js.map-block1 Version :15421
              enumerable.js.map Version :15419
                enumerable.js.map-block1 Version :15419
              constant_scope.js Version :15413
                Block Version :15413
              loader-browser.js.map Version :15411
                loader-browser.js.map-block1 Version :15411
              forwardable.js.map Version :15409
                forwardable.js.map-block1 Version :15409
              dom.js Version :15403
                Block Version :15403
              forwardable.js Version :15395
                Block Version :15395
              test.js.map Version :15393
                test.js.map-block1 Version :15393
              benchmark.js Version :15380
                Block Version :15380
              range.js.map Version :15369
                range.js.map-block1 Version :15369
              method_chain.js.map Version :15367
                method_chain.js.map-block1 Version :15367
              decorator.js Version :15365
                Block Version :15365
              linked_list.js Version :15359
                Block Version :15359
              enumerable.js Version :15357
                Block Version :15357
              tsort.js Version :15353
                Block Version :15353
              method_chain.js Version :15349
                Block Version :15349
              package.js.map Version :15347
                package.js.map-block1 Version :15347
              benchmark.js.map Version :15343
                benchmark.js.map-block1 Version :15343
              console.js.map Version :15337
                console.js.map-block1 Version :15337
              proxy.js.map Version :15335
                proxy.js.map-block1 Version :15335
              command.js Version :15329
                Block Version :15329
              core.js Version :15310
                Block Version :15310
              stack_trace.js Version :15308
                Block Version :15308
              deferrable.js.map Version :15306
                deferrable.js.map-block1 Version :15306
              dom.js.map Version :15302
                dom.js.map-block1 Version :15302
              command.js.map Version :15300
                command.js.map-block1 Version :15300
              tsort.js.map Version :15298
                tsort.js.map-block1 Version :15298
              observable.js.map Version :15296
                observable.js.map-block1 Version :15296
              loader.js.map Version :15294
                loader.js.map-block1 Version :15294
              set.js Version :15289
                Block Version :15289
              test.js Version :15285
                Block Version :15285
              package-browser.js.map Version :15279
                package-browser.js.map-block1 Version :15279
              comparable.js.map Version :15277
                comparable.js.map-block1 Version :15277
              assets Version :15497
                testui.css Version :15498
                  testui.css-block1 Version :15498
                bullet_go.png Version :15435
                  bullet_go.png-block1 Version :15435
            bin Version :15503
              jsbuild Version :15504
                jsbuild-block1 Version :15504
          jquery-windows-engine Version :15468
            jquery.windows-engine.css Version :15469
              jquery.windows-engine.css-block1 Version :15469
            sample.html Version :15439
              sample.html-block1 Version :15439
            jquery.windows-engine.js Version :15363
              jquery.windows-engine.js-block1 Version :15363
            ajaxcontent.html Version :15304
              ajaxcontent.html-block1 Version :15304
            default Version :15524
              sizer.gif Version :15525
                sizer.gif-block1 Version :15525
              top_right.gif Version :15496
                top_right.gif-block1 Version :15496
              top_left.gif Version :15433
                top_left.gif-block1 Version :15433
              top_mid.gif Version :15427
                top_mid.gif-block1 Version :15427
              bottom_mid.gif Version :15405
                bottom_mid.gif-block1 Version :15405
              maximize.gif Version :15355
                maximize.gif-block1 Version :15355
              close.gif Version :15345
                close.gif-block1 Version :15345
              minimize.gif Version :15312
                minimize.gif-block1 Version :15312
      ClaferMoo Version :10227
        tools Version :12132
        spl_datagenerator Version :12215
          tests Version :12186
        dataset Version :12266
        testset Version :12179
    README.md Version :14811
      README.md-block1 Version :14811
    Files Version :10378
      AndroidSampleMoo2.cfr Version :10379
        AndroidSampleMoo2.cfr-block1 Version :10379
      minimobilephone2012models_desugared_desugared.choco Version :10094
        minimobilephone2012models_desugared_desugared.choco-block1 Version :10094
      minimobilephone2012models_desugared_desugared.als Version :10047
        minimobilephone2012models_desugared_desugared.als-block1 Version :10047
      minimobilephone2012models_desugared_desugared.cfr Version :10045
        minimobilephone2012models_desugared_desugared.cfr-block1 Version :10045
      minimobilephone2012models_desugared_desugared.xml Version :10043
        minimobilephone2012models_desugared_desugared.xml-block1 Version :10043
      mobilephone2012models_desugared_desugared.choco Version :9995
        mobilephone2012models_desugared_desugared.choco-block1 Version :9995
      mobilephone2012models_desugared_desugared.als Version :9931
        mobilephone2012models_desugared_desugared.als-block1 Version :9931
      mobilephone2012models_desugared_desugared.cfr Version :9929
        mobilephone2012models_desugared_desugared.cfr-block1 Version :9929
      mobilephone2012models_desugared_desugared.xml Version :9927
        mobilephone2012models_desugared_desugared.xml-block1 Version :9927
      linkedlistsplc2011_desugared_desugared.choco Version :9922
        linkedlistsplc2011_desugared_desugared.choco-block1 Version :9922
      linkedlistsplc2011_desugared_desugared.als Version :9894
        linkedlistsplc2011_desugared_desugared.als-block1 Version :9894
      linkedlistsplc2011_desugared_desugared.cfr Version :9892
        linkedlistsplc2011_desugared_desugared.cfr-block1 Version :9892
      linkedlistsplc2011_desugared_desugared.xml Version :9890
        linkedlistsplc2011_desugared_desugared.xml-block1 Version :9890
      minimobilephone2012models_desugared.choco Version :9880
        minimobilephone2012models_desugared.choco-block1 Version :9880
      apacheicse2012_desugared_desugared.choco Version :9853
        apacheicse2012_desugared_desugared.choco-block1 Version :9853
      violetsplc2011_desugared_desugared.choco Version :9851
        violetsplc2011_desugared_desugared.choco-block1 Version :9851
      minimobilephone2012models_desugared.als Version :9843
        minimobilephone2012models_desugared.als-block1 Version :9843
      minimobilephone2012models_desugared.cfr Version :9841
        minimobilephone2012models_desugared.cfr-block1 Version :9841
      minimobilephone2012models_desugared.xml Version :9839
        minimobilephone2012models_desugared.xml-block1 Version :9839
      apacheicse2012_desugared_desugared.als Version :9826
        apacheicse2012_desugared_desugared.als-block1 Version :9826
      apacheicse2012_desugared_desugared.cfr Version :9824
        apacheicse2012_desugared_desugared.cfr-block1 Version :9824
      apacheicse2012_desugared_desugared.xml Version :9822
        apacheicse2012_desugared_desugared.xml-block1 Version :9822
      violetsplc2011_desugared_desugared.als Version :9820
        violetsplc2011_desugared_desugared.als-block1 Version :9820
      violetsplc2011_desugared_desugared.cfr Version :9818
        violetsplc2011_desugared_desugared.cfr-block1 Version :9818
      violetsplc2011_desugared_desugared.xml Version :9816
        violetsplc2011_desugared_desugared.xml-block1 Version :9816
      mobilephone2012models_desugared.choco Version :9810
        mobilephone2012models_desugared.choco-block1 Version :9810
      mobilephone_desugared_desugared.choco Version :9808
        mobilephone_desugared_desugared.choco-block1 Version :9808
      mobilephone2012models_desugared.als Version :9761
        mobilephone2012models_desugared.als-block1 Version :9761
      mobilephone2012models_desugared.cfr Version :9759
        mobilephone2012models_desugared.cfr-block1 Version :9759
      mobilephone2012models_desugared.xml Version :9757
        mobilephone2012models_desugared.xml-block1 Version :9757
      mobilephone_desugared_desugared.als Version :9755
        mobilephone_desugared_desugared.als-block1 Version :9755
      mobilephone_desugared_desugared.cfr Version :9753
        mobilephone_desugared_desugared.cfr-block1 Version :9753
      mobilephone_desugared_desugared.xml Version :9751
        mobilephone_desugared_desugared.xml-block1 Version :9751
      linkedlistsplc2011_desugared.choco Version :9749
        linkedlistsplc2011_desugared.choco-block1 Version :9749
      linkedlistsplc2011_desugared.als Version :9728
        linkedlistsplc2011_desugared.als-block1 Version :9728
      linkedlistsplc2011_desugared.cfr Version :9726
        linkedlistsplc2011_desugared.cfr-block1 Version :9726
      linkedlistsplc2011_desugared.xml Version :9724
        linkedlistsplc2011_desugared.xml-block1 Version :9724
      apacheicse2012_desugared.choco Version :9718
        apacheicse2012_desugared.choco-block1 Version :9718
      sqlitesplc2011_desugared.choco Version :9716
        sqlitesplc2011_desugared.choco-block1 Version :9716
      violetsplc2011_desugared.choco Version :9714
        violetsplc2011_desugared.choco-block1 Version :9714
      minimobilephone2012models.cfr Version :9712
        minimobilephone2012models.cfr-block1 Version :9712
      minimobilephone2012models.xml Version :9710
        minimobilephone2012models.xml-block1 Version :9710
      apacheicse2012_desugared.als Version :9701
        apacheicse2012_desugared.als-block1 Version :9701
      apacheicse2012_desugared.cfr Version :9699
        apacheicse2012_desugared.cfr-block1 Version :9699
      apacheicse2012_desugared.xml Version :9697
        apacheicse2012_desugared.xml-block1 Version :9697
      sqlitesplc2011_desugared.als Version :9695
        sqlitesplc2011_desugared.als-block1 Version :9695
      sqlitesplc2011_desugared.cfr Version :9693
        sqlitesplc2011_desugared.cfr-block1 Version :9693
      sqlitesplc2011_desugared.xml Version :9691
        sqlitesplc2011_desugared.xml-block1 Version :9691
      violetsplc2011_desugared.als Version :9689
        violetsplc2011_desugared.als-block1 Version :9689
      violetsplc2011_desugared.cfr Version :9687
        violetsplc2011_desugared.cfr-block1 Version :9687
      violetsplc2011_desugared.xml Version :9685
        violetsplc2011_desugared.xml-block1 Version :9685
      mobilephone_desugared.choco Version :9681
        mobilephone_desugared.choco-block1 Version :9681
      mobilephone2012models.cfr Version :9671
        mobilephone2012models.cfr-block1 Version :9671
      mobilephone2012models.xml Version :9669
        mobilephone2012models.xml-block1 Version :9669
      mobilephone_desugared.als Version :9667
        mobilephone_desugared.als-block1 Version :9667
      mobilephone_desugared.cfr Version :9665
        mobilephone_desugared.cfr-block1 Version :9665
      mobilephone_desugared.xml Version :9663
        mobilephone_desugared.xml-block1 Version :9663
      linkedlistsplc2011.cfr Version :9615
        linkedlistsplc2011.cfr-block1 Version :9615
      linkedlistsplc2011.xml Version :9613
        linkedlistsplc2011.xml-block1 Version :9613
      AndroidSampleMoo.cfr Version :10501
        AndroidSampleMoo.cfr-block1 Version :10501
      apacheicse2012.cfr Version :9558
        apacheicse2012.cfr-block1 Version :9558
      apacheicse2012.xml Version :9556
        apacheicse2012.xml-block1 Version :9556
      sqlitesplc2011.cfr Version :9554
        sqlitesplc2011.cfr-block1 Version :9554
      sqlitesplc2011.xml Version :9552
        sqlitesplc2011.xml-block1 Version :9552
      violetsplc2011.cfr Version :9550
        violetsplc2011.cfr-block1 Version :9550
      violetsplc2011.xml Version :9548
        violetsplc2011.xml-block1 Version :9548
      mobilephone.cfr Version :9539
        mobilephone.cfr-block1 Version :9539
      mobilephone.xml Version :9537
        mobilephone.xml-block1 Version :9537
      a.cfr Version :9456
        a.cfr-block1 Version :9456
      a.xml Version :9454
        a.xml-block1 Version :9454
