RepositoryCopies Version :16379
  ClaferIDE Version :15564
    Server Version :15598
      Examples Version :15681
        MOO_MobilePhone_From_Wiki.cfr Version :15682
          MOO_MobilePhone_From_Wiki.cfr-block1 Version :15682
        MOO_Android4_From_Wiki.cfr Version :15680
          MOO_Android4_From_Wiki.cfr-block1 Version :15680
        AndroidSampleMoo_2.cfr Version :15671
          AndroidSampleMoo_2.cfr-block1 Version :15671
        AndroidSampleMoo_3.cfr Version :15669
          AndroidSampleMoo_3.cfr-block1 Version :15669
        AndroidSampleMoo_4.cfr Version :15667
          AndroidSampleMoo_4.cfr-block1 Version :15667
        AndroidSampleMoo_5.cfr Version :15665
          AndroidSampleMoo_5.cfr-block1 Version :15665
        examples.json Version :15607
          examples.json-block1 Version :15607
        Car4D.cfr Version :15600
          Car4D.cfr-block1 Version :15600
      uploads Version :15597
      Client Version :15677
        compiler_html_wrapper.html Version :15678
          compiler_html_wrapper.html-block1 Version :15678
        help_pages Version :15695
          objectivesandqualityranges_help.html Version :15696
            objectivesandqualityranges_help.html-block1 Version :15696
          featureandqualitymatrix_help.html Version :15694
            featureandqualitymatrix_help.html-block1 Version :15694
          inputfileorexample_help.html Version :15692
            inputfileorexample_help.html-block1 Version :15692
          clafersourcemodel_help.html Version :15690
            clafersourcemodel_help.html-block1 Version :15690
          bubblefrontgraph_help.html Version :15688
            bubblefrontgraph_help.html-block1 Version :15688
          variantcomparer_help.html Version :15686
            variantcomparer_help.html-block1 Version :15686
          objectives_help.html Version :15684
            objectives_help.html-block1 Version :15684
          input_help.html Version :15676
            input_help.html-block1 Version :15676
          start_help.html Version :15674
            start_help.html-block1 Version :15674
        md_clafermodel.js Version :15659
          Block Version :15659
          Block Version :15658
          ClaferModel(host) Version :15657
            Block Version :0
        commons Version :15654
          jquery.form.js Version :15655
            jquery.form.js-block1 Version :15655
          jquery-windows-engine Version :15652
            sample.html Version :15653
              sample.html-block1 Version :15653
            jquery.windows-engine.js Version :15651
              jquery.windows-engine.js-block1 Version :15651
            jquery.windows-engine.css Version :15649
              jquery.windows-engine.css-block1 Version :15649
            default Version :15646
              top_right.gif Version :15647
                top_right.gif-block1 Version :15647
              top_mid.gif Version :15645
                top_mid.gif-block1 Version :15645
              top_left.gif Version :15643
                top_left.gif-block1 Version :15643
              sizer.gif Version :15641
                sizer.gif-block1 Version :15641
              minimize.gif Version :15639
                minimize.gif-block1 Version :15639
              maximize.gif Version :15637
                maximize.gif-block1 Version :15637
              close.gif Version :15635
                close.gif-block1 Version :15635
              bottom_mid.gif Version :15633
                bottom_mid.gif-block1 Version :15633
            ajaxcontent.html Version :15630
              ajaxcontent.html-block1 Version :15630
          jquery-1.8.2.js Version :15627
            jquery-1.8.2.js-block1 Version :15627
          init.js Version :15625
            Block Version :15625
            Block Version :15624
            Block Version :15623
            Block Version :15622
            Block Version :15621
            isNumeric(input) Version :15620
              Block Version :0
            getPID(input){ Version :15619
              Block Version :0
            parsePID(PID){ Version :15618
              Block Version :0
            setCookie(c_name,value,exdays) Version :15617
              Block Version :0
            getCookie(c_name) Version :15616
              Block Version :0
          help_getter.js Version :15614
            Block Version :15614
            helpGetter(host){ Version :15613
              Block Version :0
        images Version :15662
          help_hover.png Version :15663
            help_hover.png-block1 Version :15663
          preloader.gif Version :15661
            preloader.gif-block1 Version :15661
          help.png Version :15610
            help.png-block1 Version :15610
        md_input.js Version :15605
          Block Version :15605
          Block Version :15604
          Input(host) Version :15603
            Block Version :0
          unescapeJSON(escaped) Version :15602
            Block Version :0
        robots.txt Version :15596
          robots.txt-block1 Version :15596
        styles.css Version :15594
          styles.css-block1 Version :15594
        app.html Version :15592
          app.html-block1 Version :15592
        main.js Version :15590
          Block Version :15590
          Block Version :15589
          Host(modules) Version :15588
            Block Version :0
      package.json Version :15585
        package.json-block1 Version :15585
      config.json Version :15583
        config.json-block1 Version :15583
      server.js Version :15581
        Block Version :15581
        Block Version :15580
        Block Version :15579
        Block Version :15578
        Block Version :15577
        Block Version :15576
        Block Version :15575
        Block Version :15574
        finishCleanup(dir, Version :15573
          Block Version :0
        cleanupOldFiles(path, Version :15572
          Block Version :0
        deleteOld(path){ Version :15571
          Block Version :0
        escapeJSON(unsafe) Version :15570
          Block Version :0
        changeFileExt(name, Version :15569
          Block Version :0
        killProcessTree(process) Version :15568
          Block Version :0
        dependency_ok() Version :15567
          Block Version :0
        filterArgs(original_args, Version :15566
          Block Version :0
    README.md Version :15698
      README.md-block1 Version :15698
    LICENSE Version :15561
      LICENSE-block1 Version :15561
  ClaferMooVisualizer Version :15699
    LICENSE Version :15700
      LICENSE-block1 Version :15700
    Spec Version :16013
    mobilephone.cfr Version :10233
      mobilephone.cfr-block1 Version :10233
    OLD_php Version :11900
    Talk_Samples Version :14021
      ClaferMooVizPaperExample_Downgraded_Front.data Version :13830
        ClaferMooVizPaperExample_Downgraded_Front.data-block1 Version :13830
      ClaferMooVizPaperExample_Downgraded_Front.cfr Version :13832
        ClaferMooVizPaperExample_Downgraded_Front.cfr-block1 Version :13832
      ClaferMooVizPaperExample_Existing1.data Version :13826
        ClaferMooVizPaperExample_Existing1.data-block1 Version :13826
      ClaferMooVizPaperExample_Existing1.cfr Version :13828
        ClaferMooVizPaperExample_Existing1.cfr-block1 Version :13828
      ClaferMooVizPaperExample.data Version :13834
        ClaferMooVizPaperExample.data-block1 Version :13834
      ClaferMooVizPaperExample.cfr Version :14252
        ClaferMooVizPaperExample.cfr-block1 Version :14252
      AndroidSampleMoo_4_existing_product_spec.cfr Version :13299
        AndroidSampleMoo_4_existing_product_spec.cfr-block1 Version :13299
      AndroidSampleMoo_2.cfr.1.data Version :13271
        AndroidSampleMoo_2.cfr.1.data-block1 Version :13271
      AndroidSampleMoo_2.cfr.2.data Version :14558
        AndroidSampleMoo_2.cfr.2.data-block1 Version :14558
      AndroidSampleMoo_4.cfr Version :10925
        AndroidSampleMoo_4.cfr-block1 Version :10925
      AndroidSampleMoo_5.cfr Version :11632
        AndroidSampleMoo_5.cfr-block1 Version :11632
      AndroidSampleMoo_2.cfr Version :14400
        AndroidSampleMoo_2.cfr-block1 Version :14400
      AndroidSampleMoo_3.cfr Version :10603
        AndroidSampleMoo_3.cfr-block1 Version :10603
    Server Version :16100
      claferIG Version :13013
      config.json Version :15267
        block Version :15266
        block Version :15265
        block Version :15264
      package.json Version :15803
        Block Version :15803
      server.js Version :16330
        block Version :16329
        block Version :16328
        block Version :16325
        block Version :16322
        block Version :16321
        block Version :16307
        block Version :16304
        block Version :16301
        block Version :16298
        block Version :16297
        block Version :16283
        block Version :16280
        block Version :16277
        block Version :16276
        block Version :16262
        block Version :16248
        block Version :16234
        block Version :16331
        block Version :16230
        block Version :16217
        block Version :16204
        block Version :16191
        finishCleanup(dir, Version :16190
          Block Version :16335
        cleanupOldFiles(path, Version :16189
          Block Version :16341
        deleteOld(path){ Version :16188
          Block Version :16342
        escapeHtml(unsafe) Version :16187
          Block Version :16319
        changeFileExt(name, Version :16186
          Block Version :16320
        Block Version :16338
        Block Version :16339
        Block Version :16340
        Block Version :16314
        Block Version :16315
      upload.js Version :10982
        display_page(req, Version :10982
          Block Version :0
        parse_multipart(req) Version :10981
          Block Version :0
        basename(str) Version :10980
          Block Version :0
        upload_file(req, Version :10979
          Block Version :0
        escapeHtml(unsafe) Version :10978
          Block Version :0
        changeFileExt(name, Version :10977
          Block Version :0
        upload_complete(res, Version :10976
          Block Version :0
        show_404(req, Version :10975
          Block Version :0
        getMimeByExt(filename) Version :10974
          Block Version :0
        getPath(req, Version :10973
          Block Version :0
        Block Version :10972
        Block Version :10971
        Block Version :10970
        Block Version :10969
        Block Version :10968
        Block Version :10967
        Block Version :10966
        Block Version :10965
        Block Version :10964
        Block Version :10963
      cache Version :6737
      Backends Version :9450
        ChocoSingle Version :6741
        ClaferMoo Version :6739
          spl_datagenerator Version :5455
          tools Version :5441
      Examples Version :9298
      uploads Version :11839
      Client Version :16153
        robots.txt Version :12036
          robots.txt-block1 Version :12036
        md_analysis.js Version :16073
          block Version :16077
          block Version :16075
          block Version :16074
          block Version :15902
          Analysis(host) Version :15901
            Block Version :0
          Block Version :15900
        md_input.js Version :16375
          block Version :16374
          block Version :16373
          block Version :16372
          block Version :16369
          block Version :16366
          block Version :16365
          block Version :16362
          block Version :16359
          block Version :16358
          block Version :16355
          block Version :16352
          block Version :16351
          block Version :16348
          block Version :16347
          Input(host) Version :16346
            Block Version :0
          Block Version :16345
        md_comparison_table.js Version :15897
          block Version :16152
          block Version :16149
          block Version :16146
          block Version :16131
          block Version :16128
          block Version :16126
          block Version :15878
          block Version :15875
          ComparisonTable(host) Version :15874
            Block Version :0
          Block Version :15873
        xml_helper.js Version :10733
          XMLHelper() Version :10733
            Block Version :0
          Block Version :10732
          Block Version :10731
        md_goals.js Version :15866
          Goals(host) Version :15866
            Block Version :0
          Block Version :15865
          Block Version :15864
        md_graph.js Version :16099
          block Version :15847
          Graph(host) Version :15846
            Block Version :0
          setDim(el, Version :16095
          Block Version :15844
        init.js Version :14949
          isNumeric(input) Version :14949
            Block Version :0
          getPID(input){ Version :14948
            Block Version :0
          parsePID(PID){ Version :14947
            Block Version :0
          setCookie(c_name,value,exdays) Version :14946
            Block Version :0
          getCookie(c_name) Version :14945
            Block Version :0
          Block Version :14944
          Block Version :14943
          Block Version :14942
          Block Version :14941
          Block Version :14940
          Block Version :14939
        jquery-windows-engine Version :10229
          jquery.windows-engine.css Version :10130
            jquery.windows-engine.css-block1 Version :10130
          jquery.windows-engine.js Version :10108
            jquery.windows-engine.js-block1 Version :10108
          default Version :10095
            bottom_mid.gif Version :10096
              bottom_mid.gif-block1 Version :10096
            top_right.gif Version :10072
              top_right.gif-block1 Version :10072
            .svn Version :11898
              prop-base Version :11896
              text-base Version :11888
            maximize.gif Version :10055
              maximize.gif-block1 Version :10055
            minimize.gif Version :10053
              minimize.gif-block1 Version :10053
            top_left.gif Version :10051
              top_left.gif-block1 Version :10051
            top_mid.gif Version :10017
              top_mid.gif-block1 Version :10017
            close.gif Version :9965
              close.gif-block1 Version :9965
            sizer.gif Version :9963
              sizer.gif-block1 Version :9963
          ajaxcontent.html Version :9935
            ajaxcontent.html-block1 Version :9935
          sample.html Version :9864
            sample.html-block1 Version :9864
        jquery-1.8.2.js Version :14971
          jquery-1.8.2.js-block1 Version :9646
        jquery.form.js Version :14972
          jquery.form.js-block1 Version :9611
        styles.css Version :14974
          styles.css-block1 Version :14974
        app.html Version :15555
          app.html-block1 Version :15555
        main.js Version :16379
          Host(modules) Version :16379
            Block Version :0
          Block Version :16378
          Block Version :16377
        images Version :14840
          help_hover.png Version :14841
            help_hover.png-block1 Version :14841
          help.png Version :14839
            help.png-block1 Version :14839
          checkbox_ticked_greyed.png Version :14398
            checkbox_ticked_greyed.png-block1 Version :14398
          horizontalAxis.png Version :12752
            horizontalAxis.png-block1 Version :12752
          verticalAxis.png Version :12750
            verticalAxis.png-block1 Version :12750
          removeMouseOver.png Version :12540
            removeMouseOver.png-block1 Version :12540
          remove.png Version :12538
            remove.png-block1 Version :12538
          checkbox_ticked.bmp Version :12464
            checkbox_ticked.bmp-block1 Version :12464
          checkbox_empty.bmp Version :12462
            checkbox_empty.bmp-block1 Version :12462
          checkbox_x.bmp Version :12460
            checkbox_x.bmp-block1 Version :12460
          no.png Version :11471
            no.png-block1 Version :11471
          preloader.gif Version :9683
            preloader.gif-block1 Version :9683
          tick.png Version :9648
            tick.png-block1 Version :9648
        commons Version :16101
          jquery-1.8.2.js Version :16009
            jquery-1.8.2.js-block1 Version :15445
          xml_helper.js Version :15944
            XMLHelper() Version :15944
              Block Version :0
            Block Version :15943
            Block Version :15942
          jquery.form.js Version :16010
            jquery.form.js-block1 Version :15373
          init.js Version :15977
            isNumeric(input) Version :15977
              Block Version :0
            getPID(input){ Version :15976
              Block Version :0
            parsePID(PID){ Version :15975
              Block Version :0
            setCookie(c_name,value,exdays) Version :15974
              Block Version :0
            getCookie(c_name) Version :15973
              Block Version :0
            Block Version :15972
            Block Version :15971
            Block Version :15970
            Block Version :15969
            Block Version :15968
          jquery-windows-engine Version :16012
            jquery.windows-engine.css Version :15469
              jquery.windows-engine.css-block1 Version :15469
            sample.html Version :15439
              sample.html-block1 Version :15439
            jquery.windows-engine.js Version :15363
              jquery.windows-engine.js-block1 Version :15363
            ajaxcontent.html Version :15304
              ajaxcontent.html-block1 Version :15304
            default Version :15524
              sizer.gif Version :15525
                sizer.gif-block1 Version :15525
              top_right.gif Version :15496
                top_right.gif-block1 Version :15496
              top_left.gif Version :15433
                top_left.gif-block1 Version :15433
              top_mid.gif Version :15427
                top_mid.gif-block1 Version :15427
              bottom_mid.gif Version :15405
                bottom_mid.gif-block1 Version :15405
              maximize.gif Version :15355
                maximize.gif-block1 Version :15355
              close.gif Version :15345
                close.gif-block1 Version :15345
              minimize.gif Version :15312
                minimize.gif-block1 Version :15312
      ClaferMoo Version :10227
        tools Version :12132
        spl_datagenerator Version :12215
          tests Version :12186
        dataset Version :12266
        testset Version :12179
    README.md Version :16000
      README.md-block1 Version :16000
    Files Version :10378
      AndroidSampleMoo2.cfr Version :10379
        AndroidSampleMoo2.cfr-block1 Version :10379
      minimobilephone2012models_desugared_desugared.choco Version :10094
        minimobilephone2012models_desugared_desugared.choco-block1 Version :10094
      minimobilephone2012models_desugared_desugared.als Version :10047
        minimobilephone2012models_desugared_desugared.als-block1 Version :10047
      minimobilephone2012models_desugared_desugared.cfr Version :10045
        minimobilephone2012models_desugared_desugared.cfr-block1 Version :10045
      minimobilephone2012models_desugared_desugared.xml Version :10043
        minimobilephone2012models_desugared_desugared.xml-block1 Version :10043
      mobilephone2012models_desugared_desugared.choco Version :9995
        mobilephone2012models_desugared_desugared.choco-block1 Version :9995
      mobilephone2012models_desugared_desugared.als Version :9931
        mobilephone2012models_desugared_desugared.als-block1 Version :9931
      mobilephone2012models_desugared_desugared.cfr Version :9929
        mobilephone2012models_desugared_desugared.cfr-block1 Version :9929
      mobilephone2012models_desugared_desugared.xml Version :9927
        mobilephone2012models_desugared_desugared.xml-block1 Version :9927
      linkedlistsplc2011_desugared_desugared.choco Version :9922
        linkedlistsplc2011_desugared_desugared.choco-block1 Version :9922
      linkedlistsplc2011_desugared_desugared.als Version :9894
        linkedlistsplc2011_desugared_desugared.als-block1 Version :9894
      linkedlistsplc2011_desugared_desugared.cfr Version :9892
        linkedlistsplc2011_desugared_desugared.cfr-block1 Version :9892
      linkedlistsplc2011_desugared_desugared.xml Version :9890
        linkedlistsplc2011_desugared_desugared.xml-block1 Version :9890
      minimobilephone2012models_desugared.choco Version :9880
        minimobilephone2012models_desugared.choco-block1 Version :9880
      apacheicse2012_desugared_desugared.choco Version :9853
        apacheicse2012_desugared_desugared.choco-block1 Version :9853
      violetsplc2011_desugared_desugared.choco Version :9851
        violetsplc2011_desugared_desugared.choco-block1 Version :9851
      minimobilephone2012models_desugared.als Version :9843
        minimobilephone2012models_desugared.als-block1 Version :9843
      minimobilephone2012models_desugared.cfr Version :9841
        minimobilephone2012models_desugared.cfr-block1 Version :9841
      minimobilephone2012models_desugared.xml Version :9839
        minimobilephone2012models_desugared.xml-block1 Version :9839
      apacheicse2012_desugared_desugared.als Version :9826
        apacheicse2012_desugared_desugared.als-block1 Version :9826
      apacheicse2012_desugared_desugared.cfr Version :9824
        apacheicse2012_desugared_desugared.cfr-block1 Version :9824
      apacheicse2012_desugared_desugared.xml Version :9822
        apacheicse2012_desugared_desugared.xml-block1 Version :9822
      violetsplc2011_desugared_desugared.als Version :9820
        violetsplc2011_desugared_desugared.als-block1 Version :9820
      violetsplc2011_desugared_desugared.cfr Version :9818
        violetsplc2011_desugared_desugared.cfr-block1 Version :9818
      violetsplc2011_desugared_desugared.xml Version :9816
        violetsplc2011_desugared_desugared.xml-block1 Version :9816
      mobilephone2012models_desugared.choco Version :9810
        mobilephone2012models_desugared.choco-block1 Version :9810
      mobilephone_desugared_desugared.choco Version :9808
        mobilephone_desugared_desugared.choco-block1 Version :9808
      mobilephone2012models_desugared.als Version :9761
        mobilephone2012models_desugared.als-block1 Version :9761
      mobilephone2012models_desugared.cfr Version :9759
        mobilephone2012models_desugared.cfr-block1 Version :9759
      mobilephone2012models_desugared.xml Version :9757
        mobilephone2012models_desugared.xml-block1 Version :9757
      mobilephone_desugared_desugared.als Version :9755
        mobilephone_desugared_desugared.als-block1 Version :9755
      mobilephone_desugared_desugared.cfr Version :9753
        mobilephone_desugared_desugared.cfr-block1 Version :9753
      mobilephone_desugared_desugared.xml Version :9751
        mobilephone_desugared_desugared.xml-block1 Version :9751
      linkedlistsplc2011_desugared.choco Version :9749
        linkedlistsplc2011_desugared.choco-block1 Version :9749
      linkedlistsplc2011_desugared.als Version :9728
        linkedlistsplc2011_desugared.als-block1 Version :9728
      linkedlistsplc2011_desugared.cfr Version :9726
        linkedlistsplc2011_desugared.cfr-block1 Version :9726
      linkedlistsplc2011_desugared.xml Version :9724
        linkedlistsplc2011_desugared.xml-block1 Version :9724
      apacheicse2012_desugared.choco Version :9718
        apacheicse2012_desugared.choco-block1 Version :9718
      sqlitesplc2011_desugared.choco Version :9716
        sqlitesplc2011_desugared.choco-block1 Version :9716
      violetsplc2011_desugared.choco Version :9714
        violetsplc2011_desugared.choco-block1 Version :9714
      minimobilephone2012models.cfr Version :9712
        minimobilephone2012models.cfr-block1 Version :9712
      minimobilephone2012models.xml Version :9710
        minimobilephone2012models.xml-block1 Version :9710
      apacheicse2012_desugared.als Version :9701
        apacheicse2012_desugared.als-block1 Version :9701
      apacheicse2012_desugared.cfr Version :9699
        apacheicse2012_desugared.cfr-block1 Version :9699
      apacheicse2012_desugared.xml Version :9697
        apacheicse2012_desugared.xml-block1 Version :9697
      sqlitesplc2011_desugared.als Version :9695
        sqlitesplc2011_desugared.als-block1 Version :9695
      sqlitesplc2011_desugared.cfr Version :9693
        sqlitesplc2011_desugared.cfr-block1 Version :9693
      sqlitesplc2011_desugared.xml Version :9691
        sqlitesplc2011_desugared.xml-block1 Version :9691
      violetsplc2011_desugared.als Version :9689
        violetsplc2011_desugared.als-block1 Version :9689
      violetsplc2011_desugared.cfr Version :9687
        violetsplc2011_desugared.cfr-block1 Version :9687
      violetsplc2011_desugared.xml Version :9685
        violetsplc2011_desugared.xml-block1 Version :9685
      mobilephone_desugared.choco Version :9681
        mobilephone_desugared.choco-block1 Version :9681
      mobilephone2012models.cfr Version :9671
        mobilephone2012models.cfr-block1 Version :9671
      mobilephone2012models.xml Version :9669
        mobilephone2012models.xml-block1 Version :9669
      mobilephone_desugared.als Version :9667
        mobilephone_desugared.als-block1 Version :9667
      mobilephone_desugared.cfr Version :9665
        mobilephone_desugared.cfr-block1 Version :9665
      mobilephone_desugared.xml Version :9663
        mobilephone_desugared.xml-block1 Version :9663
      linkedlistsplc2011.cfr Version :9615
        linkedlistsplc2011.cfr-block1 Version :9615
      linkedlistsplc2011.xml Version :9613
        linkedlistsplc2011.xml-block1 Version :9613
      AndroidSampleMoo.cfr Version :10501
        AndroidSampleMoo.cfr-block1 Version :10501
      apacheicse2012.cfr Version :9558
        apacheicse2012.cfr-block1 Version :9558
      apacheicse2012.xml Version :9556
        apacheicse2012.xml-block1 Version :9556
      sqlitesplc2011.cfr Version :9554
        sqlitesplc2011.cfr-block1 Version :9554
      sqlitesplc2011.xml Version :9552
        sqlitesplc2011.xml-block1 Version :9552
      violetsplc2011.cfr Version :9550
        violetsplc2011.cfr-block1 Version :9550
      violetsplc2011.xml Version :9548
        violetsplc2011.xml-block1 Version :9548
      mobilephone.cfr Version :9539
        mobilephone.cfr-block1 Version :9539
      mobilephone.xml Version :9537
        mobilephone.xml-block1 Version :9537
      a.cfr Version :9456
        a.cfr-block1 Version :9456
      a.xml Version :9454
        a.xml-block1 Version :9454
