RepositoryCopies Version :12376
  ClaferMooVisualizer Version :11745
    mobilephone.cfr Version :10233
      mobilephone.cfr-block1 Version :10233
    OLD_php Version :11900
    Talk_Samples Version :10924
      AndroidSampleMoo_4.cfr Version :10925
        AndroidSampleMoo_4.cfr-block1 Version :10925
      AndroidSampleMoo_5.cfr Version :11632
        AndroidSampleMoo_5.cfr-block1 Version :11632
      AndroidSampleMoo_2.cfr Version :10605
        AndroidSampleMoo_2.cfr-block1 Version :10605
      AndroidSampleMoo_3.cfr Version :10603
        AndroidSampleMoo_3.cfr-block1 Version :10603
    Server Version :11880
      package.json Version :11696
        Block Version :11696
      server.js Version :12359
        block Version :12358
        block Version :12357
        block Version :12346
        block Version :12335
        cleanupOldFiles(path) Version :12334
          Block Version :12364
        deleteOld(path, Version :12333
          Block Version :12365
        escapeHtml(unsafe) Version :12332
          Block Version :12366
        changeFileExt(name, Version :12331
          Block Version :12367
        Block Version :12360
        Block Version :12361
        Block Version :12362
        Block Version :12363
      multipart Version :11851
        test Version :11844
        lib Version :11850
      upload.js Version :10982
        display_page(req, Version :10982
          Block Version :0
        parse_multipart(req) Version :10981
          Block Version :0
        basename(str) Version :10980
          Block Version :0
        upload_file(req, Version :10979
          Block Version :0
        escapeHtml(unsafe) Version :10978
          Block Version :0
        changeFileExt(name, Version :10977
          Block Version :0
        upload_complete(res, Version :10976
          Block Version :0
        show_404(req, Version :10975
          Block Version :0
        getMimeByExt(filename) Version :10974
          Block Version :0
        getPath(req, Version :10973
          Block Version :0
        Block Version :10972
        Block Version :10971
        Block Version :10970
        Block Version :10969
        Block Version :10968
        Block Version :10967
        Block Version :10966
        Block Version :10965
        Block Version :10964
        Block Version :10963
      cache Version :6737
      Backends Version :9450
        ChocoSingle Version :6741
        ClaferMoo Version :6739
          spl_datagenerator Version :5455
          tools Version :5441
      Examples Version :9298
      uploads Version :11839
      Client Version :12035
        robots.txt Version :12036
          robots.txt-block1 Version :12036
        plist.js Version :11390
          ListVisualizer Version :11329
            Block Version :0
          Block Version :11328
        JS.Class.3-0-8.zip Version :11179
          JS.Class.3-0-8.zip-block1 Version :11179
        md_analysis.js Version :11688
          block Version :11687
          block Version :11686
          Analysis(host) Version :11685
            Block Version :0
        set Version :11310
          CHANGELOG.txt Version :11161
            CHANGELOG.txt-block1 Version :11161
          package.json Version :11147
            Block Version :11147
          LICENSE.txt Version :11137
            LICENSE.txt-block1 Version :11137
          bin Version :11134
            jsbuild Version :11135
              jsbuild-block1 Version :11135
          README.txt Version :11117
            README.txt-block1 Version :11117
          min Version :11288
            package-browser.js.map Version :11289
              package-browser.js.map-block1 Version :11289
            constant_scope.js.map Version :11287
              constant_scope.js.map-block1 Version :11287
            loader-browser.js.map Version :11285
              loader-browser.js.map-block1 Version :11285
            method_chain.js.map Version :11279
              method_chain.js.map-block1 Version :11279
            forwardable.js.map Version :11277
              forwardable.js.map-block1 Version :11277
            linked_list.js.map Version :11275
              linked_list.js.map-block1 Version :11275
            package-browser.js Version :11273
              Block Version :11273
            stack_trace.js.map Version :11271
              stack_trace.js.map-block1 Version :11271
            assets Version :11282
              bullet_go.png Version :11283
                bullet_go.png-block1 Version :11283
              testui.css Version :11267
                testui.css-block1 Version :11267
            comparable.js.map Version :11264
              comparable.js.map-block1 Version :11264
            constant_scope.js Version :11262
              Block Version :11262
            deferrable.js.map Version :11260
              deferrable.js.map-block1 Version :11260
            enumerable.js.map Version :11258
              enumerable.js.map-block1 Version :11258
            loader-browser.js Version :11256
              Block Version :11256
            observable.js.map Version :11254
              observable.js.map-block1 Version :11254
            benchmark.js.map Version :11245
              benchmark.js.map-block1 Version :11245
            decorator.js.map Version :11243
              decorator.js.map-block1 Version :11243
            method_chain.js Version :11241
              Block Version :11241
            command.js.map Version :11237
              command.js.map-block1 Version :11237
            console.js.map Version :11235
              console.js.map-block1 Version :11235
            forwardable.js Version :11233
              Block Version :11233
            linked_list.js Version :11231
              Block Version :11231
            package.js.map Version :11229
              package.js.map-block1 Version :11229
            stack_trace.js Version :11227
              Block Version :11227
            comparable.js Version :11219
              Block Version :11219
            deferrable.js Version :11217
              Block Version :11217
            enumerable.js Version :11215
              Block Version :11215
            loader.js.map Version :11213
              loader.js.map-block1 Version :11213
            observable.js Version :11211
              Block Version :11211
            benchmark.js Version :11201
              Block Version :11201
            decorator.js Version :11199
              Block Version :11199
            proxy.js.map Version :11197
              proxy.js.map-block1 Version :11197
            range.js.map Version :11195
              range.js.map-block1 Version :11195
            state.js.map Version :11193
              state.js.map-block1 Version :11193
            tsort.js.map Version :11191
              tsort.js.map-block1 Version :11191
            core.js.map Version :11185
              core.js.map-block1 Version :11185
            hash.js.map Version :11183
              hash.js.map-block1 Version :11183
            test.js.map Version :11181
              test.js.map-block1 Version :11181
            command.js Version :11177
              Block Version :11177
            console.js Version :11175
              Block Version :11175
            dom.js.map Version :11173
              dom.js.map-block1 Version :11173
            package.js Version :11171
              Block Version :11171
            set.js.map Version :11169
              set.js.map-block1 Version :11169
            loader.js Version :11159
              Block Version :11159
            proxy.js Version :11155
              Block Version :11155
            range.js Version :11153
              Block Version :11153
            state.js Version :11151
              Block Version :11151
            tsort.js Version :11149
              Block Version :11149
            core.js Version :11132
              Block Version :11132
            hash.js Version :11130
              Block Version :11130
            test.js Version :11128
              Block Version :11128
            dom.js Version :11115
              Block Version :11115
            set.js Version :11113
              Block Version :11113
          src Version :11268
            package-browser.js Version :11269
              Block Version :11269
            assets Version :11280
              bullet_go.png Version :11281
                bullet_go.png-block1 Version :11281
              testui.css Version :11252
                testui.css-block1 Version :11252
            constant_scope.js Version :11249
              Block Version :11249
            loader-browser.js Version :11247
              Block Version :11247
            method_chain.js Version :11239
              Block Version :11239
            forwardable.js Version :11225
              Block Version :11225
            linked_list.js Version :11223
              Block Version :11223
            stack_trace.js Version :11221
              Block Version :11221
            comparable.js Version :11209
              Block Version :11209
            deferrable.js Version :11207
              Block Version :11207
            enumerable.js Version :11205
              Block Version :11205
            observable.js Version :11203
              Block Version :11203
            benchmark.js Version :11189
              Block Version :11189
            decorator.js Version :11187
              Block Version :11187
            command.js Version :11167
              Block Version :11167
            console.js Version :11165
              Block Version :11165
            package.js Version :11163
              Block Version :11163
            loader.js Version :11157
              Block Version :11157
            proxy.js Version :11145
              Block Version :11145
            range.js Version :11143
              Block Version :11143
            state.js Version :11141
              Block Version :11141
            tsort.js Version :11139
              Block Version :11139
            core.js Version :11126
              Block Version :11126
            hash.js Version :11124
              Block Version :11124
            test.js Version :11122
              Block Version :11122
            dom.js Version :11110
              Block Version :11110
            set.js Version :11108
              Block Version :11108
          index.js Version :11105
            Block Version :11105
        md_usecases.js Version :11449
          UseCases(host) Version :11449
            Block Version :0
          Block Version :11448
        selector.js Version :11540
          Selector(host) Version :11540
            Block Version :0
          Block Version :11539
        ptable.js Version :11707
          TableVisualizer Version :11707
            Block Version :0
          Block Version :11706
        data.js Version :11602
          block Version :11601
          block Version :11600
          block Version :11597
          block Version :11594
          DataTable Version :11592
            Block Version :0
        md_input.js Version :12376
          block Version :12375
          block Version :12374
          block Version :12371
          Input(host) Version :12370
            Block Version :0
        md_console.js Version :11462
          Console(host) Version :11462
            Block Version :0
          Block Version :11461
        md_comparison_table.js Version :11682
          ComparisonTable(host) Version :11682
            Block Version :0
          Block Version :11681
        instance_converter.js Version :11381
          InstanceConverter(source) Version :10609
            Block Version :0
          Block Version :10608
          Block Version :10607
        clafer_processor.js Version :11394
          ClaferProcessor Version :10776
            Block Version :0
          Block Version :10775
        xml_helper.js Version :10733
          XMLHelper() Version :10733
            Block Version :0
          Block Version :10732
          Block Version :10731
        md_goals.js Version :11679
          Goals(host) Version :11679
            Block Version :0
          Block Version :11678
        md_graph.js Version :11942
          block Version :11941
          block Version :11940
          Graph(host) Version :11939
            Block Version :0
          setDim(el, Version :11938
            Block Version :11944
          Block Version :11945
        init.js Version :11428
          isNumeric(input) Version :11428
            Block Version :0
          Block Version :11427
          Block Version :11426
        jquery-windows-engine Version :10229
          jquery.windows-engine.css Version :10130
            jquery.windows-engine.css-block1 Version :10130
          jquery.windows-engine.js Version :10108
            jquery.windows-engine.js-block1 Version :10108
          default Version :10095
            bottom_mid.gif Version :10096
              bottom_mid.gif-block1 Version :10096
            top_right.gif Version :10072
              top_right.gif-block1 Version :10072
            .svn Version :11898
              prop-base Version :11896
              text-base Version :11888
            maximize.gif Version :10055
              maximize.gif-block1 Version :10055
            minimize.gif Version :10053
              minimize.gif-block1 Version :10053
            top_left.gif Version :10051
              top_left.gif-block1 Version :10051
            top_mid.gif Version :10017
              top_mid.gif-block1 Version :10017
            close.gif Version :9965
              close.gif-block1 Version :9965
            sizer.gif Version :9963
              sizer.gif-block1 Version :9963
          ajaxcontent.html Version :9935
            ajaxcontent.html-block1 Version :9935
          sample.html Version :9864
            sample.html-block1 Version :9864
        instance_processor.js Version :11380
          InstanceProcessor Version :10773
            Block Version :0
          Block Version :10772
          Block Version :10771
        jquery-1.8.2.js Version :11395
          jquery-1.8.2.js-block1 Version :9646
        jquery.form.js Version :11396
          jquery.form.js-block1 Version :9611
        styles.css Version :11537
          styles.css-block1 Version :11537
        pfront.js Version :11446
          ParetoFrontVisualizer Version :11446
            Block Version :0
          Block Version :11445
        app.html Version :11730
          app.html-block1 Version :11730
        main.js Version :11728
          Host(modules) Version :11728
            Block Version :0
          Block Version :11727
          Block Version :11726
        images Version :11397
          no.png Version :11471
            no.png-block1 Version :11471
          preloader.gif Version :9683
            preloader.gif-block1 Version :9683
          tick.png Version :9648
            tick.png-block1 Version :9648
        help_pages Version :9335
        commons Version :9448
          set Version :9425
            src Version :9363
              assets Version :9365
            min Version :9418
              assets Version :9420
            bin Version :9422
          jquery-windows-engine Version :9441
            default Version :9440
      ClaferMoo Version :10227
        tools Version :12132
        spl_datagenerator Version :12215
          tests Version :12186
        dataset Version :12266
        testset Version :12179
    README.md Version :12130
      README.md-block1 Version :12130
    Files Version :10378
      AndroidSampleMoo2.cfr Version :10379
        AndroidSampleMoo2.cfr-block1 Version :10379
      minimobilephone2012models_desugared_desugared.choco Version :10094
        minimobilephone2012models_desugared_desugared.choco-block1 Version :10094
      minimobilephone2012models_desugared_desugared.als Version :10047
        minimobilephone2012models_desugared_desugared.als-block1 Version :10047
      minimobilephone2012models_desugared_desugared.cfr Version :10045
        minimobilephone2012models_desugared_desugared.cfr-block1 Version :10045
      minimobilephone2012models_desugared_desugared.xml Version :10043
        minimobilephone2012models_desugared_desugared.xml-block1 Version :10043
      mobilephone2012models_desugared_desugared.choco Version :9995
        mobilephone2012models_desugared_desugared.choco-block1 Version :9995
      mobilephone2012models_desugared_desugared.als Version :9931
        mobilephone2012models_desugared_desugared.als-block1 Version :9931
      mobilephone2012models_desugared_desugared.cfr Version :9929
        mobilephone2012models_desugared_desugared.cfr-block1 Version :9929
      mobilephone2012models_desugared_desugared.xml Version :9927
        mobilephone2012models_desugared_desugared.xml-block1 Version :9927
      linkedlistsplc2011_desugared_desugared.choco Version :9922
        linkedlistsplc2011_desugared_desugared.choco-block1 Version :9922
      linkedlistsplc2011_desugared_desugared.als Version :9894
        linkedlistsplc2011_desugared_desugared.als-block1 Version :9894
      linkedlistsplc2011_desugared_desugared.cfr Version :9892
        linkedlistsplc2011_desugared_desugared.cfr-block1 Version :9892
      linkedlistsplc2011_desugared_desugared.xml Version :9890
        linkedlistsplc2011_desugared_desugared.xml-block1 Version :9890
      minimobilephone2012models_desugared.choco Version :9880
        minimobilephone2012models_desugared.choco-block1 Version :9880
      apacheicse2012_desugared_desugared.choco Version :9853
        apacheicse2012_desugared_desugared.choco-block1 Version :9853
      violetsplc2011_desugared_desugared.choco Version :9851
        violetsplc2011_desugared_desugared.choco-block1 Version :9851
      minimobilephone2012models_desugared.als Version :9843
        minimobilephone2012models_desugared.als-block1 Version :9843
      minimobilephone2012models_desugared.cfr Version :9841
        minimobilephone2012models_desugared.cfr-block1 Version :9841
      minimobilephone2012models_desugared.xml Version :9839
        minimobilephone2012models_desugared.xml-block1 Version :9839
      apacheicse2012_desugared_desugared.als Version :9826
        apacheicse2012_desugared_desugared.als-block1 Version :9826
      apacheicse2012_desugared_desugared.cfr Version :9824
        apacheicse2012_desugared_desugared.cfr-block1 Version :9824
      apacheicse2012_desugared_desugared.xml Version :9822
        apacheicse2012_desugared_desugared.xml-block1 Version :9822
      violetsplc2011_desugared_desugared.als Version :9820
        violetsplc2011_desugared_desugared.als-block1 Version :9820
      violetsplc2011_desugared_desugared.cfr Version :9818
        violetsplc2011_desugared_desugared.cfr-block1 Version :9818
      violetsplc2011_desugared_desugared.xml Version :9816
        violetsplc2011_desugared_desugared.xml-block1 Version :9816
      mobilephone2012models_desugared.choco Version :9810
        mobilephone2012models_desugared.choco-block1 Version :9810
      mobilephone_desugared_desugared.choco Version :9808
        mobilephone_desugared_desugared.choco-block1 Version :9808
      mobilephone2012models_desugared.als Version :9761
        mobilephone2012models_desugared.als-block1 Version :9761
      mobilephone2012models_desugared.cfr Version :9759
        mobilephone2012models_desugared.cfr-block1 Version :9759
      mobilephone2012models_desugared.xml Version :9757
        mobilephone2012models_desugared.xml-block1 Version :9757
      mobilephone_desugared_desugared.als Version :9755
        mobilephone_desugared_desugared.als-block1 Version :9755
      mobilephone_desugared_desugared.cfr Version :9753
        mobilephone_desugared_desugared.cfr-block1 Version :9753
      mobilephone_desugared_desugared.xml Version :9751
        mobilephone_desugared_desugared.xml-block1 Version :9751
      linkedlistsplc2011_desugared.choco Version :9749
        linkedlistsplc2011_desugared.choco-block1 Version :9749
      linkedlistsplc2011_desugared.als Version :9728
        linkedlistsplc2011_desugared.als-block1 Version :9728
      linkedlistsplc2011_desugared.cfr Version :9726
        linkedlistsplc2011_desugared.cfr-block1 Version :9726
      linkedlistsplc2011_desugared.xml Version :9724
        linkedlistsplc2011_desugared.xml-block1 Version :9724
      apacheicse2012_desugared.choco Version :9718
        apacheicse2012_desugared.choco-block1 Version :9718
      sqlitesplc2011_desugared.choco Version :9716
        sqlitesplc2011_desugared.choco-block1 Version :9716
      violetsplc2011_desugared.choco Version :9714
        violetsplc2011_desugared.choco-block1 Version :9714
      minimobilephone2012models.cfr Version :9712
        minimobilephone2012models.cfr-block1 Version :9712
      minimobilephone2012models.xml Version :9710
        minimobilephone2012models.xml-block1 Version :9710
      apacheicse2012_desugared.als Version :9701
        apacheicse2012_desugared.als-block1 Version :9701
      apacheicse2012_desugared.cfr Version :9699
        apacheicse2012_desugared.cfr-block1 Version :9699
      apacheicse2012_desugared.xml Version :9697
        apacheicse2012_desugared.xml-block1 Version :9697
      sqlitesplc2011_desugared.als Version :9695
        sqlitesplc2011_desugared.als-block1 Version :9695
      sqlitesplc2011_desugared.cfr Version :9693
        sqlitesplc2011_desugared.cfr-block1 Version :9693
      sqlitesplc2011_desugared.xml Version :9691
        sqlitesplc2011_desugared.xml-block1 Version :9691
      violetsplc2011_desugared.als Version :9689
        violetsplc2011_desugared.als-block1 Version :9689
      violetsplc2011_desugared.cfr Version :9687
        violetsplc2011_desugared.cfr-block1 Version :9687
      violetsplc2011_desugared.xml Version :9685
        violetsplc2011_desugared.xml-block1 Version :9685
      mobilephone_desugared.choco Version :9681
        mobilephone_desugared.choco-block1 Version :9681
      mobilephone2012models.cfr Version :9671
        mobilephone2012models.cfr-block1 Version :9671
      mobilephone2012models.xml Version :9669
        mobilephone2012models.xml-block1 Version :9669
      mobilephone_desugared.als Version :9667
        mobilephone_desugared.als-block1 Version :9667
      mobilephone_desugared.cfr Version :9665
        mobilephone_desugared.cfr-block1 Version :9665
      mobilephone_desugared.xml Version :9663
        mobilephone_desugared.xml-block1 Version :9663
      linkedlistsplc2011.cfr Version :9615
        linkedlistsplc2011.cfr-block1 Version :9615
      linkedlistsplc2011.xml Version :9613
        linkedlistsplc2011.xml-block1 Version :9613
      AndroidSampleMoo.cfr Version :10501
        AndroidSampleMoo.cfr-block1 Version :10501
      apacheicse2012.cfr Version :9558
        apacheicse2012.cfr-block1 Version :9558
      apacheicse2012.xml Version :9556
        apacheicse2012.xml-block1 Version :9556
      sqlitesplc2011.cfr Version :9554
        sqlitesplc2011.cfr-block1 Version :9554
      sqlitesplc2011.xml Version :9552
        sqlitesplc2011.xml-block1 Version :9552
      violetsplc2011.cfr Version :9550
        violetsplc2011.cfr-block1 Version :9550
      violetsplc2011.xml Version :9548
        violetsplc2011.xml-block1 Version :9548
      mobilephone.cfr Version :9539
        mobilephone.cfr-block1 Version :9539
      mobilephone.xml Version :9537
        mobilephone.xml-block1 Version :9537
      a.cfr Version :9456
        a.cfr-block1 Version :9456
      a.xml Version :9454
        a.xml-block1 Version :9454
