RepositoryCopies Version :19925
  ClaferConfigurator Version :18087
    simpletests Version :17188
      AndroidSample1.cfr Version :18855
        AndroidSample1.cfr-block1 Version :18855
      AndroidSample3.cfr Version :18961
        AndroidSample3.cfr-block1 Version :18961
    Server Version :18124
      uploads Version :18123
        0tempfolder Version :18122
        1tempfolder Version :18121
        3tempfolder Version :18120
        4tempfolder Version :18119
        5tempfolder Version :18118
      node_modules Version :17196
        express Version :18442
          node_modules Version :17514
            cookie-signature Version :18202
            buffer-crc32 Version :18424
              tests Version :18419
            range-parser Version :18147
            commander Version :18418
              lib Version :18412
            methods Version :18171
            connect Version :18410
              node_modules Version :17679
                formidable Version :18277
                  benchmark Version :18272
                  node-gently Version :18262
                    lib Version :18032
                      gently Version :18257
                    example Version :18260
                    test Version :18254
                      simple Version :18253
                  example Version :18271
                  tool Version :18234
                  lib Version :18268
                  test Version :18251
                    integration Version :18244
                    unit Version :18235
                    fixture Version :18245
                      http Version :18084
                        special-chars-in-filename Version :18248
                      js Version :18247
                      file Version :18250
                    legacy Version :18243
                      integration Version :18242
                      system Version :18237
                      simple Version :18241
                bytes Version :18290
                pause Version :18233
                crc Version :18283
                  test Version :18278
                  lib Version :18280
                qs Version :18227
                  test Version :18206
                    browser Version :18213
                  lib Version :18218
              lib Version :18405
                middleware Version :18402
                  session Version :18385
                public Version :18374
                  icons Version :18371
            cookie Version :18196
              test Version :18191
            debug Version :18188
              example Version :18183
              lib Version :18178
            fresh Version :18176
            mkdirp Version :18169
              examples Version :18165
              test Version :18160
            send Version :18141
              node_modules Version :17559
                mime Version :18134
                  types Version :18129
              lib Version :18136
          bin Version :18436
          lib Version :18433
            router Version :18428
        .bin Version :18443
      claferIG Version :17174
      Client Version :18945
        constraint_manipulator.js Version :19297
          ConstraintManipulator(host){ Version :19297
            Block Version :0
          Block Version :19296
        md_comparison_table.js Version :19409
          block Version :19408
          block Version :19407
          block Version :19404
          block Version :19401
          block Version :19397
          block Version :19393
          block Version :19390
          block Version :19387
          ComparisonTable(host) Version :19386
            Block Version :0
        instance_converter.js Version :18954
          InstanceConverter(source) Version :18939
            Block Version :0
          Block Version :18938
          Block Version :18937
        instance_processor.js Version :19053
          InstanceProcessor Version :19053
            Block Version :0
          Block Version :19052
          Block Version :19051
        clafer_processor.js Version :19416
          ClaferProcessor Version :19416
            Block Version :0
          Block Version :19415
        table_filter.js Version :19374
          block Version :19373
          block Version :19372
          block Version :19369
          tableFilter(tableid, Version :19368
            Block Version :0
        xml_helper.js Version :18508
          XMLHelper() Version :18508
            Block Version :0
          Block Version :18507
          Block Version :18506
        set Version :18847
          CHANGELOG.txt Version :18569
            CHANGELOG.txt-block1 Version :18569
          package.json Version :18555
            Block Version :18555
          LICENSE.txt Version :18543
            LICENSE.txt-block1 Version :18543
          bin Version :18540
            jsbuild Version :18541
              jsbuild-block1 Version :18541
          README.txt Version :18523
            README.txt-block1 Version :18523
          min Version :18720
            package-browser.js.map Version :18721
              package-browser.js.map-block1 Version :18721
            constant_scope.js.map Version :18719
              constant_scope.js.map-block1 Version :18719
            loader-browser.js.map Version :18717
              loader-browser.js.map-block1 Version :18717
            method_chain.js.map Version :18711
              method_chain.js.map-block1 Version :18711
            forwardable.js.map Version :18705
              forwardable.js.map-block1 Version :18705
            linked_list.js.map Version :18703
              linked_list.js.map-block1 Version :18703
            package-browser.js Version :18701
              Block Version :18701
            stack_trace.js.map Version :18699
              stack_trace.js.map-block1 Version :18699
            assets Version :18714
              bullet_go.png Version :18715
                bullet_go.png-block1 Version :18715
              testui.css Version :18693
                testui.css-block1 Version :18693
            comparable.js.map Version :18690
              comparable.js.map-block1 Version :18690
            constant_scope.js Version :18688
              Block Version :18688
            deferrable.js.map Version :18686
              deferrable.js.map-block1 Version :18686
            enumerable.js.map Version :18684
              enumerable.js.map-block1 Version :18684
            loader-browser.js Version :18682
              Block Version :18682
            observable.js.map Version :18680
              observable.js.map-block1 Version :18680
            benchmark.js.map Version :18671
              benchmark.js.map-block1 Version :18671
            decorator.js.map Version :18669
              decorator.js.map-block1 Version :18669
            method_chain.js Version :18667
              Block Version :18667
            command.js.map Version :18660
              command.js.map-block1 Version :18660
            console.js.map Version :18658
              console.js.map-block1 Version :18658
            forwardable.js Version :18656
              Block Version :18656
            linked_list.js Version :18654
              Block Version :18654
            package.js.map Version :18652
              package.js.map-block1 Version :18652
            stack_trace.js Version :18650
              Block Version :18650
            comparable.js Version :18632
              Block Version :18632
            deferrable.js Version :18630
              Block Version :18630
            enumerable.js Version :18628
              Block Version :18628
            loader.js.map Version :18626
              loader.js.map-block1 Version :18626
            observable.js Version :18624
              Block Version :18624
            benchmark.js Version :18612
              Block Version :18612
            decorator.js Version :18610
              Block Version :18610
            proxy.js.map Version :18608
              proxy.js.map-block1 Version :18608
            range.js.map Version :18606
              range.js.map-block1 Version :18606
            state.js.map Version :18604
              state.js.map-block1 Version :18604
            tsort.js.map Version :18602
              tsort.js.map-block1 Version :18602
            core.js.map Version :18593
              core.js.map-block1 Version :18593
            hash.js.map Version :18591
              hash.js.map-block1 Version :18591
            test.js.map Version :18589
              test.js.map-block1 Version :18589
            command.js Version :18587
              Block Version :18587
            console.js Version :18585
              Block Version :18585
            dom.js.map Version :18583
              dom.js.map-block1 Version :18583
            package.js Version :18581
              Block Version :18581
            set.js.map Version :18579
              set.js.map-block1 Version :18579
            loader.js Version :18567
              Block Version :18567
            proxy.js Version :18563
              Block Version :18563
            range.js Version :18561
              Block Version :18561
            state.js Version :18559
              Block Version :18559
            tsort.js Version :18557
              Block Version :18557
            core.js Version :18538
              Block Version :18538
            hash.js Version :18536
              Block Version :18536
            test.js Version :18534
              Block Version :18534
            dom.js Version :18521
              Block Version :18521
            set.js Version :18519
              Block Version :18519
          src Version :18696
            package-browser.js Version :18697
              Block Version :18697
            assets Version :18712
              bullet_go.png Version :18713
                bullet_go.png-block1 Version :18713
              testui.css Version :18678
                testui.css-block1 Version :18678
            constant_scope.js Version :18675
              Block Version :18675
            loader-browser.js Version :18673
              Block Version :18673
            method_chain.js Version :18665
              Block Version :18665
            forwardable.js Version :18648
              Block Version :18648
            linked_list.js Version :18646
              Block Version :18646
            stack_trace.js Version :18644
              Block Version :18644
            comparable.js Version :18622
              Block Version :18622
            deferrable.js Version :18620
              Block Version :18620
            enumerable.js Version :18618
              Block Version :18618
            observable.js Version :18616
              Block Version :18616
            benchmark.js Version :18600
              Block Version :18600
            decorator.js Version :18598
              Block Version :18598
            command.js Version :18577
              Block Version :18577
            console.js Version :18575
              Block Version :18575
            package.js Version :18573
              Block Version :18573
            loader.js Version :18565
              Block Version :18565
            proxy.js Version :18553
              Block Version :18553
            range.js Version :18551
              Block Version :18551
            state.js Version :18549
              Block Version :18549
            tsort.js Version :18547
              Block Version :18547
            core.js Version :18532
              Block Version :18532
            hash.js Version :18530
              Block Version :18530
            test.js Version :18528
              Block Version :18528
            dom.js Version :18516
              Block Version :18516
            set.js Version :18514
              Block Version :18514
          index.js Version :18504
            Block Version :18504
        styles.css Version :18501
          styles.css-block1 Version :18501
        ptable.js Version :18956
          TableVisualizer Version :18499
            Block Version :0
          Block Version :18498
        plist.js Version :18958
          ListVisualizer Version :18496
            Block Version :0
          Block Version :18495
        data.js Version :18957
          block Version :18832
          block Version :18831
          block Version :18828
          block Version :18825
          DataTable Version :18823
            Block Version :0
        jquery-windows-engine Version :18095
          jquery.windows-engine.css Version :17437
            jquery.windows-engine.css-block1 Version :17437
          jquery.windows-engine.js Version :17402
            jquery.windows-engine.js-block1 Version :17402
          default Version :17357
            bottom_mid.gif Version :17358
              bottom_mid.gif-block1 Version :17358
            top_right.gif Version :17346
              top_right.gif-block1 Version :17346
            maximize.gif Version :17324
              maximize.gif-block1 Version :17324
            minimize.gif Version :17322
              minimize.gif-block1 Version :17322
            top_left.gif Version :17320
              top_left.gif-block1 Version :17320
            top_mid.gif Version :17298
              top_mid.gif-block1 Version :17298
            close.gif Version :17272
              close.gif-block1 Version :17272
            sizer.gif Version :17270
              sizer.gif-block1 Version :17270
          ajaxcontent.html Version :17267
            ajaxcontent.html-block1 Version :17267
          sample.html Version :17252
            sample.html-block1 Version :17252
        JS.Class.3-0-8.zip Version :17195
          JS.Class.3-0-8.zip-block1 Version :17195
        jquery-1.8.2.js Version :18951
          jquery-1.8.2.js-block1 Version :17184
        jquery.form.js Version :18952
          jquery.form.js-block1 Version :17182
        md_control.js Version :19383
          Control(host) Version :19383
            Block Version :0
          Block Version :19382
        md_output.js Version :19108
          Output(host) Version :19108
            Block Version :0
          Block Version :19107
        md_input.js Version :19380
          block Version :19379
          block Version :19378
          Input(host) Version :19377
            Block Version :0
        app.html Version :18944
          app.html-block1 Version :18944
        init.js Version :18787
          isNumeric(input) Version :18787
            Block Version :0
          Block Version :18786
        main.js Version :19413
          Host(modules) Version :19413
            Block Version :0
          Block Version :19412
          Block Version :19411
      package.json Version :18109
        Block Version :18109
      server.js Version :19257
        block Version :19256
        block Version :19255
        block Version :19243
        block Version :19242
        block Version :19228
        block Version :19227
        closeProcess(Key){ Version :19226
          Block Version :19236
        finishCleanup(dir, Version :19225
          Block Version :19250
        cleanupOldFiles(dir) Version :19224
          Block Version :19251
        deleteOld(path){ Version :19223
          Block Version :19252
        ProcessCleaner(){ Version :19222
          Block Version :19260
        ProcessLog(){ Version :19221
          Block Version :19261
        Block Version :19245
        Block Version :19246
        Block Version :19258
        Block Version :19259
    README.md Version :19418
      README.md-block1 Version :19418
  ClaferIDE Version :19419
    Server Version :15598
      Examples Version :15681
        MOO_MobilePhone_From_Wiki.cfr Version :15682
          MOO_MobilePhone_From_Wiki.cfr-block1 Version :15682
        MOO_Android4_From_Wiki.cfr Version :15680
          MOO_Android4_From_Wiki.cfr-block1 Version :15680
        AndroidSampleMoo_2.cfr Version :15671
          AndroidSampleMoo_2.cfr-block1 Version :15671
        AndroidSampleMoo_3.cfr Version :15669
          AndroidSampleMoo_3.cfr-block1 Version :15669
        AndroidSampleMoo_4.cfr Version :15667
          AndroidSampleMoo_4.cfr-block1 Version :15667
        AndroidSampleMoo_5.cfr Version :15665
          AndroidSampleMoo_5.cfr-block1 Version :15665
        examples.json Version :15607
          examples.json-block1 Version :15607
        Car4D.cfr Version :15600
          Car4D.cfr-block1 Version :15600
      uploads Version :15597
      Client Version :15677
        compiler_html_wrapper.html Version :15678
          compiler_html_wrapper.html-block1 Version :15678
        help_pages Version :15695
          objectivesandqualityranges_help.html Version :15696
            objectivesandqualityranges_help.html-block1 Version :15696
          featureandqualitymatrix_help.html Version :15694
            featureandqualitymatrix_help.html-block1 Version :15694
          inputfileorexample_help.html Version :15692
            inputfileorexample_help.html-block1 Version :15692
          clafersourcemodel_help.html Version :15690
            clafersourcemodel_help.html-block1 Version :15690
          bubblefrontgraph_help.html Version :15688
            bubblefrontgraph_help.html-block1 Version :15688
          variantcomparer_help.html Version :15686
            variantcomparer_help.html-block1 Version :15686
          objectives_help.html Version :15684
            objectives_help.html-block1 Version :15684
          input_help.html Version :15676
            input_help.html-block1 Version :15676
          start_help.html Version :15674
            start_help.html-block1 Version :15674
        md_clafermodel.js Version :15659
          Block Version :15659
          Block Version :15658
          ClaferModel(host) Version :15657
            Block Version :0
        commons Version :15654
          jquery.form.js Version :15655
            jquery.form.js-block1 Version :15655
          jquery-windows-engine Version :15652
            sample.html Version :15653
              sample.html-block1 Version :15653
            jquery.windows-engine.js Version :15651
              jquery.windows-engine.js-block1 Version :15651
            jquery.windows-engine.css Version :15649
              jquery.windows-engine.css-block1 Version :15649
            default Version :15646
              top_right.gif Version :15647
                top_right.gif-block1 Version :15647
              top_mid.gif Version :15645
                top_mid.gif-block1 Version :15645
              top_left.gif Version :15643
                top_left.gif-block1 Version :15643
              sizer.gif Version :15641
                sizer.gif-block1 Version :15641
              minimize.gif Version :15639
                minimize.gif-block1 Version :15639
              maximize.gif Version :15637
                maximize.gif-block1 Version :15637
              close.gif Version :15635
                close.gif-block1 Version :15635
              bottom_mid.gif Version :15633
                bottom_mid.gif-block1 Version :15633
            ajaxcontent.html Version :15630
              ajaxcontent.html-block1 Version :15630
          jquery-1.8.2.js Version :15627
            jquery-1.8.2.js-block1 Version :15627
          init.js Version :15625
            Block Version :15625
            Block Version :15624
            Block Version :15623
            Block Version :15622
            Block Version :15621
            isNumeric(input) Version :15620
              Block Version :0
            getPID(input){ Version :15619
              Block Version :0
            parsePID(PID){ Version :15618
              Block Version :0
            setCookie(c_name,value,exdays) Version :15617
              Block Version :0
            getCookie(c_name) Version :15616
              Block Version :0
          help_getter.js Version :15614
            Block Version :15614
            helpGetter(host){ Version :15613
              Block Version :0
        images Version :15662
          help_hover.png Version :15663
            help_hover.png-block1 Version :15663
          preloader.gif Version :15661
            preloader.gif-block1 Version :15661
          help.png Version :15610
            help.png-block1 Version :15610
        md_input.js Version :19917
          block Version :19916
          block Version :19915
          block Version :19914
          block Version :19911
          block Version :19910
          block Version :19907
          block Version :19906
          block Version :19903
          block Version :19900
          block Version :19899
          block Version :19896
          block Version :19895
          block Version :19892
          block Version :19891
          block Version :19889
          block Version :19888
          block Version :19883
          block Version :19880
          block Version :19879
          block Version :19876
          block Version :19873
          block Version :19872
          block Version :19867
          block Version :19866
          block Version :19865
          block Version :19862
          block Version :19861
          block Version :19858
          block Version :19857
          block Version :19854
          block Version :19853
          block Version :19850
          block Version :19847
          block Version :19846
          block Version :19842
          block Version :19839
          block Version :19838
          block Version :19835
          block Version :19834
          block Version :19831
          block Version :19828
          block Version :19827
          block Version :19824
          block Version :19821
          block Version :19820
          block Version :19817
          block Version :19814
          block Version :19813
          block Version :19810
          block Version :19809
          Input(host) Version :19808
            block Version :19807
            block Version :19806
            block Version :19805
            block Version :19801
          unescapeJSON(escaped) Version :19799
            Block Version :19887
          Block Version :19798
        robots.txt Version :15596
          robots.txt-block1 Version :15596
        styles.css Version :15594
          styles.css-block1 Version :15594
        app.html Version :15592
          app.html-block1 Version :15592
        main.js Version :19925
          block Version :19924
          block Version :19923
          block Version :19922
          Host(modules) Version :19921
            Block Version :0
          Block Version :19920
      package.json Version :15585
        package.json-block1 Version :15585
      config.json Version :15583
        config.json-block1 Version :15583
      server.js Version :19794
        block Version :19793
        block Version :19792
        block Version :19790
        block Version :19789
        block Version :19785
        block Version :19770
        block Version :19769
        block Version :19768
        block Version :19765
        block Version :19762
        block Version :19759
        block Version :19756
        block Version :19755
        block Version :19752
        block Version :19751
        block Version :19748
        block Version :19747
        block Version :19711
        block Version :19675
        block Version :19672
        block Version :19669
        block Version :19668
        block Version :19665
        block Version :19662
        block Version :19661
        block Version :19658
        block Version :19655
        block Version :19652
        block Version :19649
        block Version :19648
        block Version :19645
        block Version :19644
        block Version :19625
        block Version :19622
        block Version :19621
        block Version :19618
        block Version :19617
        block Version :19598
        block Version :19595
        block Version :19594
        block Version :19772
        block Version :19590
        block Version :19587
        block Version :19586
        block Version :19552
        block Version :19549
        block Version :19551
        block Version :19547
        block Version :19543
        block Version :19539
        block Version :19538
        block Version :19534
        block Version :19530
        block Version :19529
        block Version :19525
        block Version :19491
        block Version :19473
        block Version :19455
        block Version :19437
        finishCleanup(dir, Version :19436
          Block Version :19776
        cleanupOldFiles(path, Version :19435
          Block Version :19782
        deleteOld(path){ Version :19434
          Block Version :19783
        escapeJSON(unsafe) Version :19433
          Block Version :19742
        changeFileExt(name, Version :19432
          Block Version :19743
        killProcessTree(process) Version :19431
          Block Version :19788
        dependency_ok() Version :19430
          Block Version :19795
        filterArgs(original_args, Version :19429
          Block Version :19746
        Block Version :19779
        Block Version :19780
        Block Version :19781
        Block Version :19735
        Block Version :19784
    README.md Version :15698
      README.md-block1 Version :15698
    LICENSE Version :15561
      LICENSE-block1 Version :15561
  ClaferMooVisualizer Version :15699
    LICENSE Version :15700
      LICENSE-block1 Version :15700
    Spec Version :16013
    mobilephone.cfr Version :10233
      mobilephone.cfr-block1 Version :10233
    OLD_php Version :11900
    Talk_Samples Version :16389
      Non-AFM.cfr Version :16390
        Non-AFM.cfr-block1 Version :16390
      test1.cfr Version :16388
        test1.cfr-block1 Version :16388
      ClaferMooVizPaperExample_Downgraded_Front.data Version :13830
        ClaferMooVizPaperExample_Downgraded_Front.data-block1 Version :13830
      ClaferMooVizPaperExample_Downgraded_Front.cfr Version :13832
        ClaferMooVizPaperExample_Downgraded_Front.cfr-block1 Version :13832
      ClaferMooVizPaperExample_Existing1.data Version :13826
        ClaferMooVizPaperExample_Existing1.data-block1 Version :13826
      ClaferMooVizPaperExample_Existing1.cfr Version :13828
        ClaferMooVizPaperExample_Existing1.cfr-block1 Version :13828
      ClaferMooVizPaperExample.data Version :13834
        ClaferMooVizPaperExample.data-block1 Version :13834
      ClaferMooVizPaperExample.cfr Version :14252
        ClaferMooVizPaperExample.cfr-block1 Version :14252
      AndroidSampleMoo_4_existing_product_spec.cfr Version :13299
        AndroidSampleMoo_4_existing_product_spec.cfr-block1 Version :13299
      AndroidSampleMoo_2.cfr.1.data Version :13271
        AndroidSampleMoo_2.cfr.1.data-block1 Version :13271
      AndroidSampleMoo_2.cfr.2.data Version :14558
        AndroidSampleMoo_2.cfr.2.data-block1 Version :14558
      AndroidSampleMoo_4.cfr Version :10925
        AndroidSampleMoo_4.cfr-block1 Version :10925
      AndroidSampleMoo_5.cfr Version :11632
        AndroidSampleMoo_5.cfr-block1 Version :11632
      AndroidSampleMoo_2.cfr Version :14400
        AndroidSampleMoo_2.cfr-block1 Version :14400
      AndroidSampleMoo_3.cfr Version :10603
        AndroidSampleMoo_3.cfr-block1 Version :10603
    Server Version :16100
      claferIG Version :13013
      config.json Version :16812
        block Version :16811
        block Version :16813
        block Version :16809
        block Version :16805
      package.json Version :15803
        Block Version :15803
      server.js Version :16801
        block Version :16800
        block Version :16799
        block Version :16797
        block Version :16796
        block Version :16792
        block Version :16777
        block Version :16776
        block Version :16775
        block Version :16772
        block Version :16769
        block Version :16766
        block Version :16763
        block Version :16762
        block Version :16759
        block Version :16758
        block Version :16755
        block Version :16754
        block Version :16718
        block Version :16682
        block Version :16679
        block Version :16676
        block Version :16675
        block Version :16672
        block Version :16669
        block Version :16668
        block Version :16665
        block Version :16662
        block Version :16659
        block Version :16656
        block Version :16655
        block Version :16652
        block Version :16651
        block Version :16632
        block Version :16629
        block Version :16628
        block Version :16625
        block Version :16624
        block Version :16605
        block Version :16602
        block Version :16601
        block Version :16779
        block Version :16597
        block Version :16594
        block Version :16593
        block Version :16559
        block Version :16556
        block Version :16558
        block Version :16554
        block Version :16550
        block Version :16546
        block Version :16545
        block Version :16541
        block Version :16537
        block Version :16536
        block Version :16532
        block Version :16498
        block Version :16480
        block Version :16462
        block Version :16444
        finishCleanup(dir, Version :16443
          Block Version :16783
        cleanupOldFiles(path, Version :16442
          Block Version :16789
        deleteOld(path){ Version :16441
          Block Version :16790
        escapeJSON(unsafe) Version :16440
          Block Version :16749
        changeFileExt(name, Version :16439
          Block Version :16750
        killProcessTree(process) Version :16438
          Block Version :16795
        dependency_ok() Version :16437
          Block Version :16802
        filterArgs(original_args, Version :16436
          Block Version :16753
        Block Version :16786
        Block Version :16787
        Block Version :16788
        Block Version :16742
        Block Version :16791
      upload.js Version :10982
        display_page(req, Version :10982
          Block Version :0
        parse_multipart(req) Version :10981
          Block Version :0
        basename(str) Version :10980
          Block Version :0
        upload_file(req, Version :10979
          Block Version :0
        escapeHtml(unsafe) Version :10978
          Block Version :0
        changeFileExt(name, Version :10977
          Block Version :0
        upload_complete(res, Version :10976
          Block Version :0
        show_404(req, Version :10975
          Block Version :0
        getMimeByExt(filename) Version :10974
          Block Version :0
        getPath(req, Version :10973
          Block Version :0
        Block Version :10972
        Block Version :10971
        Block Version :10970
        Block Version :10969
        Block Version :10968
        Block Version :10967
        Block Version :10966
        Block Version :10965
        Block Version :10964
        Block Version :10963
      cache Version :6737
      Backends Version :16395
        backends.json Version :16396
          Block Version :16396
        ChocoSingle Version :6741
        ClaferMoo Version :6739
          spl_datagenerator Version :5455
          tools Version :5441
      Examples Version :16416
        MOO_MobilePhone_From_Wiki.cfr Version :16417
          MOO_MobilePhone_From_Wiki.cfr-block1 Version :16417
        MOO_Android4_From_Wiki.cfr Version :16415
          MOO_Android4_From_Wiki.cfr-block1 Version :16415
        AndroidSampleMoo_2.cfr Version :16411
          AndroidSampleMoo_2.cfr-block1 Version :16411
        AndroidSampleMoo_3.cfr Version :16409
          AndroidSampleMoo_3.cfr-block1 Version :16409
        AndroidSampleMoo_4.cfr Version :16407
          AndroidSampleMoo_4.cfr-block1 Version :16407
        AndroidSampleMoo_5.cfr Version :16405
          AndroidSampleMoo_5.cfr-block1 Version :16405
        examples.json Version :16394
          Block Version :16394
        Car4D.cfr Version :16392
          Car4D.cfr-block1 Version :16392
      uploads Version :11839
      Client Version :17023
        instance_filter.js Version :17066
          block Version :17034
          block Version :17033
          block Version :17030
          block Version :17027
          InstanceFilter Version :17026
            Block Version :0
          Block Version :17025
        md_console.js Version :17071
          Console(host) Version :16971
            Block Version :0
          Block Version :16970
          Block Version :16969
        selector.js Version :17075
          Selector(host) Version :16819
            Block Version :0
          Block Version :16818
          Block Version :16817
        help_pages Version :17046
          bubblefrontgraph_help.html Version :17047
            bubblefrontgraph_help.html-block1 Version :17047
          featureandqualitymatrix_help.html Version :17045
            featureandqualitymatrix_help.html-block1 Version :17045
          input_help.html Version :17043
            input_help.html-block1 Version :17043
          objectives_help.html Version :17041
            objectives_help.html-block1 Version :17041
          start_help.html Version :17039
            start_help.html-block1 Version :17039
          variantcomparer_help.html Version :17037
            variantcomparer_help.html-block1 Version :17037
          objectivesandqualityranges_help.html Version :16426
            objectivesandqualityranges_help.html-block1 Version :16426
          inputfileorexample_help.html Version :16424
            inputfileorexample_help.html-block1 Version :16424
          clafersourcemodel_help.html Version :16422
            clafersourcemodel_help.html-block1 Version :16422
        jquery.html5-placeholder-shim.js Version :16419
          jquery.html5-placeholder-shim.js-block1 Version :16419
        compiler_html_wrapper.html Version :16413
          compiler_html_wrapper.html-block1 Version :16413
        instance_parser.js Version :17067
          InstanceParser(instances) Version :16403
            Block Version :0
          Block Version :16402
        md_clafermodel.js Version :17074
          ClaferModel(host) Version :16400
            Block Version :0
          Block Version :16399
          Block Version :16398
        robots.txt Version :12036
          robots.txt-block1 Version :12036
        md_analysis.js Version :17073
          block Version :17013
          block Version :17012
          block Version :17009
          block Version :17006
          block Version :17003
          Analysis(host) Version :17002
            Block Version :0
          Block Version :17001
        md_input.js Version :17072
          block Version :16940
          block Version :16939
          block Version :16938
          block Version :16935
          block Version :16934
          block Version :16931
          block Version :16930
          block Version :16927
          block Version :16924
          block Version :16923
          block Version :16920
          block Version :16919
          block Version :16916
          block Version :16915
          block Version :16913
          block Version :16912
          block Version :16907
          block Version :16904
          block Version :16903
          block Version :16900
          block Version :16897
          block Version :16896
          block Version :16891
          block Version :16890
          block Version :16889
          block Version :16886
          block Version :16885
          block Version :16882
          block Version :16881
          block Version :16878
          block Version :16877
          block Version :16874
          block Version :16871
          block Version :16870
          block Version :16866
          block Version :16863
          block Version :16862
          block Version :16859
          block Version :16858
          block Version :16855
          block Version :16852
          block Version :16851
          block Version :16848
          block Version :16845
          block Version :16844
          block Version :16841
          block Version :16838
          block Version :16837
          block Version :16834
          block Version :16833
          Input(host) Version :16832
            block Version :16831
            block Version :16830
            block Version :16829
            block Version :16825
          unescapeJSON(escaped) Version :16823
            Block Version :16911
          Block Version :16822
        md_comparison_table.js Version :17068
          block Version :16997
          block Version :16996
          block Version :16993
          block Version :16990
          block Version :16987
          block Version :16983
          block Version :16979
          block Version :16976
          ComparisonTable(host) Version :16975
            Block Version :0
          Block Version :16974
        xml_helper.js Version :10733
          XMLHelper() Version :10733
            Block Version :0
          Block Version :10732
          Block Version :10731
        md_goals.js Version :17069
          Goals(host) Version :16967
            Block Version :0
          Block Version :16966
          Block Version :16965
        md_graph.js Version :17070
          block Version :16959
          block Version :16958
          block Version :16953
          block Version :16948
          Graph(host) Version :16947
            Block Version :0
          setDim(el, Version :16946
            Block Version :16962
          Block Version :16945
          Block Version :16963
        init.js Version :14949
          isNumeric(input) Version :14949
            Block Version :0
          getPID(input){ Version :14948
            Block Version :0
          parsePID(PID){ Version :14947
            Block Version :0
          setCookie(c_name,value,exdays) Version :14946
            Block Version :0
          getCookie(c_name) Version :14945
            Block Version :0
          Block Version :14944
          Block Version :14943
          Block Version :14942
          Block Version :14941
          Block Version :14940
          Block Version :14939
        jquery-windows-engine Version :10229
          jquery.windows-engine.css Version :10130
            jquery.windows-engine.css-block1 Version :10130
          jquery.windows-engine.js Version :10108
            jquery.windows-engine.js-block1 Version :10108
          default Version :10095
            bottom_mid.gif Version :10096
              bottom_mid.gif-block1 Version :10096
            top_right.gif Version :10072
              top_right.gif-block1 Version :10072
            .svn Version :11898
              prop-base Version :11896
              text-base Version :11888
            maximize.gif Version :10055
              maximize.gif-block1 Version :10055
            minimize.gif Version :10053
              minimize.gif-block1 Version :10053
            top_left.gif Version :10051
              top_left.gif-block1 Version :10051
            top_mid.gif Version :10017
              top_mid.gif-block1 Version :10017
            close.gif Version :9965
              close.gif-block1 Version :9965
            sizer.gif Version :9963
              sizer.gif-block1 Version :9963
          ajaxcontent.html Version :9935
            ajaxcontent.html-block1 Version :9935
          sample.html Version :9864
            sample.html-block1 Version :9864
        jquery-1.8.2.js Version :14971
          jquery-1.8.2.js-block1 Version :9646
        jquery.form.js Version :14972
          jquery.form.js-block1 Version :9611
        styles.css Version :16815
          styles.css-block1 Version :16815
        app.html Version :17063
          app.html-block1 Version :17063
        main.js Version :17022
          block Version :17021
          block Version :17020
          block Version :17019
          Host(modules) Version :17018
            Block Version :0
          Block Version :17017
        images Version :14840
          help_hover.png Version :14841
            help_hover.png-block1 Version :14841
          help.png Version :14839
            help.png-block1 Version :14839
          checkbox_ticked_greyed.png Version :14398
            checkbox_ticked_greyed.png-block1 Version :14398
          horizontalAxis.png Version :12752
            horizontalAxis.png-block1 Version :12752
          verticalAxis.png Version :12750
            verticalAxis.png-block1 Version :12750
          removeMouseOver.png Version :12540
            removeMouseOver.png-block1 Version :12540
          remove.png Version :12538
            remove.png-block1 Version :12538
          checkbox_ticked.bmp Version :12464
            checkbox_ticked.bmp-block1 Version :12464
          checkbox_empty.bmp Version :12462
            checkbox_empty.bmp-block1 Version :12462
          checkbox_x.bmp Version :12460
            checkbox_x.bmp-block1 Version :12460
          no.png Version :11471
            no.png-block1 Version :11471
          preloader.gif Version :9683
            preloader.gif-block1 Version :9683
          tick.png Version :9648
            tick.png-block1 Version :9648
        commons Version :17058
          clafer_processor.js Version :17061
            ClaferProcessor Version :17061
              Block Version :0
            Block Version :17060
            Block Version :17059
          pfront.js Version :17057
            block Version :17056
            block Version :17055
            block Version :17052
            ParetoFrontVisualizer Version :17051
              Block Version :0
            Block Version :17050
          jquery-1.8.2.js Version :16009
            jquery-1.8.2.js-block1 Version :15445
          xml_helper.js Version :15944
            XMLHelper() Version :15944
              Block Version :0
            Block Version :15943
            Block Version :15942
          jquery.form.js Version :16010
            jquery.form.js-block1 Version :15373
          init.js Version :15977
            isNumeric(input) Version :15977
              Block Version :0
            getPID(input){ Version :15976
              Block Version :0
            parsePID(PID){ Version :15975
              Block Version :0
            setCookie(c_name,value,exdays) Version :15974
              Block Version :0
            getCookie(c_name) Version :15973
              Block Version :0
            Block Version :15972
            Block Version :15971
            Block Version :15970
            Block Version :15969
            Block Version :15968
          jquery-windows-engine Version :16012
            jquery.windows-engine.css Version :15469
              jquery.windows-engine.css-block1 Version :15469
            sample.html Version :15439
              sample.html-block1 Version :15439
            jquery.windows-engine.js Version :15363
              jquery.windows-engine.js-block1 Version :15363
            ajaxcontent.html Version :15304
              ajaxcontent.html-block1 Version :15304
            default Version :15524
              sizer.gif Version :15525
                sizer.gif-block1 Version :15525
              top_right.gif Version :15496
                top_right.gif-block1 Version :15496
              top_left.gif Version :15433
                top_left.gif-block1 Version :15433
              top_mid.gif Version :15427
                top_mid.gif-block1 Version :15427
              bottom_mid.gif Version :15405
                bottom_mid.gif-block1 Version :15405
              maximize.gif Version :15355
                maximize.gif-block1 Version :15355
              close.gif Version :15345
                close.gif-block1 Version :15345
              minimize.gif Version :15312
                minimize.gif-block1 Version :15312
      ClaferMoo Version :10227
        tools Version :12132
        spl_datagenerator Version :12215
          tests Version :12186
        dataset Version :12266
        testset Version :12179
    README.md Version :17065
      README.md-block1 Version :17065
    Files Version :17145
