RepositoryCopies Version :9452
  ClaferMooVisualizer Version :9452
    Talk_Samples Version :9287
    Server Version :9290
      cache Version :6737
      Backends Version :9450
        ChocoSingle Version :6741
        ClaferMoo Version :6739
          spl_datagenerator Version :5455
          tools Version :5441
      Examples Version :9298
      uploads Version :513
      Client Version :9449
        images Version :9326
        help_pages Version :9335
        commons Version :9448
          set Version :9425
            src Version :9363
              assets Version :9365
            min Version :9418
              assets Version :9420
            bin Version :9422
          jquery-windows-engine Version :9441
            default Version :9440
      ClaferMoo Version :148
    README.md Version :9272
      README.md-block1 Version :9272
    Files Version :6811
