RepositoryCopies Version :14972
  ClaferMooVisualizer Version :13265
    Spec Version :13266
      i180.png Version :13267
        i180.png-block1 Version :13267
    mobilephone.cfr Version :10233
      mobilephone.cfr-block1 Version :10233
    OLD_php Version :11900
    Talk_Samples Version :14021
      ClaferMooVizPaperExample_Downgraded_Front.data Version :13830
        ClaferMooVizPaperExample_Downgraded_Front.data-block1 Version :13830
      ClaferMooVizPaperExample_Downgraded_Front.cfr Version :13832
        ClaferMooVizPaperExample_Downgraded_Front.cfr-block1 Version :13832
      ClaferMooVizPaperExample_Existing1.data Version :13826
        ClaferMooVizPaperExample_Existing1.data-block1 Version :13826
      ClaferMooVizPaperExample_Existing1.cfr Version :13828
        ClaferMooVizPaperExample_Existing1.cfr-block1 Version :13828
      ClaferMooVizPaperExample.data Version :13834
        ClaferMooVizPaperExample.data-block1 Version :13834
      ClaferMooVizPaperExample.cfr Version :14252
        ClaferMooVizPaperExample.cfr-block1 Version :14252
      AndroidSampleMoo_4_existing_product_spec.cfr Version :13299
        AndroidSampleMoo_4_existing_product_spec.cfr-block1 Version :13299
      AndroidSampleMoo_2.cfr.1.data Version :13271
        AndroidSampleMoo_2.cfr.1.data-block1 Version :13271
      AndroidSampleMoo_2.cfr.2.data Version :14558
        AndroidSampleMoo_2.cfr.2.data-block1 Version :14558
      AndroidSampleMoo_4.cfr Version :10925
        AndroidSampleMoo_4.cfr-block1 Version :10925
      AndroidSampleMoo_5.cfr Version :11632
        AndroidSampleMoo_5.cfr-block1 Version :11632
      AndroidSampleMoo_2.cfr Version :14400
        AndroidSampleMoo_2.cfr-block1 Version :14400
      AndroidSampleMoo_3.cfr Version :10603
        AndroidSampleMoo_3.cfr-block1 Version :10603
    Server Version :13013
      claferIG Version :13013
      config.json Version :12794
        Block Version :12794
      package.json Version :11696
        Block Version :11696
      server.js Version :14707
        block Version :14706
        block Version :14705
        block Version :14692
        block Version :14679
        block Version :14666
        block Version :14653
        finishCleanup(dir, Version :14652
          Block Version :14713
        cleanupOldFiles(path, Version :14651
          Block Version :14714
        deleteOld(path){ Version :14650
          Block Version :14715
        escapeHtml(unsafe) Version :14649
          Block Version :14716
        changeFileExt(name, Version :14648
          Block Version :14717
        Block Version :14708
        Block Version :14709
        Block Version :14710
        Block Version :14711
        Block Version :14712
      multipart Version :11851
        test Version :11844
        lib Version :11850
      upload.js Version :10982
        display_page(req, Version :10982
          Block Version :0
        parse_multipart(req) Version :10981
          Block Version :0
        basename(str) Version :10980
          Block Version :0
        upload_file(req, Version :10979
          Block Version :0
        escapeHtml(unsafe) Version :10978
          Block Version :0
        changeFileExt(name, Version :10977
          Block Version :0
        upload_complete(res, Version :10976
          Block Version :0
        show_404(req, Version :10975
          Block Version :0
        getMimeByExt(filename) Version :10974
          Block Version :0
        getPath(req, Version :10973
          Block Version :0
        Block Version :10972
        Block Version :10971
        Block Version :10970
        Block Version :10969
        Block Version :10968
        Block Version :10967
        Block Version :10966
        Block Version :10965
        Block Version :10964
        Block Version :10963
      cache Version :6737
      Backends Version :9450
        ChocoSingle Version :6741
        ClaferMoo Version :6739
          spl_datagenerator Version :5455
          tools Version :5441
      Examples Version :9298
      uploads Version :11839
      Client Version :14835
        help_getter.js Version :14957
          helpGetter(host){ Version :14837
            Block Version :0
          Block Version :14836
        instance_filter.js Version :14956
          block Version :14952
          block Version :14935
          block Version :14932
          InstanceFilter Version :14931
            Block Version :0
          Block Version :14930
        Instance_parser.js Version :14809
          InstanceParser(instances) Version :14809
            Block Version :0
          Block Version :14808
        robots.txt Version :12036
          robots.txt-block1 Version :12036
        plist.js Version :14966
          ListVisualizer Version :11329
            Block Version :0
          Block Version :11328
        JS.Class.3-0-8.zip Version :11179
          JS.Class.3-0-8.zip-block1 Version :11179
        md_analysis.js Version :14965
          block Version :14922
          block Version :14921
          block Version :14918
          block Version :14915
          block Version :14912
          Analysis(host) Version :14911
            Block Version :0
        set Version :11310
          CHANGELOG.txt Version :11161
            CHANGELOG.txt-block1 Version :11161
          package.json Version :11147
            Block Version :11147
          LICENSE.txt Version :11137
            LICENSE.txt-block1 Version :11137
          bin Version :11134
            jsbuild Version :11135
              jsbuild-block1 Version :11135
          README.txt Version :11117
            README.txt-block1 Version :11117
          min Version :11288
            package-browser.js.map Version :11289
              package-browser.js.map-block1 Version :11289
            constant_scope.js.map Version :11287
              constant_scope.js.map-block1 Version :11287
            loader-browser.js.map Version :11285
              loader-browser.js.map-block1 Version :11285
            method_chain.js.map Version :11279
              method_chain.js.map-block1 Version :11279
            forwardable.js.map Version :11277
              forwardable.js.map-block1 Version :11277
            linked_list.js.map Version :11275
              linked_list.js.map-block1 Version :11275
            package-browser.js Version :11273
              Block Version :11273
            stack_trace.js.map Version :11271
              stack_trace.js.map-block1 Version :11271
            assets Version :11282
              bullet_go.png Version :11283
                bullet_go.png-block1 Version :11283
              testui.css Version :11267
                testui.css-block1 Version :11267
            comparable.js.map Version :11264
              comparable.js.map-block1 Version :11264
            constant_scope.js Version :11262
              Block Version :11262
            deferrable.js.map Version :11260
              deferrable.js.map-block1 Version :11260
            enumerable.js.map Version :11258
              enumerable.js.map-block1 Version :11258
            loader-browser.js Version :11256
              Block Version :11256
            observable.js.map Version :11254
              observable.js.map-block1 Version :11254
            benchmark.js.map Version :11245
              benchmark.js.map-block1 Version :11245
            decorator.js.map Version :11243
              decorator.js.map-block1 Version :11243
            method_chain.js Version :11241
              Block Version :11241
            command.js.map Version :11237
              command.js.map-block1 Version :11237
            console.js.map Version :11235
              console.js.map-block1 Version :11235
            forwardable.js Version :11233
              Block Version :11233
            linked_list.js Version :11231
              Block Version :11231
            package.js.map Version :11229
              package.js.map-block1 Version :11229
            stack_trace.js Version :11227
              Block Version :11227
            comparable.js Version :11219
              Block Version :11219
            deferrable.js Version :11217
              Block Version :11217
            enumerable.js Version :11215
              Block Version :11215
            loader.js.map Version :11213
              loader.js.map-block1 Version :11213
            observable.js Version :11211
              Block Version :11211
            benchmark.js Version :11201
              Block Version :11201
            decorator.js Version :11199
              Block Version :11199
            proxy.js.map Version :11197
              proxy.js.map-block1 Version :11197
            range.js.map Version :11195
              range.js.map-block1 Version :11195
            state.js.map Version :11193
              state.js.map-block1 Version :11193
            tsort.js.map Version :11191
              tsort.js.map-block1 Version :11191
            core.js.map Version :11185
              core.js.map-block1 Version :11185
            hash.js.map Version :11183
              hash.js.map-block1 Version :11183
            test.js.map Version :11181
              test.js.map-block1 Version :11181
            command.js Version :11177
              Block Version :11177
            console.js Version :11175
              Block Version :11175
            dom.js.map Version :11173
              dom.js.map-block1 Version :11173
            package.js Version :11171
              Block Version :11171
            set.js.map Version :11169
              set.js.map-block1 Version :11169
            loader.js Version :11159
              Block Version :11159
            proxy.js Version :11155
              Block Version :11155
            range.js Version :11153
              Block Version :11153
            state.js Version :11151
              Block Version :11151
            tsort.js Version :11149
              Block Version :11149
            core.js Version :11132
              Block Version :11132
            hash.js Version :11130
              Block Version :11130
            test.js Version :11128
              Block Version :11128
            dom.js Version :11115
              Block Version :11115
            set.js Version :11113
              Block Version :11113
          src Version :11268
            package-browser.js Version :11269
              Block Version :11269
            assets Version :11280
              bullet_go.png Version :11281
                bullet_go.png-block1 Version :11281
              testui.css Version :11252
                testui.css-block1 Version :11252
            constant_scope.js Version :11249
              Block Version :11249
            loader-browser.js Version :11247
              Block Version :11247
            method_chain.js Version :11239
              Block Version :11239
            forwardable.js Version :11225
              Block Version :11225
            linked_list.js Version :11223
              Block Version :11223
            stack_trace.js Version :11221
              Block Version :11221
            comparable.js Version :11209
              Block Version :11209
            deferrable.js Version :11207
              Block Version :11207
            enumerable.js Version :11205
              Block Version :11205
            observable.js Version :11203
              Block Version :11203
            benchmark.js Version :11189
              Block Version :11189
            decorator.js Version :11187
              Block Version :11187
            command.js Version :11167
              Block Version :11167
            console.js Version :11165
              Block Version :11165
            package.js Version :11163
              Block Version :11163
            loader.js Version :11157
              Block Version :11157
            proxy.js Version :11145
              Block Version :11145
            range.js Version :11143
              Block Version :11143
            state.js Version :11141
              Block Version :11141
            tsort.js Version :11139
              Block Version :11139
            core.js Version :11126
              Block Version :11126
            hash.js Version :11124
              Block Version :11124
            test.js Version :11122
              Block Version :11122
            dom.js Version :11110
              Block Version :11110
            set.js Version :11108
              Block Version :11108
          index.js Version :11105
            Block Version :11105
        md_usecases.js Version :14964
          UseCases(host) Version :11449
            Block Version :0
          Block Version :11448
        selector.js Version :14969
          Selector(host) Version :14324
            Block Version :0
          Block Version :14323
        ptable.js Version :14967
          TableVisualizer Version :14561
            Block Version :0
          Block Version :14560
        data.js Version :14968
          block Version :14541
          block Version :14540
          block Version :14537
          block Version :14534
          DataTable Version :14532
            Block Version :0
        md_input.js Version :14963
          block Version :13934
          block Version :13933
          block Version :13930
          block Version :13927
          block Version :13926
          block Version :13923
          block Version :13920
          block Version :13919
          block Version :13916
          block Version :13915
          Input(host) Version :13914
            Block Version :0
        md_console.js Version :14962
          Console(host) Version :11462
            Block Version :0
          Block Version :11461
        md_comparison_table.js Version :14959
          block Version :14907
          block Version :14906
          block Version :14903
          block Version :14900
          block Version :14897
          block Version :14893
          block Version :14889
          ComparisonTable(host) Version :14888
            Block Version :0
        instance_converter.js Version :14955
          InstanceConverter(source) Version :10609
            Block Version :0
          Block Version :10608
          Block Version :10607
        clafer_processor.js Version :14970
          ClaferProcessor Version :14806
            Block Version :0
          Block Version :14805
        xml_helper.js Version :10733
          XMLHelper() Version :10733
            Block Version :0
          Block Version :10732
          Block Version :10731
        md_goals.js Version :14960
          Goals(host) Version :14750
            Block Version :0
          Block Version :14749
        md_graph.js Version :14961
          block Version :14881
          block Version :14880
          block Version :14875
          block Version :14870
          Graph(host) Version :14869
            Block Version :0
          setDim(el, Version :14868
            Block Version :14884
          Block Version :14885
        init.js Version :14949
          isNumeric(input) Version :14949
            Block Version :0
          getPID(input){ Version :14948
            Block Version :0
          parsePID(PID){ Version :14947
            Block Version :0
          setCookie(c_name,value,exdays) Version :14946
            Block Version :0
          getCookie(c_name) Version :14945
            Block Version :0
          Block Version :14944
          Block Version :14943
          Block Version :14942
          Block Version :14941
          Block Version :14940
          Block Version :14939
        jquery-windows-engine Version :10229
          jquery.windows-engine.css Version :10130
            jquery.windows-engine.css-block1 Version :10130
          jquery.windows-engine.js Version :10108
            jquery.windows-engine.js-block1 Version :10108
          default Version :10095
            bottom_mid.gif Version :10096
              bottom_mid.gif-block1 Version :10096
            top_right.gif Version :10072
              top_right.gif-block1 Version :10072
            .svn Version :11898
              prop-base Version :11896
              text-base Version :11888
            maximize.gif Version :10055
              maximize.gif-block1 Version :10055
            minimize.gif Version :10053
              minimize.gif-block1 Version :10053
            top_left.gif Version :10051
              top_left.gif-block1 Version :10051
            top_mid.gif Version :10017
              top_mid.gif-block1 Version :10017
            close.gif Version :9965
              close.gif-block1 Version :9965
            sizer.gif Version :9963
              sizer.gif-block1 Version :9963
          ajaxcontent.html Version :9935
            ajaxcontent.html-block1 Version :9935
          sample.html Version :9864
            sample.html-block1 Version :9864
        instance_processor.js Version :14954
          InstanceProcessor Version :14793
            Block Version :0
          Block Version :14792
          Block Version :14791
        jquery-1.8.2.js Version :14971
          jquery-1.8.2.js-block1 Version :9646
        jquery.form.js Version :14972
          jquery.form.js-block1 Version :9611
        styles.css Version :14855
          styles.css-block1 Version :14855
        pfront.js Version :14958
          block Version :14863
          block Version :14862
          block Version :14859
          ParetoFrontVisualizer Version :14858
            Block Version :0
        app.html Version :14951
          app.html-block1 Version :14951
        main.js Version :14927
          Host(modules) Version :14927
            Block Version :0
          Block Version :14926
          Block Version :14925
        images Version :14840
          help_hover.png Version :14841
            help_hover.png-block1 Version :14841
          help.png Version :14839
            help.png-block1 Version :14839
          checkbox_ticked_greyed.png Version :14398
            checkbox_ticked_greyed.png-block1 Version :14398
          horizontalAxis.png Version :12752
            horizontalAxis.png-block1 Version :12752
          verticalAxis.png Version :12750
            verticalAxis.png-block1 Version :12750
          removeMouseOver.png Version :12540
            removeMouseOver.png-block1 Version :12540
          remove.png Version :12538
            remove.png-block1 Version :12538
          checkbox_ticked.bmp Version :12464
            checkbox_ticked.bmp-block1 Version :12464
          checkbox_empty.bmp Version :12462
            checkbox_empty.bmp-block1 Version :12462
          checkbox_x.bmp Version :12460
            checkbox_x.bmp-block1 Version :12460
          no.png Version :11471
            no.png-block1 Version :11471
          preloader.gif Version :9683
            preloader.gif-block1 Version :9683
          tick.png Version :9648
            tick.png-block1 Version :9648
        help_pages Version :14953
          featureandqualitymatrix_help.html Version :14853
            featureandqualitymatrix_help.html-block1 Version :14853
          bubblefrontgraph_help.html Version :14851
            bubblefrontgraph_help.html-block1 Version :14851
          TEMPLATE_help (copy).html Version :14849
            TEMPLATE_help (copy).html-block1 Version :14849
          variantcomparer_help.html Version :14847
            variantcomparer_help.html-block1 Version :14847
          objectives_help.html Version :14845
            objectives_help.html-block1 Version :14845
          input_help.html Version :14843
            input_help.html-block1 Version :14843
        commons Version :9448
          set Version :9425
            src Version :9363
              assets Version :9365
            min Version :9418
              assets Version :9420
            bin Version :9422
          jquery-windows-engine Version :9441
            default Version :9440
      ClaferMoo Version :10227
        tools Version :12132
        spl_datagenerator Version :12215
          tests Version :12186
        dataset Version :12266
        testset Version :12179
    README.md Version :14811
      README.md-block1 Version :14811
    Files Version :10378
      AndroidSampleMoo2.cfr Version :10379
        AndroidSampleMoo2.cfr-block1 Version :10379
      minimobilephone2012models_desugared_desugared.choco Version :10094
        minimobilephone2012models_desugared_desugared.choco-block1 Version :10094
      minimobilephone2012models_desugared_desugared.als Version :10047
        minimobilephone2012models_desugared_desugared.als-block1 Version :10047
      minimobilephone2012models_desugared_desugared.cfr Version :10045
        minimobilephone2012models_desugared_desugared.cfr-block1 Version :10045
      minimobilephone2012models_desugared_desugared.xml Version :10043
        minimobilephone2012models_desugared_desugared.xml-block1 Version :10043
      mobilephone2012models_desugared_desugared.choco Version :9995
        mobilephone2012models_desugared_desugared.choco-block1 Version :9995
      mobilephone2012models_desugared_desugared.als Version :9931
        mobilephone2012models_desugared_desugared.als-block1 Version :9931
      mobilephone2012models_desugared_desugared.cfr Version :9929
        mobilephone2012models_desugared_desugared.cfr-block1 Version :9929
      mobilephone2012models_desugared_desugared.xml Version :9927
        mobilephone2012models_desugared_desugared.xml-block1 Version :9927
      linkedlistsplc2011_desugared_desugared.choco Version :9922
        linkedlistsplc2011_desugared_desugared.choco-block1 Version :9922
      linkedlistsplc2011_desugared_desugared.als Version :9894
        linkedlistsplc2011_desugared_desugared.als-block1 Version :9894
      linkedlistsplc2011_desugared_desugared.cfr Version :9892
        linkedlistsplc2011_desugared_desugared.cfr-block1 Version :9892
      linkedlistsplc2011_desugared_desugared.xml Version :9890
        linkedlistsplc2011_desugared_desugared.xml-block1 Version :9890
      minimobilephone2012models_desugared.choco Version :9880
        minimobilephone2012models_desugared.choco-block1 Version :9880
      apacheicse2012_desugared_desugared.choco Version :9853
        apacheicse2012_desugared_desugared.choco-block1 Version :9853
      violetsplc2011_desugared_desugared.choco Version :9851
        violetsplc2011_desugared_desugared.choco-block1 Version :9851
      minimobilephone2012models_desugared.als Version :9843
        minimobilephone2012models_desugared.als-block1 Version :9843
      minimobilephone2012models_desugared.cfr Version :9841
        minimobilephone2012models_desugared.cfr-block1 Version :9841
      minimobilephone2012models_desugared.xml Version :9839
        minimobilephone2012models_desugared.xml-block1 Version :9839
      apacheicse2012_desugared_desugared.als Version :9826
        apacheicse2012_desugared_desugared.als-block1 Version :9826
      apacheicse2012_desugared_desugared.cfr Version :9824
        apacheicse2012_desugared_desugared.cfr-block1 Version :9824
      apacheicse2012_desugared_desugared.xml Version :9822
        apacheicse2012_desugared_desugared.xml-block1 Version :9822
      violetsplc2011_desugared_desugared.als Version :9820
        violetsplc2011_desugared_desugared.als-block1 Version :9820
      violetsplc2011_desugared_desugared.cfr Version :9818
        violetsplc2011_desugared_desugared.cfr-block1 Version :9818
      violetsplc2011_desugared_desugared.xml Version :9816
        violetsplc2011_desugared_desugared.xml-block1 Version :9816
      mobilephone2012models_desugared.choco Version :9810
        mobilephone2012models_desugared.choco-block1 Version :9810
      mobilephone_desugared_desugared.choco Version :9808
        mobilephone_desugared_desugared.choco-block1 Version :9808
      mobilephone2012models_desugared.als Version :9761
        mobilephone2012models_desugared.als-block1 Version :9761
      mobilephone2012models_desugared.cfr Version :9759
        mobilephone2012models_desugared.cfr-block1 Version :9759
      mobilephone2012models_desugared.xml Version :9757
        mobilephone2012models_desugared.xml-block1 Version :9757
      mobilephone_desugared_desugared.als Version :9755
        mobilephone_desugared_desugared.als-block1 Version :9755
      mobilephone_desugared_desugared.cfr Version :9753
        mobilephone_desugared_desugared.cfr-block1 Version :9753
      mobilephone_desugared_desugared.xml Version :9751
        mobilephone_desugared_desugared.xml-block1 Version :9751
      linkedlistsplc2011_desugared.choco Version :9749
        linkedlistsplc2011_desugared.choco-block1 Version :9749
      linkedlistsplc2011_desugared.als Version :9728
        linkedlistsplc2011_desugared.als-block1 Version :9728
      linkedlistsplc2011_desugared.cfr Version :9726
        linkedlistsplc2011_desugared.cfr-block1 Version :9726
      linkedlistsplc2011_desugared.xml Version :9724
        linkedlistsplc2011_desugared.xml-block1 Version :9724
      apacheicse2012_desugared.choco Version :9718
        apacheicse2012_desugared.choco-block1 Version :9718
      sqlitesplc2011_desugared.choco Version :9716
        sqlitesplc2011_desugared.choco-block1 Version :9716
      violetsplc2011_desugared.choco Version :9714
        violetsplc2011_desugared.choco-block1 Version :9714
      minimobilephone2012models.cfr Version :9712
        minimobilephone2012models.cfr-block1 Version :9712
      minimobilephone2012models.xml Version :9710
        minimobilephone2012models.xml-block1 Version :9710
      apacheicse2012_desugared.als Version :9701
        apacheicse2012_desugared.als-block1 Version :9701
      apacheicse2012_desugared.cfr Version :9699
        apacheicse2012_desugared.cfr-block1 Version :9699
      apacheicse2012_desugared.xml Version :9697
        apacheicse2012_desugared.xml-block1 Version :9697
      sqlitesplc2011_desugared.als Version :9695
        sqlitesplc2011_desugared.als-block1 Version :9695
      sqlitesplc2011_desugared.cfr Version :9693
        sqlitesplc2011_desugared.cfr-block1 Version :9693
      sqlitesplc2011_desugared.xml Version :9691
        sqlitesplc2011_desugared.xml-block1 Version :9691
      violetsplc2011_desugared.als Version :9689
        violetsplc2011_desugared.als-block1 Version :9689
      violetsplc2011_desugared.cfr Version :9687
        violetsplc2011_desugared.cfr-block1 Version :9687
      violetsplc2011_desugared.xml Version :9685
        violetsplc2011_desugared.xml-block1 Version :9685
      mobilephone_desugared.choco Version :9681
        mobilephone_desugared.choco-block1 Version :9681
      mobilephone2012models.cfr Version :9671
        mobilephone2012models.cfr-block1 Version :9671
      mobilephone2012models.xml Version :9669
        mobilephone2012models.xml-block1 Version :9669
      mobilephone_desugared.als Version :9667
        mobilephone_desugared.als-block1 Version :9667
      mobilephone_desugared.cfr Version :9665
        mobilephone_desugared.cfr-block1 Version :9665
      mobilephone_desugared.xml Version :9663
        mobilephone_desugared.xml-block1 Version :9663
      linkedlistsplc2011.cfr Version :9615
        linkedlistsplc2011.cfr-block1 Version :9615
      linkedlistsplc2011.xml Version :9613
        linkedlistsplc2011.xml-block1 Version :9613
      AndroidSampleMoo.cfr Version :10501
        AndroidSampleMoo.cfr-block1 Version :10501
      apacheicse2012.cfr Version :9558
        apacheicse2012.cfr-block1 Version :9558
      apacheicse2012.xml Version :9556
        apacheicse2012.xml-block1 Version :9556
      sqlitesplc2011.cfr Version :9554
        sqlitesplc2011.cfr-block1 Version :9554
      sqlitesplc2011.xml Version :9552
        sqlitesplc2011.xml-block1 Version :9552
      violetsplc2011.cfr Version :9550
        violetsplc2011.cfr-block1 Version :9550
      violetsplc2011.xml Version :9548
        violetsplc2011.xml-block1 Version :9548
      mobilephone.cfr Version :9539
        mobilephone.cfr-block1 Version :9539
      mobilephone.xml Version :9537
        mobilephone.xml-block1 Version :9537
      a.cfr Version :9456
        a.cfr-block1 Version :9456
      a.xml Version :9454
        a.xml-block1 Version :9454
