RepositoryCopies Version :10377
  ClaferMooVisualizer Version :10232
    mobilephone.cfr Version :10233
      mobilephone.cfr-block1 Version :10233
    mobilephone.xml Version :10231
      mobilephone.xml-block1 Version :10231
    OLD_php Version :9483
      upload.php Version :9484
        upload.php-block1 Version :9484
      web.config Version :9482
        web.config-block1 Version :9482
    Talk_Samples Version :9287
    Server Version :10242
      alloy_solutions_4.xml Version :10243
        alloy_solutions_4.xml-block1 Version :10243
      alloy_solutions_5.xml Version :10241
        alloy_solutions_5.xml-block1 Version :10241
      alloy_solutions_6.xml Version :10239
        alloy_solutions_6.xml-block1 Version :10239
      alloy_solutions_7.xml Version :10237
        alloy_solutions_7.xml-block1 Version :10237
      alloy_solutions_8.xml Version :10235
        alloy_solutions_8.xml-block1 Version :10235
      alloy_solutions_1.xml Version :10298
        alloy_solutions_1.xml-block1 Version :10298
      alloy_solutions_2.xml Version :10296
        alloy_solutions_2.xml-block1 Version :10296
      alloy_solutions_3.xml Version :10294
        alloy_solutions_3.xml-block1 Version :10294
      python.exe.stackdump Version :9580
        python.exe.stackdump-block1 Version :9580
      multipart Version :10226
        test Version :9672
          fixture.js Version :9673
            Block Version :9673
          parse.js Version :9661
            Block Version :9661
          write.js Version :9659
            output(msg) Version :9659
              Block Version :0
            testPart(expect, Version :9658
              Block Version :0
            Block Version :9657
            Block Version :9656
            Block Version :9655
        package.json Version :9617
          Block Version :9617
        lib Version :9678
          multipart.js Version :9679
            Block Version :9679
          parse.js Version :9644
            Parser Version :9644
              Block Version :0
            parseHeaderString Version :9643
              Block Version :0
            affixHeader Version :9642
              Block Version :0
            startPart Version :9641
              Block Version :0
            multipartHeaders Version :9640
              Block Version :0
            stripslashes(str) Version :9639
              Block Version :0
            stripQuotes Version :9638
              Block Version :0
            Block Version :9637
            Block Version :9636
            Block Version :9635
            Block Version :9634
            Block Version :9633
            Block Version :9632
          utils.js Version :9630
            error Version :9630
              Block Version :0
            emit Version :9629
              Block Version :0
            Block Version :9628
          write.js Version :9626
            NYI Version :9626
              Block Version :0
            writer Version :9625
              Block Version :0
            Writer Version :9624
              Block Version :0
            writeHttpHeaders(writer) Version :9623
              Block Version :0
            Block Version :9622
            Block Version :9621
            Block Version :9620
            Block Version :9619
          old.js Version :9603
            parse Version :9603
              Block Version :0
            cat Version :9602
              Block Version :0
            Stream Version :9601
              Block Version :0
            multipartHeaders Version :9600
              Block Version :0
            simpleWriter Version :9599
              Block Version :0
            writer Version :9598
              Block Version :0
            parseHeaderString Version :9597
              Block Version :0
            affixHeader Version :9596
              Block Version :0
            startPart Version :9595
              Block Version :0
            ender Version :9594
              Block Version :0
            stripslashes(str) Version :9593
              Block Version :0
            stripQuotes Version :9592
              Block Version :0
            Block Version :9591
            Block Version :9590
            Block Version :9589
            Block Version :9588
            Block Version :9587
            Block Version :9586
            Block Version :9585
            Block Version :9584
            Block Version :9583
        README.md Version :9563
          README.md-block1 Version :9563
      node.exe.stackdump Version :10290
        node.exe.stackdump-block1 Version :10290
      cache.txt Version :10292
        cache.txt-block1 Version :10292
      upload.js Version :10288
        display_page(req, Version :10288
          Block Version :0
        parse_multipart(req) Version :10287
          Block Version :0
        basename(str) Version :10286
          Block Version :0
        upload_file(req, Version :10285
          Block Version :0
        escapeHtml(unsafe) Version :10284
          Block Version :0
        changeFileExt(name, Version :10283
          Block Version :0
        upload_complete(res, Version :10282
          Block Version :0
        show_404(req, Version :10281
          Block Version :0
        getMimeByExt(filename) Version :10280
          Block Version :0
        getPath(req, Version :10279
          Block Version :0
        Block Version :10278
        Block Version :10277
        Block Version :10276
        Block Version :10275
        Block Version :10274
        Block Version :10273
        Block Version :10272
        Block Version :10271
        Block Version :10270
        Block Version :10269
      cache Version :6737
      Backends Version :9450
        ChocoSingle Version :6741
        ClaferMoo Version :6739
          spl_datagenerator Version :5455
          tools Version :5441
      Examples Version :9298
      uploads Version :10169
        CClaferIEFilesmobilephone2012models_desugared.choco Version :10170
          CClaferIEFilesmobilephone2012models_desugared.choco-block1 Version :10170
        CClaferIEFilesmobilephone2012models_desugared.als Version :10158
          CClaferIEFilesmobilephone2012models_desugared.als-block1 Version :10158
        CClaferIEFilesmobilephone2012models_desugared.cfr Version :10156
          CClaferIEFilesmobilephone2012models_desugared.cfr-block1 Version :10156
        CClaferIEFilesmobilephone2012models_desugared.xml Version :10154
          CClaferIEFilesmobilephone2012models_desugared.xml-block1 Version :10154
        minimobilephone2012models_desugared.choco Version :10049
          minimobilephone2012models_desugared.choco-block1 Version :10049
        violetsplc2011_desugared_desugared.choco Version :10015
          violetsplc2011_desugared_desugared.choco-block1 Version :10015
        CClaferIEFilesmobilephone2012models.cfr Version :10005
          CClaferIEFilesmobilephone2012models.cfr-block1 Version :10005
        CClaferIEFilesmobilephone2012models.xml Version :10003
          CClaferIEFilesmobilephone2012models.xml-block1 Version :10003
        minimobilephone2012models_desugared.als Version :10267
          minimobilephone2012models_desugared.als-block1 Version :10267
        minimobilephone2012models_desugared.cfr Version :10265
          minimobilephone2012models_desugared.cfr-block1 Version :10265
        minimobilephone2012models_desugared.xml Version :10263
          minimobilephone2012models_desugared.xml-block1 Version :10263
        violetsplc2011_desugared_desugared.als Version :9960
          violetsplc2011_desugared_desugared.als-block1 Version :9960
        violetsplc2011_desugared_desugared.cfr Version :9958
          violetsplc2011_desugared_desugared.cfr-block1 Version :9958
        violetsplc2011_desugared_desugared.xml Version :9956
          violetsplc2011_desugared_desugared.xml-block1 Version :9956
        mobilephone2012models_desugared.choco Version :9933
          mobilephone2012models_desugared.choco-block1 Version :9933
        mobilephone2012models_desugared.als Version :10257
          mobilephone2012models_desugared.als-block1 Version :10257
        mobilephone2012models_desugared.cfr Version :10255
          mobilephone2012models_desugared.cfr-block1 Version :10255
        mobilephone2012models_desugared.xml Version :10253
          mobilephone2012models_desugared.xml-block1 Version :10253
        linkedlistsplc2011_desugared.choco Version :9896
          linkedlistsplc2011_desugared.choco-block1 Version :9896
        AndroidSampleMoo_desugared.choco Version :9861
          AndroidSampleMoo_desugared.choco-block1 Version :9861
        linkedlistsplc2011_desugared.als Version :9859
          linkedlistsplc2011_desugared.als-block1 Version :9859
        linkedlistsplc2011_desugared.cfr Version :9857
          linkedlistsplc2011_desugared.cfr-block1 Version :9857
        linkedlistsplc2011_desugared.xml Version :9855
          linkedlistsplc2011_desugared.xml-block1 Version :9855
        AndroidSampleMoo_desugared.als Version :9834
          AndroidSampleMoo_desugared.als-block1 Version :9834
        AndroidSampleMoo_desugared.cfr Version :9832
          AndroidSampleMoo_desugared.cfr-block1 Version :9832
        AndroidSampleMoo_desugared.xml Version :9830
          AndroidSampleMoo_desugared.xml-block1 Version :9830
        apacheicse2012_desugared.choco Version :9828
          apacheicse2012_desugared.choco-block1 Version :9828
        minimobilephone2012models.cfr Version :9814
          minimobilephone2012models.cfr-block1 Version :9814
        minimobilephone2012models.xml Version :9812
          minimobilephone2012models.xml-block1 Version :9812
        apacheicse2012_desugared.als Version :9786
          apacheicse2012_desugared.als-block1 Version :9786
        apacheicse2012_desugared.cfr Version :9784
          apacheicse2012_desugared.cfr-block1 Version :9784
        apacheicse2012_desugared.xml Version :9782
          apacheicse2012_desugared.xml-block1 Version :9782
        violetsplc2011_desugared.cfr Version :9780
          violetsplc2011_desugared.cfr-block1 Version :9780
        violetsplc2011_desugared.xml Version :9778
          violetsplc2011_desugared.xml-block1 Version :9778
        mobilephone_desugared.choco Version :10247
          mobilephone_desugared.choco-block1 Version :10247
        mobilephone2012models.cfr Version :9738
          mobilephone2012models.cfr-block1 Version :9738
        mobilephone2012models.xml Version :9736
          mobilephone2012models.xml-block1 Version :9736
        mobilephone_desugared.als Version :10251
          mobilephone_desugared.als-block1 Version :10251
        mobilephone_desugared.cfr Version :10249
          mobilephone_desugared.cfr-block1 Version :10249
        mobilephone_desugared.xml Version :10245
          mobilephone_desugared.xml-block1 Version :10245
        linkedlistsplc2011.cfr Version :9722
          linkedlistsplc2011.cfr-block1 Version :9722
        linkedlistsplc2011.xml Version :9720
          linkedlistsplc2011.xml-block1 Version :9720
        AndroidSampleMoo.cfr Version :9705
          AndroidSampleMoo.cfr-block1 Version :9705
        AndroidSampleMoo.xml Version :9703
          AndroidSampleMoo.xml-block1 Version :9703
        apacheicse2012.cfr Version :9677
          apacheicse2012.cfr-block1 Version :9677
        apacheicse2012.xml Version :9675
          apacheicse2012.xml-block1 Version :9675
        mobilephone.cfr Version :10261
          mobilephone.cfr-block1 Version :10261
        mobilephone.xml Version :10259
          mobilephone.xml-block1 Version :10259
      Client Version :10225
        jquery-windows-engine Version :10229
          jquery.windows-engine.css Version :10130
            jquery.windows-engine.css-block1 Version :10130
          jquery.windows-engine.js Version :10108
            jquery.windows-engine.js-block1 Version :10108
          default Version :10095
            bottom_mid.gif Version :10096
              bottom_mid.gif-block1 Version :10096
            top_right.gif Version :10072
              top_right.gif-block1 Version :10072
            .svn Version :10188
              prop-base Version :10215
                bottom_mid.gif.svn-base Version :10216
                  bottom_mid.gif.svn-base-block1 Version :10216
                top_right.gif.svn-base Version :10212
                  top_right.gif.svn-base-block1 Version :10212
                maximize.gif.svn-base Version :10208
                  maximize.gif.svn-base-block1 Version :10208
                minimize.gif.svn-base Version :10206
                  minimize.gif.svn-base-block1 Version :10206
                top_left.gif.svn-base Version :10204
                  top_left.gif.svn-base-block1 Version :10204
                top_mid.gif.svn-base Version :10196
                  top_mid.gif.svn-base-block1 Version :10196
                close.gif.svn-base Version :10192
                  close.gif.svn-base-block1 Version :10192
                sizer.gif.svn-base Version :10190
                  sizer.gif.svn-base-block1 Version :10190
              text-base Version :10213
                bottom_mid.gif.svn-base Version :10214
                  bottom_mid.gif.svn-base-block1 Version :10214
                top_right.gif.svn-base Version :10210
                  top_right.gif.svn-base-block1 Version :10210
                maximize.gif.svn-base Version :10202
                  maximize.gif.svn-base-block1 Version :10202
                minimize.gif.svn-base Version :10200
                  minimize.gif.svn-base-block1 Version :10200
                top_left.gif.svn-base Version :10198
                  top_left.gif.svn-base-block1 Version :10198
                top_mid.gif.svn-base Version :10194
                  top_mid.gif.svn-base-block1 Version :10194
                close.gif.svn-base Version :10187
                  close.gif.svn-base-block1 Version :10187
                sizer.gif.svn-base Version :10185
                  sizer.gif.svn-base-block1 Version :10185
              all-wcprops Version :10110
                all-wcprops-block1 Version :10110
              entries Version :10058
                entries-block1 Version :10058
            maximize.gif Version :10055
              maximize.gif-block1 Version :10055
            minimize.gif Version :10053
              minimize.gif-block1 Version :10053
            top_left.gif Version :10051
              top_left.gif-block1 Version :10051
            top_mid.gif Version :10017
              top_mid.gif-block1 Version :10017
            close.gif Version :9965
              close.gif-block1 Version :9965
            sizer.gif Version :9963
              sizer.gif-block1 Version :9963
          ajaxcontent.html Version :9935
            ajaxcontent.html-block1 Version :9935
          sample.html Version :9864
            sample.html-block1 Version :9864
        instance_processor.js Version :10220
          InstanceProcessor(instances) Version :9708
            Block Version :0
          Block Version :9707
        jquery-1.8.2.js Version :10223
          jquery-1.8.2.js-block1 Version :9646
        jquery.form.js Version :10224
          jquery.form.js-block1 Version :9611
        processor.js Version :10311
          XMLProcessor Version :10311
            Block Version :0
          queryXML(xml, Version :10310
            Block Version :0
          claferFilter(s) Version :10309
            Block Version :0
          operationFilter(s) Version :10308
            Block Version :0
          buildExp(exp) Version :10307
            Block Version :0
          findSubtree(root) Version :10306
            Block Version :0
          Block Version :10305
          Block Version :10304
          Block Version :10303
          Block Version :10302
          Block Version :10301
          Block Version :10300
        styles.css Version :9546
          styles.css-block1 Version :9546
        pfront.js Version :10375
          block Version :10374
          block Version :10373
          ParetoFrontVisualizer Version :10372
            Block Version :0
          ParetoFrontVisualizerScatter Version :10371
            Block Version :10377
          Block Version :10376
        app.html Version :9541
          app.html-block1 Version :9541
        main.js Version :10367
          beginQuery(formData, Version :10367
            Block Version :0
          endQuery() Version :10366
            Block Version :0
          graphResize(e) Version :10365
            Block Version :0
          allowDrop(ev) Version :10364
            Block Version :0
          drag(ev) Version :10363
            Block Version :0
          drop(ev) Version :10362
            Block Version :0
          assignValue(id, Version :10361
            Block Version :0
          redrawParetoFront() Version :10360
            Block Version :0
          assignToAxis(axis, Version :10359
            Block Version :0
          showGoals(goals) Version :10358
            Block Version :0
          showRequest(formData, Version :10357
            Block Version :0
          showResponse(responseText, Version :10356
            Block Version :0
          getFile() Version :10355
            Block Version :0
          errorHandler(data) Version :10354
            Block Version :0
          completeHandler(data) Version :10353
            Block Version :0
          progressHandlingFunction(e){ Version :10352
            Block Version :0
          StringtoXML(text){ Version :10351
            Block Version :0
          convertHtmlTags(input) Version :10350
            Block Version :0
          processToolResult(result) Version :10349
            Block Version :0
          onDataPreProcessed() Version :10348
            Block Version :0
          collector(clafer, Version :10347
            Block Version :0
          traverse(clafer, Version :10346
            Block Version :0
          IsNumeric(input) Version :10345
            Block Version :0
          mapValue(sVal) Version :10344
            Block Version :0
          getComparisonHtml() Version :10343
            Block Version :0
          Block Version :10342
          Block Version :10341
          Block Version :10340
          Block Version :10339
          Block Version :10338
          Block Version :10337
          Block Version :10336
          Block Version :10335
          Block Version :10334
          Block Version :10333
          Block Version :10332
          Block Version :10331
          Block Version :10330
          Block Version :10329
          Block Version :10328
          Block Version :10327
          Block Version :10326
          Block Version :10325
          Block Version :10324
          Block Version :10323
          Block Version :10322
          Block Version :10321
          Block Version :10320
          Block Version :10319
          Block Version :10318
        images Version :10228
          preloader.gif Version :9683
            preloader.gif-block1 Version :9683
          tick.png Version :9648
            tick.png-block1 Version :9648
        help_pages Version :9335
        commons Version :9448
          set Version :9425
            src Version :9363
              assets Version :9365
            min Version :9418
              assets Version :9420
            bin Version :9422
          jquery-windows-engine Version :9441
            default Version :9440
      ClaferMoo Version :10227
        tools Version :9936
          constraint_solver_backend.jar Version :9937
            constraint_solver_backend.jar-block1 Version :9937
          multiobjective_alloy_cmd.jar Version :9925
            multiobjective_alloy_cmd.jar-block1 Version :9925
        spl_datagenerator Version :10181
          ClaferAttributedFeatureModelToAlloy.py Version :10182
            ClaferAttributedFeatureModelToAlloy.py-block1 Version :10182
          IntegratedFeatureModelOptimizer.py Version :10180
            IntegratedFeatureModelOptimizer.py-block1 Version :10180
          AppendPartialInstanceAndGoals.pyc Version :10178
            AppendPartialInstanceAndGoals.pyc-block1 Version :10178
          AppendPartialInstanceAndGoals.py Version :10176
            AppendPartialInstanceAndGoals.py-block1 Version :10176
          SatisfiablePartialInstances.py Version :10166
            SatisfiablePartialInstances.py-block1 Version :10166
          PartialInstanceGenerator.py Version :10140
            PartialInstanceGenerator.py-block1 Version :10140
          mobilephone_desugared.choco Version :10138
            mobilephone_desugared.choco-block1 Version :10138
          ConstraintProgramming.pyc Version :10124
            ConstraintProgramming.pyc-block1 Version :10124
          mobilephone_desugared.als Version :10122
            mobilephone_desugared.als-block1 Version :10122
          mobilephone_desugared.cfr Version :10120
            mobilephone_desugared.cfr-block1 Version :10120
          mobilephone_desugared.xml Version :10118
            mobilephone_desugared.xml-block1 Version :10118
          ConstraintProgramming.py Version :10100
            ConstraintProgramming.py-block1 Version :10100
          spl_claferanalyzer.pyc Version :10080
            spl_claferanalyzer.pyc-block1 Version :10080
          AlloyBackToClafer.pyc Version :10066
            AlloyBackToClafer.pyc-block1 Version :10066
          ExpandSumOperator.pyc Version :10064
            ExpandSumOperator.pyc-block1 Version :10064
          spl_claferanalyzer.py Version :10062
            spl_claferanalyzer.py-block1 Version :10062
          xml_parser_helper.pyc Version :10060
            xml_parser_helper.pyc-block1 Version :10060
          AlloyBackToClafer.py Version :10031
            AlloyBackToClafer.py-block1 Version :10031
          ExpandSumOperator.py Version :10029
            ExpandSumOperator.py-block1 Version :10029
          python.exe.stackdump Version :10027
            python.exe.stackdump-block1 Version :10027
          xml_parser_helper.py Version :10023
            xml_parser_helper.py-block1 Version :10023
          alloy_solutions.xml Version :10011
            alloy_solutions.xml-block1 Version :10011
          tests Version :10145
            spl_claferanalyizer.py Version :10146
              spl_claferanalyizer.py-block1 Version :10146
            alloy_solutions_1.xml Version :10136
              alloy_solutions_1.xml-block1 Version :10136
            alloy_solutions_2.xml Version :10134
              alloy_solutions_2.xml-block1 Version :10134
            .chocosolution Version :10025
              .chocosolution-block1 Version :10025
            __init__.py Version :9942
              __init__.py-block1 Version :9942
          FixSimpleZip.py Version :9920
            FixSimpleZip.py-block1 Version :9920
          mobilephone.cfr Version :9918
            mobilephone.cfr-block1 Version :9918
          mobilephone.xml Version :9916
            mobilephone.xml-block1 Version :9916
          ReplaceSum.py Version :9888
            ReplaceSum.py-block1 Version :9888
          test_data.als Version :9886
            test_data.als-block1 Version :9886
          test_data.cfr Version :9884
            test_data.cfr-block1 Version :9884
          test_data.xml Version :9882
            test_data.xml-block1 Version :9882
          __init__.py Version :9845
            __init__.py-block1 Version :9845
          Command.py Version :9837
            Command.py-block1 Version :9837
        dataset Version :10171
          berkeleydbqualityjournal_noattributes.cfr Version :10172
            berkeleydbqualityjournal_noattributes.cfr-block1 Version :10172
          berkeleydbqualityjournal_desugared.choco Version :10168
            berkeleydbqualityjournal_desugared.choco-block1 Version :10168
          berkeleydbqualityjournal_desugared.als Version :10152
            berkeleydbqualityjournal_desugared.als-block1 Version :10152
          berkeleydbqualityjournal_desugared.cfr Version :10150
            berkeleydbqualityjournal_desugared.cfr-block1 Version :10150
          berkeleydbqualityjournal_desugared.xml Version :10148
            berkeleydbqualityjournal_desugared.xml-block1 Version :10148
          berkeleydbsplc2011_noattributes.cfr Version :10128
            berkeleydbsplc2011_noattributes.cfr-block1 Version :10128
          linkedlistsplc2011_noattributes.cfr Version :10126
            linkedlistsplc2011_noattributes.cfr-block1 Version :10126
          berkeleydbsplc2011_desugared.choco Version :10106
            berkeleydbsplc2011_desugared.choco-block1 Version :10106
          linkedlistsplc2011_desugared.choco Version :10104
            linkedlistsplc2011_desugared.choco-block1 Version :10104
          prevaylersplc2011_noattributes.cfr Version :10102
            prevaylersplc2011_noattributes.cfr-block1 Version :10102
          berkeleydbsplc2011_desugared.als Version :10092
            berkeleydbsplc2011_desugared.als-block1 Version :10092
          berkeleydbsplc2011_desugared.cfr Version :10090
            berkeleydbsplc2011_desugared.cfr-block1 Version :10090
          berkeleydbsplc2011_desugared.xml Version :10088
            berkeleydbsplc2011_desugared.xml-block1 Version :10088
          linkedlistsplc2011_desugared.als Version :10086
            linkedlistsplc2011_desugared.als-block1 Version :10086
          linkedlistsplc2011_desugared.cfr Version :10084
            linkedlistsplc2011_desugared.cfr-block1 Version :10084
          linkedlistsplc2011_desugared.xml Version :10082
            linkedlistsplc2011_desugared.xml-block1 Version :10082
          sqlitesplc2011_noattributes.cfr Version :10070
            sqlitesplc2011_noattributes.cfr-block1 Version :10070
          violetsplc2011_noattributes.cfr Version :10068
            violetsplc2011_noattributes.cfr-block1 Version :10068
          apacheicse212_noattributes.cfr Version :10041
            apacheicse212_noattributes.cfr-block1 Version :10041
          pkjabsplc2011_noattributes.cfr Version :10039
            pkjabsplc2011_noattributes.cfr-block1 Version :10039
          violetsplc2011_desugared.choco Version :10037
            violetsplc2011_desugared.choco-block1 Version :10037
          zipmesplc2011_noattributes.cfr Version :10035
            zipmesplc2011_noattributes.cfr-block1 Version :10035
          zipmesplc2011_noattributes.xml Version :10033
            zipmesplc2011_noattributes.xml-block1 Version :10033
          apacheicse212_desugared.choco Version :10013
            apacheicse212_desugared.choco-block1 Version :10013
          berkeleydbqualityjournal.cfr Version :9993
            berkeleydbqualityjournal.cfr-block1 Version :9993
          berkeleydbqualityjournal.xml Version :9991
            berkeleydbqualityjournal.xml-block1 Version :9991
          violetsplc2011_desugared.als Version :9989
            violetsplc2011_desugared.als-block1 Version :9989
          violetsplc2011_desugared.cfr Version :9987
            violetsplc2011_desugared.cfr-block1 Version :9987
          violetsplc2011_desugared.xml Version :9985
            violetsplc2011_desugared.xml-block1 Version :9985
          apacheicse212_desugared.als Version :9954
            apacheicse212_desugared.als-block1 Version :9954
          apacheicse212_desugared.cfr Version :9952
            apacheicse212_desugared.cfr-block1 Version :9952
          apacheicse212_desugared.xml Version :9950
            apacheicse212_desugared.xml-block1 Version :9950
          pkjabsplc2011_desugared.als Version :9948
            pkjabsplc2011_desugared.als-block1 Version :9948
          pkjabsplc2011_desugared.cfr Version :9946
            pkjabsplc2011_desugared.cfr-block1 Version :9946
          pkjabsplc2011_desugared.xml Version :9944
            pkjabsplc2011_desugared.xml-block1 Version :9944
          berkeleydbsplc2011.cfr Version :9878
            berkeleydbsplc2011.cfr-block1 Version :9878
          berkeleydbsplc2011.xml Version :9876
            berkeleydbsplc2011.xml-block1 Version :9876
          linkedlistsplc2011.cfr Version :9874
            linkedlistsplc2011.cfr-block1 Version :9874
          linkedlistsplc2011.xml Version :9872
            linkedlistsplc2011.xml-block1 Version :9872
          prevaylersplc2011.cfr Version :9849
            prevaylersplc2011.cfr-block1 Version :9849
          prevaylersplc2011.xml Version :9847
            prevaylersplc2011.xml-block1 Version :9847
          sqlitesplc2011.cfr Version :9806
            sqlitesplc2011.cfr-block1 Version :9806
          sqlitesplc2011.xml Version :9804
            sqlitesplc2011.xml-block1 Version :9804
          violetsplc2011.cfr Version :9802
            violetsplc2011.cfr-block1 Version :9802
          violetsplc2011.xml Version :9800
            violetsplc2011.xml-block1 Version :9800
          apacheicse212.cfr Version :9776
            apacheicse212.cfr-block1 Version :9776
          apacheicse212.xml Version :9774
            apacheicse212.xml-block1 Version :9774
          pkjabsplc2011.cfr Version :9772
            pkjabsplc2011.cfr-block1 Version :9772
          pkjabsplc2011.xml Version :9770
            pkjabsplc2011.xml-block1 Version :9770
          zipmesplc2011.cfr Version :9768
            zipmesplc2011.cfr-block1 Version :9768
          zipmesplc2011.xml Version :9766
            zipmesplc2011.xml-block1 Version :9766
        testset Version :10173
          linkedlistsplc2011_desugared.chocosolution Version :10174
            linkedlistsplc2011_desugared.chocosolution-block1 Version :10174
          minimobilephone2012models_desugared.als Version :10164
            minimobilephone2012models_desugared.als-block1 Version :10164
          minimobilephone2012models_desugared.cfr Version :10162
            minimobilephone2012models_desugared.cfr-block1 Version :10162
          minimobilephone2012models_desugared.xml Version :10160
            minimobilephone2012models_desugared.xml-block1 Version :10160
          apacheicse2012_desugared.chocosolution Version :10144
            apacheicse2012_desugared.chocosolution-block1 Version :10144
          sqlitesplc2011_desugared.chocosolution Version :10142
            sqlitesplc2011_desugared.chocosolution-block1 Version :10142
          mobilephone2012models_desugared.choco Version :10132
            mobilephone2012models_desugared.choco-block1 Version :10132
          mobilephone2012models_desugared.als Version :10116
            mobilephone2012models_desugared.als-block1 Version :10116
          mobilephone2012models_desugared.cfr Version :10114
            mobilephone2012models_desugared.cfr-block1 Version :10114
          mobilephone2012models_desugared.xml Version :10112
            mobilephone2012models_desugared.xml-block1 Version :10112
          linkedlistsplc2011_desugared.choco Version :10098
            linkedlistsplc2011_desugared.choco-block1 Version :10098
          linkedlistsplc2011_desugared.als Version :10078
            linkedlistsplc2011_desugared.als-block1 Version :10078
          linkedlistsplc2011_desugared.cfr Version :10076
            linkedlistsplc2011_desugared.cfr-block1 Version :10076
          linkedlistsplc2011_desugared.xml Version :10074
            linkedlistsplc2011_desugared.xml-block1 Version :10074
          apacheicse2012_desugared.choco Version :10021
            apacheicse2012_desugared.choco-block1 Version :10021
          sqlitesplc2011_desugared.choco Version :10019
            sqlitesplc2011_desugared.choco-block1 Version :10019
          minimobilephone2012models.cfr Version :10009
            minimobilephone2012models.cfr-block1 Version :10009
          minimobilephone2012models.xml Version :10007
            minimobilephone2012models.xml-block1 Version :10007
          apacheicse2012_desugared.als Version :9983
            apacheicse2012_desugared.als-block1 Version :9983
          apacheicse2012_desugared.cfr Version :9981
            apacheicse2012_desugared.cfr-block1 Version :9981
          apacheicse2012_desugared.xml Version :9979
            apacheicse2012_desugared.xml-block1 Version :9979
          sqlitesplc2011_desugared.als Version :9977
            sqlitesplc2011_desugared.als-block1 Version :9977
          sqlitesplc2011_desugared.cfr Version :9975
            sqlitesplc2011_desugared.cfr-block1 Version :9975
          sqlitesplc2011_desugared.xml Version :9973
            sqlitesplc2011_desugared.xml-block1 Version :9973
          violetsplc2011_desugared.als Version :9971
            violetsplc2011_desugared.als-block1 Version :9971
          violetsplc2011_desugared.cfr Version :9969
            violetsplc2011_desugared.cfr-block1 Version :9969
          violetsplc2011_desugared.xml Version :9967
            violetsplc2011_desugared.xml-block1 Version :9967
          mobilephone_desugared.choco Version :9939
            mobilephone_desugared.choco-block1 Version :9939
          constraint_cross_tree.xml Version :9914
            constraint_cross_tree.xml-block1 Version :9914
          mobilephone2012models.cfr Version :9912
            mobilephone2012models.cfr-block1 Version :9912
          mobilephone2012models.xml Version :9910
            mobilephone2012models.xml-block1 Version :9910
          mobilephone_desugared.als Version :9908
            mobilephone_desugared.als-block1 Version :9908
          mobilephone_desugared.cfr Version :9906
            mobilephone_desugared.cfr-block1 Version :9906
          mobilephone_desugared.xml Version :9904
            mobilephone_desugared.xml-block1 Version :9904
          example_constraint.xml Version :9870
            example_constraint.xml-block1 Version :9870
          linkedlistsplc2011.cfr Version :9868
            linkedlistsplc2011.cfr-block1 Version :9868
          linkedlistsplc2011.xml Version :9866
            linkedlistsplc2011.xml-block1 Version :9866
          apacheicse2012.cfr Version :9798
            apacheicse2012.cfr-block1 Version :9798
          apacheicse2012.xml Version :9796
            apacheicse2012.xml-block1 Version :9796
          sqlitesplc2011.cfr Version :9794
            sqlitesplc2011.cfr-block1 Version :9794
          sqlitesplc2011.xml Version :9792
            sqlitesplc2011.xml-block1 Version :9792
          violetsplc2011.cfr Version :9790
            violetsplc2011.cfr-block1 Version :9790
          violetsplc2011.xml Version :9788
            violetsplc2011.xml-block1 Version :9788
          apache_cplex.lp Version :9747
            apache_cplex.lp-block1 Version :9747
          mobilephone.als Version :9745
            mobilephone.als-block1 Version :9745
          mobilephone.cfr Version :9743
            mobilephone.cfr-block1 Version :9743
          mobilephone.xml Version :9741
            mobilephone.xml-block1 Version :9741
    README.md Version :10218
      README.md-block1 Version :10218
    Files Version :10093
      minimobilephone2012models_desugared_desugared.choco Version :10094
        minimobilephone2012models_desugared_desugared.choco-block1 Version :10094
      minimobilephone2012models_desugared_desugared.als Version :10047
        minimobilephone2012models_desugared_desugared.als-block1 Version :10047
      minimobilephone2012models_desugared_desugared.cfr Version :10045
        minimobilephone2012models_desugared_desugared.cfr-block1 Version :10045
      minimobilephone2012models_desugared_desugared.xml Version :10043
        minimobilephone2012models_desugared_desugared.xml-block1 Version :10043
      mobilephone2012models_desugared_desugared.choco Version :9995
        mobilephone2012models_desugared_desugared.choco-block1 Version :9995
      mobilephone2012models_desugared_desugared.als Version :9931
        mobilephone2012models_desugared_desugared.als-block1 Version :9931
      mobilephone2012models_desugared_desugared.cfr Version :9929
        mobilephone2012models_desugared_desugared.cfr-block1 Version :9929
      mobilephone2012models_desugared_desugared.xml Version :9927
        mobilephone2012models_desugared_desugared.xml-block1 Version :9927
      linkedlistsplc2011_desugared_desugared.choco Version :9922
        linkedlistsplc2011_desugared_desugared.choco-block1 Version :9922
      linkedlistsplc2011_desugared_desugared.als Version :9894
        linkedlistsplc2011_desugared_desugared.als-block1 Version :9894
      linkedlistsplc2011_desugared_desugared.cfr Version :9892
        linkedlistsplc2011_desugared_desugared.cfr-block1 Version :9892
      linkedlistsplc2011_desugared_desugared.xml Version :9890
        linkedlistsplc2011_desugared_desugared.xml-block1 Version :9890
      minimobilephone2012models_desugared.choco Version :9880
        minimobilephone2012models_desugared.choco-block1 Version :9880
      apacheicse2012_desugared_desugared.choco Version :9853
        apacheicse2012_desugared_desugared.choco-block1 Version :9853
      violetsplc2011_desugared_desugared.choco Version :9851
        violetsplc2011_desugared_desugared.choco-block1 Version :9851
      minimobilephone2012models_desugared.als Version :9843
        minimobilephone2012models_desugared.als-block1 Version :9843
      minimobilephone2012models_desugared.cfr Version :9841
        minimobilephone2012models_desugared.cfr-block1 Version :9841
      minimobilephone2012models_desugared.xml Version :9839
        minimobilephone2012models_desugared.xml-block1 Version :9839
      apacheicse2012_desugared_desugared.als Version :9826
        apacheicse2012_desugared_desugared.als-block1 Version :9826
      apacheicse2012_desugared_desugared.cfr Version :9824
        apacheicse2012_desugared_desugared.cfr-block1 Version :9824
      apacheicse2012_desugared_desugared.xml Version :9822
        apacheicse2012_desugared_desugared.xml-block1 Version :9822
      violetsplc2011_desugared_desugared.als Version :9820
        violetsplc2011_desugared_desugared.als-block1 Version :9820
      violetsplc2011_desugared_desugared.cfr Version :9818
        violetsplc2011_desugared_desugared.cfr-block1 Version :9818
      violetsplc2011_desugared_desugared.xml Version :9816
        violetsplc2011_desugared_desugared.xml-block1 Version :9816
      mobilephone2012models_desugared.choco Version :9810
        mobilephone2012models_desugared.choco-block1 Version :9810
      mobilephone_desugared_desugared.choco Version :9808
        mobilephone_desugared_desugared.choco-block1 Version :9808
      mobilephone2012models_desugared.als Version :9761
        mobilephone2012models_desugared.als-block1 Version :9761
      mobilephone2012models_desugared.cfr Version :9759
        mobilephone2012models_desugared.cfr-block1 Version :9759
      mobilephone2012models_desugared.xml Version :9757
        mobilephone2012models_desugared.xml-block1 Version :9757
      mobilephone_desugared_desugared.als Version :9755
        mobilephone_desugared_desugared.als-block1 Version :9755
      mobilephone_desugared_desugared.cfr Version :9753
        mobilephone_desugared_desugared.cfr-block1 Version :9753
      mobilephone_desugared_desugared.xml Version :9751
        mobilephone_desugared_desugared.xml-block1 Version :9751
      linkedlistsplc2011_desugared.choco Version :9749
        linkedlistsplc2011_desugared.choco-block1 Version :9749
      linkedlistsplc2011_desugared.als Version :9728
        linkedlistsplc2011_desugared.als-block1 Version :9728
      linkedlistsplc2011_desugared.cfr Version :9726
        linkedlistsplc2011_desugared.cfr-block1 Version :9726
      linkedlistsplc2011_desugared.xml Version :9724
        linkedlistsplc2011_desugared.xml-block1 Version :9724
      apacheicse2012_desugared.choco Version :9718
        apacheicse2012_desugared.choco-block1 Version :9718
      sqlitesplc2011_desugared.choco Version :9716
        sqlitesplc2011_desugared.choco-block1 Version :9716
      violetsplc2011_desugared.choco Version :9714
        violetsplc2011_desugared.choco-block1 Version :9714
      minimobilephone2012models.cfr Version :9712
        minimobilephone2012models.cfr-block1 Version :9712
      minimobilephone2012models.xml Version :9710
        minimobilephone2012models.xml-block1 Version :9710
      apacheicse2012_desugared.als Version :9701
        apacheicse2012_desugared.als-block1 Version :9701
      apacheicse2012_desugared.cfr Version :9699
        apacheicse2012_desugared.cfr-block1 Version :9699
      apacheicse2012_desugared.xml Version :9697
        apacheicse2012_desugared.xml-block1 Version :9697
      sqlitesplc2011_desugared.als Version :9695
        sqlitesplc2011_desugared.als-block1 Version :9695
      sqlitesplc2011_desugared.cfr Version :9693
        sqlitesplc2011_desugared.cfr-block1 Version :9693
      sqlitesplc2011_desugared.xml Version :9691
        sqlitesplc2011_desugared.xml-block1 Version :9691
      violetsplc2011_desugared.als Version :9689
        violetsplc2011_desugared.als-block1 Version :9689
      violetsplc2011_desugared.cfr Version :9687
        violetsplc2011_desugared.cfr-block1 Version :9687
      violetsplc2011_desugared.xml Version :9685
        violetsplc2011_desugared.xml-block1 Version :9685
      mobilephone_desugared.choco Version :9681
        mobilephone_desugared.choco-block1 Version :9681
      mobilephone2012models.cfr Version :9671
        mobilephone2012models.cfr-block1 Version :9671
      mobilephone2012models.xml Version :9669
        mobilephone2012models.xml-block1 Version :9669
      mobilephone_desugared.als Version :9667
        mobilephone_desugared.als-block1 Version :9667
      mobilephone_desugared.cfr Version :9665
        mobilephone_desugared.cfr-block1 Version :9665
      mobilephone_desugared.xml Version :9663
        mobilephone_desugared.xml-block1 Version :9663
      linkedlistsplc2011.cfr Version :9615
        linkedlistsplc2011.cfr-block1 Version :9615
      linkedlistsplc2011.xml Version :9613
        linkedlistsplc2011.xml-block1 Version :9613
      AndroidSampleMoo.cfr Version :9578
        AndroidSampleMoo.cfr-block1 Version :9578
      apacheicse2012.cfr Version :9558
        apacheicse2012.cfr-block1 Version :9558
      apacheicse2012.xml Version :9556
        apacheicse2012.xml-block1 Version :9556
      sqlitesplc2011.cfr Version :9554
        sqlitesplc2011.cfr-block1 Version :9554
      sqlitesplc2011.xml Version :9552
        sqlitesplc2011.xml-block1 Version :9552
      violetsplc2011.cfr Version :9550
        violetsplc2011.cfr-block1 Version :9550
      violetsplc2011.xml Version :9548
        violetsplc2011.xml-block1 Version :9548
      mobilephone.cfr Version :9539
        mobilephone.cfr-block1 Version :9539
      mobilephone.xml Version :9537
        mobilephone.xml-block1 Version :9537
      a.cfr Version :9456
        a.cfr-block1 Version :9456
      a.xml Version :9454
        a.xml-block1 Version :9454
